58 , 1628 , 123 , 1628 , 123 , 1611 , 58 , 1611 , 발행일시
421 , 1623 , 478 , 1623 , 478 , 1607 , 421 , 1607 , 0150726
332 , 1624 , 397 , 1624 , 397 , 1607 , 332 , 1607 , 발행번호
799 , 1622 , 844 , 1622 , 844 , 1604 , 799 , 1604 , 210mm
235 , 1585 , 249 , 1585 , 249 , 1572 , 235 , 1572 , 중
87 , 1588 , 103 , 1588 , 103 , 1571 , 87 , 1571 , 주
499 , 1582 , 529 , 1582 , 529 , 1566 , 499 , 1566 , 따라
440 , 1583 , 486 , 1583 , 486 , 1566 , 440 , 1566 , 특성에
261 , 1585 , 340 , 1585 , 340 , 1570 , 261 , 1570 , 선택항목은
350 , 1583 , 430 , 1583 , 430 , 1568 , 350 , 1568 , 요양기관의
622 , 1581 , 668 , 1581 , 668 , 1565 , 622 , 1565 , 생략할
678 , 1582 , 693 , 1582 , 693 , 1566 , 678 , 1566 , 수
540 , 1583 , 570 , 1583 , 570 , 1565 , 540 , 1565 , 추가
686 , 1550 , 740 , 1550 , 740 , 1535 , 686 , 1535 , 수증.kr
980 , 1530 , 1010 , 1530 , 1010 , 1512 , 980 , 1512 , http
818 , 1529 , 843 , 1529 , 843 , 1513 , 818 , 1513 , 126
696 , 1528 , 772 , 1528 , 772 , 1512 , 696 , 1512 , 현금영수증
978 , 1508 , 990 , 1508 , 990 , 1493 , 978 , 1493 , 수
689 , 1507 , 733 , 1507 , 733 , 1494 , 689 , 1494 , 영수증
864 , 1485 , 971 , 1485 , 971 , 1471 , 864 , 1471 , 지출증빙용으로
689 , 1486 , 719 , 1486 , 719 , 1472 , 689 , 1472 , 용할
865 , 1466 , 893 , 1466 , 893 , 1451 , 865 , 1451 , 적힌
695 , 1465 , 773 , 1465 , 773 , 1451 , 695 , 1451 , 현금영수증
869 , 1445 , 882 , 1445 , 882 , 1429 , 869 , 1429 , 에
743 , 1445 , 849 , 1445 , 849 , 1430 , 743 , 1430 , 조세특례제한법
689 , 1444 , 718 , 1444 , 718 , 1429 , 689 , 1429 , 또는
925 , 1420 , 955 , 1420 , 955 , 1407 , 925 , 1407 , 따른
905 , 1421 , 918 , 1421 , 918 , 1408 , 905 , 1408 , 에
1016 , 1423 , 1079 , 1423 , 1079 , 1407 , 1016 , 1407 , 공제신청
672 , 1421 , 682 , 1421 , 682 , 1408 , 672 , 1408 , 3
689 , 1401 , 716 , 1401 , 716 , 1386 , 689 , 1386 , 하실
710 , 1380 , 746 , 1380 , 746 , 1365 , 710 , 1365 , 1644
921 , 1359 , 1063 , 1359 , 1063 , 1343 , 921 , 1343 , 건강보험심사평가원
689 , 1358 , 700 , 1358 , 700 , 1345 , 689 , 1345 , 로
922 , 1337 , 965 , 1337 , 965 , 1322 , 922 , 1322 , 부담한
687 , 1338 , 702 , 1338 , 702 , 1322 , 687 , 1322 , 제
671 , 1316 , 681 , 1316 , 681 , 1303 , 671 , 1303 , 2
701 , 1318 , 811 , 1318 , 811 , 1301 , 701 , 1301 , 국민건강보험법
961 , 1317 , 1040 , 1317 , 1040 , 1301 , 961 , 1301 , 의료급여법
687 , 1296 , 716 , 1296 , 716 , 1281 , 687 , 1281 , 하여
668 , 1275 , 682 , 1275 , 682 , 1262 , 668 , 1262 , 1
95 , 1558 , 141 , 1558 , 141 , 1540 , 95 , 1540 , 발생한
387 , 1551 , 415 , 1551 , 415 , 1538 , 387 , 1538 , 사전
95 , 1537 , 183 , 1537 , 183 , 1520 , 95 , 1520 , 5,090,000원
79 , 1514 , 88 , 1514 , 88 , 1502 , 79 , 1502 , 3
305 , 1512 , 366 , 1512 , 366 , 1497 , 305 , 1497 , 상한제에
100 , 1516 , 146 , 1516 , 146 , 1498 , 100 , 1498 , 상한액
374 , 1511 , 403 , 1511 , 403 , 1497 , 374 , 1497 , 따라
451 , 1510 , 543 , 1510 , 543 , 1494 , 451 , 1494 , 의료기관에서
100 , 1474 , 159 , 1474 , 159 , 1457 , 100 , 1457 , 시행규칙
453 , 1468 , 514 , 1468 , 514 , 1453 , 453 , 1453 , 건강보험
430 , 1447 , 469 , 1447 , 469 , 1431 , 430 , 1431 , 별표5
80 , 1453 , 89 , 1453 , 89 , 1438 , 80 , 1438 , 2
525 , 1446 , 605 , 1446 , 605 , 1430 , 525 , 1430 , 의료급여법
102 , 1430 , 120 , 1430 , 120 , 1414 , 102 , 1414 , CT
421 , 1423 , 450 , 1423 , 450 , 1410 , 421 , 1410 , 입원
246 , 1428 , 325 , 1428 , 325 , 1411 , 246 , 1411 , 본인부담률
457 , 1423 , 551 , 1423 , 551 , 1409 , 457 , 1409 , 본인부담률과
115 , 1407 , 143 , 1407 , 143 , 1394 , 115 , 1394 , 식대
102 , 1388 , 133 , 1388 , 133 , 1371 , 102 , 1371 , 유형
107 , 1365 , 136 , 1365 , 136 , 1351 , 107 , 1351 , 입원
148 , 1366 , 225 , 1366 , 225 , 1349 , 148 , 1349 , 본인부담률
371 , 1341 , 402 , 1341 , 402 , 1326 , 371 , 1326 , 따라
103 , 1344 , 133 , 1344 , 133 , 1330 , 103 , 1330 , 권지
412 , 1340 , 436 , 1340 , 436 , 1324 , 412 , 1324 , 0원
110 , 1324 , 140 , 1324 , 140 , 1310 , 110 , 1310 , 외래
312 , 1322 , 357 , 1322 , 357 , 1305 , 312 , 1305 , 종별에
99 , 1304 , 130 , 1304 , 130 , 1289 , 99 , 1289 , 기관
265 , 1301 , 295 , 1301 , 295 , 1286 , 265 , 1286 , 종별
308 , 1300 , 337 , 1300 , 337 , 1285 , 308 , 1285 , 환자
81 , 1282 , 91 , 1282 , 91 , 1267 , 81 , 1267 , 1
307 , 1280 , 350 , 1280 , 350 , 1263 , 307 , 1263 , 다음과
397 , 1278 , 489 , 1278 , 489 , 1262 , 397 , 1262 , 본인부담률을
373 , 1250 , 402 , 1250 , 402 , 1236 , 373 , 1236 , 설명
316 , 1252 , 361 , 1252 , 361 , 1234 , 316 , 1234 , 항목별
890 , 1247 , 923 , 1247 , 923 , 1232 , 890 , 1232 , 안내
819 , 1248 , 883 , 1248 , 883 , 1232 , 819 , 1232 , 일반사항
544 , 1220 , 597 , 1220 , 597 , 1200 , 544 , 1200 , 2016년
106 , 1193 , 158 , 1193 , 158 , 1175 , 106 , 1175 , 사업장
894 , 1187 , 945 , 1187 , 945 , 1169 , 894 , 1169 , 강지윤
782 , 1188 , 837 , 1188 , 837 , 1165 , 782 , 1165 , 대표자
257 , 1189 , 287 , 1189 , 287 , 1175 , 257 , 1175 , 부산
107 , 1161 , 219 , 1161 , 219 , 1143 , 107 , 1143 , 사업자등록번호
554 , 1155 , 592 , 1155 , 592 , 1136 , 554 , 1136 , 상호
251 , 1155 , 285 , 1155 , 285 , 1140 , 251 , 1140 , 607
854 , 1155 , 921 , 1155 , 921 , 1133 , 854 , 1133 , ###
607 , 1154 , 721 , 1154 , 721 , 1138 , 607 , 1138 , 강지윤안과의원
958 , 1151 , 982 , 1151 , 982 , 1137 , 958 , 1137 , 051
1072 , 1184 , 1088 , 1184 , 1088 , 1169 , 1072 , 1169 , 인
105 , 1131 , 175 , 1131 , 175 , 1113 , 105 , 1113 , 요양기관
262 , 1130 , 273 , 1130 , 273 , 1111 , 262 , 1111 , V
610 , 1124 , 676 , 1124 , 676 , 1106 , 610 , 1106 , 종합병원
491 , 1128 , 544 , 1128 , 544 , 1109 , 491 , 1109 , 병원급
766 , 1126 , 861 , 1126 , 861 , 1105 , 766 , 1105 , 상급종합병원
107 , 1102 , 159 , 1102 , 159 , 1081 , 107 , 1081 , 상한액
1036 , 1095 , 1058 , 1095 , 1058 , 1074 , 1036 , 1074 , 무
949 , 1096 , 973 , 1096 , 973 , 1076 , 949 , 1076 , 유
756 , 1095 , 822 , 1095 , 822 , 1075 , 756 , 1075 , 선택진료
142 , 1072 , 181 , 1072 , 181 , 1049 , 142 , 1049 , 합계
379 , 1068 , 441 , 1068 , 441 , 1051 , 379 , 1051 , 142,280
289 , 1066 , 346 , 1066 , 346 , 1050 , 289 , 1050 , 60,900
104 , 1043 , 217 , 1043 , 217 , 1025 , 104 , 1025 , 포괄수가진료비
97 , 993 , 130 , 993 , 130 , 976 , 97 , 976 , 65세
737 , 905 , 768 , 905 , 768 , 889 , 737 , 889 , 09월
742 , 888 , 792 , 888 , 792 , 873 , 742 , 873 , 2016년
802 , 888 , 848 , 888 , 848 , 868 , 802 , 868 , 내원일
77 , 938 , 89 , 938 , 89 , 922 , 77 , 922 , 목
76 , 868 , 90 , 868 , 90 , 852 , 76 , 852 , 선
113 , 939 , 139 , 939 , 139 , 924 , 113 , 924 , 보철
126 , 918 , 220 , 918 , 220 , 898 , 126 , 898 , 초음파진단료
133 , 865 , 163 , 865 , 163 , 852 , 133 , 852 , MRI
138 , 843 , 157 , 843 , 157 , 827 , 138 , 827 , CT
101 , 813 , 128 , 813 , 128 , 801 , 101 , 801 , 전혈
136 , 791 , 214 , 791 , 214 , 776 , 136 , 776 , 정신요법료
755 , 791 , 817 , 791 , 817 , 776 , 755 , 776 , 요양기관
826 , 792 , 920 , 792 , 920 , 773 , 826 , 773 , 임의활용공간
114 , 762 , 139 , 762 , 139 , 750 , 114 , 750 , 재활
137 , 741 , 217 , 741 , 217 , 726 , 137 , 726 , 치료재료대
805 , 763 , 899 , 763 , 899 , 746 , 805 , 746 , 현금승인번호
806 , 741 , 898 , 741 , 898 , 722 , 806 , 722 , 신분확인번호
874 , 714 , 953 , 714 , 953 , 700 , 874 , 700 , 현금영수증
809 , 692 , 839 , 692 , 839 , 676 , 809 , 676 , 않은
739 , 691 , 801 , 691 , 801 , 676 , 739 , 676 , 납부하지
127 , 716 , 223 , 716 , 223 , 700 , 127 , 700 , 방사선치료료
136 , 692 , 217 , 692 , 217 , 676 , 136 , 676 , 영상진단료
1052 , 664 , 1111 , 664 , 1111 , 644 , 1052 , 644 , 60,000
1079 , 688 , 1106 , 688 , 1106 , 672 , 1079 , 672 , 900
859 , 664 , 896 , 664 , 896 , 647 , 859 , 647 , 합계
389 , 662 , 442 , 662 , 442 , 647 , 389 , 647 , 21,228
299 , 665 , 348 , 665 , 348 , 649 , 299 , 649 , 9,098
381 , 638 , 442 , 638 , 442 , 622 , 381 , 622 , 110,913
295 , 636 , 347 , 636 , 347 , 624 , 295 , 624 , 47,534
1096 , 612 , 1108 , 612 , 1108 , 597 , 1096 , 597 , 0
763 , 639 , 792 , 639 , 792 , 619 , 763 , 619 , 금액
763 , 612 , 791 , 612 , 791 , 596 , 763 , 596 , 납부
77 , 663 , 92 , 663 , 92 , 648 , 77 , 648 , 목
77 , 640 , 92 , 640 , 92 , 626 , 77 , 626 , 항
77 , 616 , 93 , 616 , 93 , 602 , 77 , 602 , 본
74 , 594 , 95 , 594 , 95 , 578 , 74 , 578 , 기
861 , 638 , 892 , 638 , 892 , 620 , 861 , 620 , 현금
860 , 589 , 895 , 589 , 895 , 574 , 860 , 574 , 카드
1053 , 588 , 1108 , 588 , 1108 , 568 , 1053 , 568 , 60,000
114 , 581 , 167 , 581 , 167 , 559 , 114 , 559 , 주사료
153 , 664 , 201 , 664 , 201 , 649 , 153 , 649 , 검사료
121 , 640 , 153 , 640 , 153 , 622 , 121 , 622 , 처치
191 , 591 , 237 , 591 , 237 , 576 , 191 , 576 , 약품비
191 , 566 , 236 , 566 , 236 , 551 , 191 , 551 , 행위료
1054 , 551 , 1113 , 551 , 1113 , 529 , 1054 , 529 , 60,900
828 , 564 , 869 , 564 , 869 , 549 , 828 , 549 , 8-9
870 , 545 , 902 , 545 , 902 , 530 , 870 , 530 , 금액
816 , 545 , 861 , 545 , 861 , 529 , 816 , 529 , 납부할
190 , 539 , 241 , 539 , 241 , 524 , 190 , 524 , 약품비
115 , 540 , 169 , 540 , 169 , 523 , 115 , 523 , 조제료
153 , 518 , 166 , 518 , 166 , 502 , 153 , 502 , 및
111 , 518 , 143 , 518 , 143 , 501 , 111 , 501 , 투약
189 , 515 , 242 , 515 , 242 , 498 , 189 , 498 , 행위료
791 , 503 , 820 , 503 , 820 , 488 , 791 , 488 , 이미
832 , 502 , 876 , 502 , 876 , 485 , 832 , 485 , 납부한
197 , 464 , 211 , 464 , 211 , 448 , 197 , 448 , 료
149 , 466 , 164 , 466 , 164 , 450 , 149 , 450 , 입
1054 , 449 , 1110 , 449 , 1110 , 431 , 1054 , 431 , 60,900
783 , 441 , 796 , 441 , 796 , 428 , 783 , 428 , 8
807 , 442 , 866 , 442 , 866 , 429 , 807 , 429 , 환자부담
147 , 439 , 163 , 439 , 163 , 423 , 147 , 423 , 진
1045 , 404 , 1113 , 404 , 1113 , 384 , 1045 , 384 , 203,180
668 , 416 , 697 , 416 , 697 , 400 , 668 , 400 , 이외
643 , 397 , 722 , 397 , 722 , 380 , 643 , 380 , 선택진료료
566 , 416 , 612 , 416 , 612 , 398 , 566 , 398 , 진료료
575 , 394 , 603 , 394 , 603 , 376 , 575 , 376 , 선택
460 , 418 , 520 , 418 , 520 , 400 , 460 , 400 , 본인부담
478 , 395 , 509 , 395 , 509 , 378 , 478 , 378 , 전액
143 , 391 , 179 , 391 , 179 , 372 , 143 , 372 , 항목
787 , 416 , 901 , 416 , 901 , 398 , 787 , 398 , 1+2+3+4+5
811 , 395 , 863 , 395 , 863 , 377 , 811 , 377 , 진료비
788 , 393 , 806 , 393 , 806 , 376 , 788 , 376 , 7
891 , 367 , 988 , 367 , 988 , 352 , 891 , 352 , 금액산정내용
607 , 368 , 661 , 368 , 661 , 345 , 607 , 345 , ###
393 , 441 , 440 , 441 , 440 , 424 , 393 , 424 , 10,087
304 , 440 , 345 , 440 , 345 , 424 , 304 , 424 , 4,323
353 , 416 , 432 , 416 , 432 , 400 , 353 , 400 , 공단부담금
256 , 415 , 333 , 415 , 333 , 400 , 256 , 400 , 본인부담금
374 , 365 , 404 , 365 , 404 , 350 , 374 , 350 , 급여
714 , 340 , 786 , 340 , 786 , 317 , 714 , 317 , ###
142 , 336 , 179 , 336 , 179 , 321 , 142 , 321 , 안과
712 , 312 , 784 , 312 , 784 , 290 , 712 , 290 , ###
586 , 312 , 625 , 312 , 625 , 290 , 586 , 290 , ###
881 , 312 , 960 , 312 , 960 , 289 , 881 , 289 , 영수증번호
932 , 336 , 968 , 336 , 968 , 320 , 932 , 320 , 1609
331 , 311 , 381 , 311 , 381 , 291 , 331 , 291 , 질병군
127 , 309 , 195 , 309 , 195 , 289 , 127 , 289 , 진료과목
672 , 282 , 708 , 282 , 708 , 265 , 672 , 265 , 2016
960 , 280 , 999 , 280 , 999 , 260 , 960 , 260 , 야간
1053 , 277 , 1102 , 277 , 1102 , 260 , 1053 , 260 , 공휴일
136 , 276 , 187 , 276 , 187 , 259 , 136 , 259 , 15173
687 , 251 , 752 , 251 , 752 , 234 , 687 , 234 , 진료기간
952 , 250 , 984 , 250 , 984 , 230 , 952 , 230 , 야간
361 , 250 , 390 , 250 , 390 , 234 , 361 , 234 , 환자
110 , 247 , 212 , 247 , 212 , 227 , 110 , 227 , 환자등록번호
109 , 204 , 181 , 204 , 181 , 185 , 109 , 185 , 제6호서식
67 , 203 , 102 , 203 , 102 , 184 , 67 , 184 , 별지
640 , 168 , 730 , 168 , 730 , 138 , 640 , 138 , 진료비
745 , 167 , 834 , 167 , 834 , 135 , 745 , 135 , 계산서
221 , 164 , 241 , 164 , 241 , 138 , 221 , 138 , V
992 , 202 , 1008 , 202 , 1008 , 162 , 992 , 162 , 음성안내
1024 , 42 , 1062 , 42 , 1062 , 24 , 1024 , 24 , 706
1070 , 43 , 1082 , 43 , 1082 , 22 , 1070 , 22 , P
913 , 41 , 936 , 41 , 936 , 20 , 913 , 20 , 12
788 , 38 , 809 , 38 , 809 , 18 , 788 , 18 , 25
501 , 38 , 529 , 38 , 529 , 9 , 501 , 9 , To
80 , 26 , 132 , 26 , 132 , 1 , 80 , 1 , From
539 , 41 , 654 , 41 , 654 , 13 , 539 , 13 , 0516324729
820 , 39 , 842 , 39 , 842 , 20 , 820 , 20 , 01
856 , 41 , 901 , 41 , 901 , 20 , 856 , 20 , 2017
945 , 43 , 969 , 43 , 969 , 21 , 945 , 21 , 30
1093 , 45 , 1127 , 45 , 1127 , 26 , 1093 , 26 , 005
1138 , 45 , 1172 , 45 , 1172 , 26 , 1138 , 26 , 008
259 , 166 , 317 , 166 , 317 , 134 , 259 , 134 , 외래
374 , 165 , 431 , 165 , 431 , 137 , 374 , 137 , 입원
489 , 166 , 535 , 166 , 535 , 143 , 489 , 143 , 퇴원
578 , 169 , 623 , 169 , 623 , 143 , 578 , 143 , 중간
870 , 170 , 958 , 170 , 958 , 137 , 870 , 137 , 영수증
399 , 248 , 434 , 248 , 434 , 233 , 399 , 233 , 성명
391 , 309 , 420 , 309 , 420 , 294 , 391 , 294 , DRG
426 , 309 , 459 , 309 , 459 , 293 , 426 , 293 , 번호
716 , 279 , 733 , 279 , 733 , 263 , 716 , 263 , 09
741 , 281 , 759 , 281 , 759 , 265 , 741 , 265 , 21
997 , 247 , 1044 , 247 , 1044 , 232 , 997 , 232 , 공휴일
1054 , 248 , 1086 , 248 , 1086 , 232 , 1054 , 232 , 진료
970 , 309 , 1000 , 309 , 1000 , 295 , 970 , 295 , 연월
1009 , 309 , 1074 , 309 , 1074 , 292 , 1009 , 292 , 일련번호
972 , 332 , 1014 , 332 , 1014 , 320 , 972 , 320 , 00057
869 , 396 , 903 , 396 , 903 , 377 , 869 , 377 , 총액
1096 , 501 , 1112 , 501 , 1112 , 484 , 1096 , 484 , 0
1097 , 639 , 1107 , 639 , 1107 , 622 , 1097 , 622 , 0
786 , 462 , 827 , 462 , 827 , 448 , 786 , 448 , 1-6
846 , 461 , 910 , 461 , 910 , 446 , 846 , 446 , 3+4+5
768 , 503 , 782 , 503 , 782 , 485 , 768 , 485 , 9
791 , 547 , 804 , 547 , 804 , 525 , 791 , 525 , 10
738 , 612 , 750 , 612 , 750 , 596 , 738 , 596 , 11
878 , 441 , 909 , 441 , 909 , 426 , 878 , 426 , 총액
889 , 502 , 917 , 502 , 917 , 486 , 889 , 486 , 금액
838 , 614 , 916 , 614 , 916 , 597 , 838 , 597 , 현금영수증
737 , 638 , 753 , 638 , 753 , 622 , 737 , 622 , 한
849 , 691 , 880 , 691 , 880 , 677 , 849 , 677 , 금액
887 , 691 , 930 , 691 , 930 , 675 , 887 , 675 , 10-11
777 , 907 , 809 , 907 , 809 , 891 , 777 , 891 , 21일
827 , 1093 , 859 , 1093 , 859 , 1078 , 827 , 1078 , 신청
298 , 391 , 328 , 391 , 328 , 373 , 298 , 373 , 일부
339 , 391 , 402 , 391 , 402 , 376 , 339 , 376 , 본인부담
174 , 440 , 189 , 440 , 189 , 424 , 174 , 424 , 찰
198 , 441 , 213 , 441 , 213 , 424 , 198 , 424 , 료
175 , 466 , 189 , 466 , 189 , 449 , 175 , 449 , 원
164 , 490 , 197 , 490 , 197 , 474 , 164 , 474 , 식대
154 , 616 , 200 , 616 , 200 , 598 , 154 , 598 , 마취료
161 , 640 , 178 , 640 , 178 , 622 , 161 , 622 , 및
189 , 640 , 232 , 640 , 232 , 624 , 189 , 624 , 수술료
148 , 766 , 163 , 766 , 163 , 748 , 148 , 748 , 및
171 , 764 , 239 , 764 , 239 , 749 , 171 , 749 , 물리치료료
134 , 814 , 147 , 814 , 147 , 800 , 134 , 800 , 및
153 , 814 , 247 , 814 , 247 , 798 , 153 , 798 , 혈액성분제제료
166 , 843 , 212 , 843 , 212 , 828 , 166 , 828 , 진단료
169 , 866 , 215 , 866 , 215 , 851 , 169 , 851 , 진단료
133 , 891 , 164 , 891 , 164 , 875 , 133 , 875 , PET
171 , 891 , 216 , 891 , 216 , 875 , 171 , 875 , 진단료
155 , 941 , 195 , 941 , 195 , 926 , 155 , 926 , 교정료
211 , 940 , 237 , 940 , 237 , 924 , 211 , 924 , 기타
74 , 892 , 93 , 892 , 93 , 876 , 74 , 876 , 택
75 , 916 , 92 , 916 , 92 , 899 , 75 , 899 , 항
136 , 992 , 167 , 992 , 167 , 976 , 136 , 976 , 이상
176 , 993 , 189 , 993 , 189 , 975 , 176 , 975 , 등
197 , 993 , 228 , 993 , 228 , 976 , 197 , 976 , 정액
91 , 1018 , 154 , 1018 , 154 , 1001 , 91 , 1001 , 정액수가
162 , 1016 , 226 , 1016 , 226 , 1002 , 162 , 1002 , 요양병원
164 , 1099 , 213 , 1099 , 213 , 1082 , 164 , 1082 , 초과금
183 , 1128 , 213 , 1128 , 213 , 1114 , 183 , 1114 , 종류
165 , 1192 , 213 , 1192 , 213 , 1174 , 165 , 1174 , 소재지
290 , 1129 , 341 , 1129 , 341 , 1110 , 290 , 1110 , 의원급
353 , 1127 , 418 , 1127 , 418 , 1110 , 353 , 1110 , 보건기관
293 , 1157 , 312 , 1157 , 312 , 1139 , 293 , 1139 , 90
322 , 1155 , 368 , 1155 , 368 , 1141 , 322 , 1141 , 34087
294 , 1189 , 341 , 1189 , 341 , 1174 , 294 , 1174 , 연제구
347 , 1190 , 405 , 1190 , 405 , 1172 , 347 , 1172 , 연산9동
411 , 1189 , 436 , 1189 , 436 , 1172 , 411 , 1172 , 490
449 , 1190 , 464 , 1190 , 464 , 1172 , 449 , 1172 , 11
332 , 464 , 347 , 464 , 347 , 447 , 332 , 447 , 0
334 , 487 , 346 , 487 , 346 , 472 , 334 , 472 , 0
334 , 514 , 346 , 514 , 346 , 498 , 334 , 498 , 0
333 , 539 , 343 , 539 , 343 , 523 , 333 , 523 , 0
332 , 565 , 345 , 565 , 345 , 547 , 332 , 547 , 0
331 , 589 , 345 , 589 , 345 , 572 , 331 , 572 , 0
333 , 615 , 345 , 615 , 345 , 598 , 333 , 598 , 0
334 , 690 , 344 , 690 , 344 , 673 , 334 , 673 , 0
332 , 714 , 345 , 714 , 345 , 700 , 332 , 700 , 0
333 , 741 , 345 , 741 , 345 , 724 , 333 , 724 , 0
332 , 764 , 347 , 764 , 347 , 749 , 332 , 749 , 0
334 , 787 , 346 , 787 , 346 , 772 , 334 , 772 , 0
330 , 814 , 345 , 814 , 345 , 799 , 330 , 799 , 0
333 , 839 , 345 , 839 , 345 , 823 , 333 , 823 , 0
332 , 862 , 344 , 862 , 344 , 847 , 332 , 847 , 0
333 , 890 , 345 , 890 , 345 , 874 , 333 , 874 , 0
332 , 911 , 345 , 911 , 345 , 895 , 332 , 895 , 0
332 , 938 , 346 , 938 , 346 , 922 , 332 , 922 , 0
334 , 963 , 346 , 963 , 346 , 945 , 334 , 945 , 0
332 , 989 , 345 , 989 , 345 , 972 , 332 , 972 , 0
334 , 1016 , 344 , 1016 , 344 , 998 , 334 , 998 , 0
333 , 1039 , 344 , 1039 , 344 , 1021 , 333 , 1021 , 0
254 , 1068 , 267 , 1068 , 267 , 1051 , 254 , 1051 , 1
254 , 1098 , 268 , 1098 , 268 , 1084 , 254 , 1084 , 6
332 , 1096 , 346 , 1096 , 346 , 1080 , 332 , 1080 , 0
430 , 465 , 442 , 465 , 442 , 449 , 430 , 449 , 0
432 , 486 , 443 , 486 , 443 , 472 , 432 , 472 , 0
428 , 514 , 442 , 514 , 442 , 497 , 428 , 497 , 0
430 , 539 , 443 , 539 , 443 , 522 , 430 , 522 , 0
430 , 566 , 443 , 566 , 443 , 547 , 430 , 547 , 0
431 , 590 , 442 , 590 , 442 , 573 , 431 , 573 , 0
432 , 614 , 441 , 614 , 441 , 596 , 432 , 596 , 0
430 , 690 , 441 , 690 , 441 , 672 , 430 , 672 , 0
431 , 714 , 442 , 714 , 442 , 698 , 431 , 698 , 0
430 , 740 , 441 , 740 , 441 , 725 , 430 , 725 , 0
430 , 761 , 443 , 761 , 443 , 748 , 430 , 748 , 0
430 , 790 , 442 , 790 , 442 , 772 , 430 , 772 , 0
431 , 813 , 442 , 813 , 442 , 796 , 431 , 796 , 0
430 , 839 , 442 , 839 , 442 , 823 , 430 , 823 , 0
431 , 865 , 442 , 865 , 442 , 847 , 431 , 847 , 0
431 , 890 , 441 , 890 , 441 , 874 , 431 , 874 , 0
430 , 914 , 442 , 914 , 442 , 895 , 430 , 895 , 0
430 , 939 , 442 , 939 , 442 , 920 , 430 , 920 , 0
429 , 964 , 441 , 964 , 441 , 946 , 429 , 946 , 0
430 , 989 , 442 , 989 , 442 , 972 , 430 , 972 , 0
430 , 1014 , 443 , 1014 , 443 , 996 , 430 , 996 , 0
431 , 1038 , 443 , 1038 , 443 , 1020 , 431 , 1020 , 0
352 , 1066 , 366 , 1066 , 366 , 1053 , 352 , 1053 , 2
448 , 1068 , 461 , 1068 , 461 , 1051 , 448 , 1051 , 3
543 , 1067 , 555 , 1067 , 555 , 1050 , 543 , 1050 , 4
526 , 440 , 536 , 440 , 536 , 423 , 526 , 423 , 0
527 , 465 , 536 , 465 , 536 , 449 , 527 , 449 , 0
525 , 488 , 537 , 488 , 537 , 471 , 525 , 471 , 0
526 , 513 , 537 , 513 , 537 , 497 , 526 , 497 , 0
526 , 539 , 538 , 539 , 538 , 522 , 526 , 522 , 0
526 , 564 , 536 , 564 , 536 , 547 , 526 , 547 , 0
525 , 591 , 538 , 591 , 538 , 572 , 525 , 572 , 0
526 , 614 , 538 , 614 , 538 , 599 , 526 , 599 , 0
524 , 637 , 537 , 637 , 537 , 622 , 524 , 622 , 0
525 , 664 , 537 , 664 , 537 , 647 , 525 , 647 , 0
526 , 691 , 536 , 691 , 536 , 672 , 526 , 672 , 0
525 , 714 , 537 , 714 , 537 , 697 , 525 , 697 , 0
525 , 740 , 538 , 740 , 538 , 722 , 525 , 722 , 0
527 , 764 , 538 , 764 , 538 , 747 , 527 , 747 , 0
526 , 786 , 538 , 786 , 538 , 769 , 526 , 769 , 0
527 , 814 , 538 , 814 , 538 , 794 , 527 , 794 , 0
524 , 839 , 536 , 839 , 536 , 822 , 524 , 822 , 0
526 , 863 , 537 , 863 , 537 , 846 , 526 , 846 , 0
526 , 888 , 539 , 888 , 539 , 870 , 526 , 870 , 0
524 , 911 , 537 , 911 , 537 , 895 , 524 , 895 , 0
524 , 937 , 536 , 937 , 536 , 920 , 524 , 920 , 0
524 , 961 , 536 , 961 , 536 , 944 , 524 , 944 , 0
524 , 988 , 537 , 988 , 537 , 970 , 524 , 970 , 0
524 , 1012 , 537 , 1012 , 537 , 995 , 524 , 995 , 0
524 , 1036 , 536 , 1036 , 536 , 1019 , 524 , 1019 , 0
523 , 1068 , 536 , 1068 , 536 , 1049 , 523 , 1049 , 0
620 , 1064 , 632 , 1064 , 632 , 1047 , 620 , 1047 , 0
622 , 1036 , 634 , 1036 , 634 , 1018 , 622 , 1018 , 0
619 , 440 , 632 , 440 , 632 , 422 , 619 , 422 , 0
618 , 464 , 632 , 464 , 632 , 447 , 618 , 447 , 0
621 , 489 , 632 , 489 , 632 , 471 , 621 , 471 , 0
620 , 515 , 632 , 515 , 632 , 496 , 620 , 496 , 0
622 , 539 , 632 , 539 , 632 , 522 , 622 , 522 , 0
622 , 566 , 633 , 566 , 633 , 549 , 622 , 549 , 0
619 , 589 , 633 , 589 , 633 , 572 , 619 , 572 , 0
618 , 615 , 632 , 615 , 632 , 600 , 618 , 600 , 0
620 , 639 , 633 , 639 , 633 , 622 , 620 , 622 , 0
621 , 664 , 632 , 664 , 632 , 647 , 621 , 647 , 0
619 , 689 , 632 , 689 , 632 , 673 , 619 , 673 , 0
621 , 714 , 634 , 714 , 634 , 697 , 621 , 697 , 0
620 , 739 , 634 , 739 , 634 , 722 , 620 , 722 , 0
620 , 765 , 633 , 765 , 633 , 746 , 620 , 746 , 0
621 , 787 , 634 , 787 , 634 , 770 , 621 , 770 , 0
620 , 813 , 634 , 813 , 634 , 795 , 620 , 795 , 0
619 , 837 , 633 , 837 , 633 , 820 , 619 , 820 , 0
620 , 864 , 634 , 864 , 634 , 847 , 620 , 847 , 0
620 , 888 , 633 , 888 , 633 , 873 , 620 , 873 , 0
620 , 911 , 633 , 911 , 633 , 896 , 620 , 896 , 0
618 , 935 , 633 , 935 , 633 , 920 , 618 , 920 , 0
619 , 961 , 632 , 961 , 632 , 945 , 619 , 945 , 0
619 , 986 , 633 , 986 , 633 , 970 , 619 , 970 , 0
618 , 1012 , 634 , 1012 , 634 , 995 , 618 , 995 , 0
712 , 438 , 729 , 438 , 729 , 423 , 712 , 423 , 0
712 , 465 , 729 , 465 , 729 , 447 , 712 , 447 , 0
717 , 489 , 729 , 489 , 729 , 472 , 717 , 472 , 0
718 , 514 , 730 , 514 , 730 , 498 , 718 , 498 , 0
718 , 539 , 730 , 539 , 730 , 524 , 718 , 524 , 0
716 , 563 , 729 , 563 , 729 , 547 , 716 , 547 , 0
717 , 590 , 730 , 590 , 730 , 572 , 717 , 572 , 0
716 , 613 , 729 , 613 , 729 , 596 , 716 , 596 , 0
717 , 639 , 731 , 639 , 731 , 623 , 717 , 623 , 0
716 , 664 , 728 , 664 , 728 , 647 , 716 , 647 , 0
718 , 689 , 728 , 689 , 728 , 674 , 718 , 674 , 0
718 , 714 , 729 , 714 , 729 , 696 , 718 , 696 , 0
716 , 740 , 730 , 740 , 730 , 720 , 716 , 720 , 0
717 , 764 , 730 , 764 , 730 , 747 , 717 , 747 , 0
717 , 788 , 730 , 788 , 730 , 770 , 717 , 770 , 0
714 , 811 , 730 , 811 , 730 , 795 , 714 , 795 , 0
715 , 838 , 729 , 838 , 729 , 824 , 715 , 824 , 0
716 , 863 , 729 , 863 , 729 , 845 , 716 , 845 , 0
714 , 887 , 728 , 887 , 728 , 871 , 714 , 871 , 0
716 , 912 , 728 , 912 , 728 , 895 , 716 , 895 , 0
718 , 934 , 729 , 934 , 729 , 920 , 718 , 920 , 0
713 , 961 , 730 , 961 , 730 , 945 , 713 , 945 , 0
716 , 986 , 730 , 986 , 730 , 970 , 716 , 970 , 0
718 , 1011 , 730 , 1011 , 730 , 995 , 718 , 995 , 0
717 , 1038 , 730 , 1038 , 730 , 1018 , 717 , 1018 , 0
720 , 1066 , 732 , 1066 , 732 , 1049 , 720 , 1049 , 0
640 , 1067 , 651 , 1067 , 651 , 1049 , 640 , 1049 , 5
605 , 1218 , 631 , 1218 , 631 , 1199 , 605 , 1199 , 9월
635 , 1216 , 670 , 1216 , 670 , 1199 , 635 , 1199 , 21일
101 , 1282 , 136 , 1282 , 136 , 1266 , 101 , 1266 , 일부
142 , 1281 , 203 , 1281 , 203 , 1267 , 142 , 1267 , 본인부담
221 , 1280 , 299 , 1280 , 299 , 1264 , 221 , 1264 , 일반적으로
358 , 1278 , 390 , 1278 , 390 , 1262 , 358 , 1262 , 같이
499 , 1277 , 560 , 1277 , 560 , 1260 , 499 , 1260 , 적용하나
572 , 1276 , 605 , 1276 , 605 , 1262 , 572 , 1262 , 요양
137 , 1303 , 165 , 1303 , 165 , 1287 , 137 , 1287 , 지역
179 , 1301 , 257 , 1301 , 257 , 1286 , 179 , 1286 , 요양기관의
347 , 1299 , 377 , 1299 , 377 , 1284 , 347 , 1284 , 자격
384 , 1299 , 414 , 1299 , 414 , 1283 , 384 , 1283 , 등에
422 , 1298 , 450 , 1298 , 450 , 1284 , 422 , 1284 , 따라
458 , 1297 , 502 , 1297 , 502 , 1282 , 458 , 1282 , 달라질
511 , 1296 , 525 , 1296 , 525 , 1282 , 511 , 1282 , 구
533 , 1297 , 594 , 1297 , 594 , 1281 , 533 , 1281 , 있습니다
146 , 1323 , 225 , 1323 , 225 , 1309 , 146 , 1309 , 본인부담률
243 , 1323 , 305 , 1323 , 305 , 1307 , 243 , 1307 , 요양기관
364 , 1321 , 398 , 1321 , 398 , 1305 , 364 , 1305 , 따라
403 , 1318 , 434 , 1318 , 434 , 1304 , 403 , 1304 , 30%
447 , 1320 , 478 , 1320 , 478 , 1304 , 447 , 1304 , 60%
487 , 1319 , 562 , 1319 , 562 , 1303 , 487 , 1303 , 의료급여는
572 , 1318 , 601 , 1318 , 601 , 1301 , 572 , 1301 , 수급
142 , 1346 , 172 , 1346 , 172 , 1328 , 142 , 1328 , 종별
179 , 1344 , 193 , 1344 , 193 , 1329 , 179 , 1329 , 및
202 , 1343 , 294 , 1343 , 294 , 1328 , 202 , 1328 , 의료급여기관
303 , 1342 , 365 , 1342 , 365 , 1327 , 303 , 1327 , 유형등에
451 , 1341 , 503 , 1341 , 503 , 1325 , 451 , 1325 , 2500원
512 , 1339 , 536 , 1339 , 536 , 1324 , 512 , 1324 , 0%
550 , 1341 , 581 , 1341 , 581 , 1323 , 550 , 1323 , 15%
592 , 1341 , 607 , 1341 , 607 , 1323 , 592 , 1323 , 등
241 , 1364 , 274 , 1364 , 274 , 1349 , 241 , 1349 , 20%
282 , 1365 , 357 , 1365 , 357 , 1347 , 282 , 1347 , 의료급여는
366 , 1363 , 430 , 1363 , 430 , 1348 , 366 , 1348 , 수급권자
438 , 1361 , 466 , 1361 , 466 , 1345 , 438 , 1345 , 종별
474 , 1362 , 487 , 1362 , 487 , 1344 , 474 , 1344 , 및
495 , 1362 , 587 , 1362 , 587 , 1345 , 495 , 1345 , 의료급여기관
141 , 1387 , 170 , 1387 , 170 , 1370 , 141 , 1370 , 등에
177 , 1386 , 209 , 1386 , 209 , 1368 , 177 , 1368 , 따라
215 , 1386 , 239 , 1386 , 239 , 1370 , 215 , 1370 , 0%
250 , 1386 , 284 , 1386 , 284 , 1370 , 250 , 1370 , 10%
295 , 1385 , 310 , 1385 , 310 , 1367 , 295 , 1367 , 등
161 , 1407 , 193 , 1407 , 193 , 1393 , 161 , 1393 , 50%
201 , 1407 , 278 , 1407 , 278 , 1391 , 201 , 1391 , 의료급여는
285 , 1406 , 318 , 1406 , 318 , 1391 , 285 , 1391 , 20%
128 , 1428 , 159 , 1428 , 159 , 1415 , 128 , 1415 , MRI
164 , 1427 , 193 , 1427 , 193 , 1414 , 164 , 1414 , PET
211 , 1428 , 240 , 1428 , 240 , 1410 , 211 , 1410 , 외래
334 , 1425 , 414 , 1425 , 414 , 1410 , 334 , 1410 , 의료급여는
559 , 1423 , 589 , 1423 , 589 , 1407 , 559 , 1407 , 동일
477 , 1445 , 507 , 1445 , 507 , 1431 , 477 , 1431 , 또는
101 , 1452 , 131 , 1452 , 131 , 1436 , 101 , 1436 , 전액
139 , 1451 , 201 , 1451 , 201 , 1437 , 139 , 1437 , 본인부담
230 , 1449 , 341 , 1449 , 341 , 1433 , 230 , 1433 , 국민건강보험법
349 , 1447 , 412 , 1447 , 412 , 1432 , 349 , 1432 , 시행규칙
176 , 1473 , 207 , 1473 , 207 , 1456 , 176 , 1456 , 별표
215 , 1473 , 238 , 1473 , 238 , 1457 , 215 , 1457 , 1의
245 , 1473 , 270 , 1473 , 270 , 1456 , 245 , 1456 , 2에
277 , 1472 , 307 , 1472 , 307 , 1455 , 277 , 1455 , 따라
315 , 1471 , 376 , 1471 , 376 , 1455 , 315 , 1455 , 적용되는
385 , 1469 , 445 , 1469 , 445 , 1453 , 385 , 1453 , 항목으로
522 , 1467 , 585 , 1467 , 585 , 1451 , 522 , 1451 , 의료급여
95 , 1493 , 128 , 1493 , 128 , 1479 , 95 , 1479 , 에서
134 , 1496 , 180 , 1496 , 180 , 1476 , 134 , 1476 , 금액을
189 , 1493 , 235 , 1493 , 235 , 1476 , 189 , 1476 , 정하고
243 , 1492 , 288 , 1492 , 288 , 1478 , 243 , 1478 , 있으나
296 , 1492 , 343 , 1492 , 343 , 1475 , 296 , 1475 , 진료비
351 , 1491 , 397 , 1491 , 397 , 1474 , 351 , 1474 , 전액을
402 , 1489 , 434 , 1489 , 434 , 1474 , 402 , 1474 , 환자
439 , 1489 , 486 , 1489 , 486 , 1474 , 439 , 1474 , 본인이
494 , 1488 , 574 , 1488 , 574 , 1472 , 494 , 1472 , 부담합니다
154 , 1516 , 202 , 1516 , 202 , 1498 , 154 , 1498 , 초과금
219 , 1513 , 298 , 1513 , 298 , 1498 , 219 , 1498 , 본인부담액
412 , 1511 , 441 , 1511 , 441 , 1495 , 412 , 1495 , 같은
552 , 1509 , 581 , 1509 , 581 , 1495 , 552 , 1495 , 연간
194 , 1534 , 224 , 1534 , 224 , 1520 , 194 , 1520 , 환자
230 , 1533 , 261 , 1533 , 261 , 1518 , 230 , 1518 , 자격
267 , 1533 , 297 , 1533 , 297 , 1518 , 267 , 1518 , 등에
307 , 1532 , 336 , 1532 , 336 , 1518 , 307 , 1518 , 따라
343 , 1531 , 374 , 1531 , 374 , 1517 , 343 , 1517 , 다를
381 , 1531 , 397 , 1531 , 397 , 1515 , 381 , 1515 , 수
404 , 1532 , 435 , 1532 , 435 , 1515 , 404 , 1515 , 있음
447 , 1530 , 477 , 1530 , 477 , 1514 , 447 , 1514 , 이상
484 , 1530 , 580 , 1530 , 580 , 1515 , 484 , 1515 , 본인부담금이
148 , 1556 , 180 , 1556 , 180 , 1541 , 148 , 1541 , 경우
186 , 1557 , 233 , 1557 , 233 , 1542 , 186 , 1542 , 공단이
239 , 1555 , 303 , 1555 , 303 , 1539 , 239 , 1539 , 부담하는
311 , 1554 , 357 , 1554 , 357 , 1539 , 311 , 1539 , 초과분
367 , 1555 , 380 , 1555 , 380 , 1535 , 367 , 1535 , 중
426 , 1553 , 486 , 1553 , 486 , 1536 , 426 , 1536 , 정산하는
494 , 1553 , 541 , 1553 , 541 , 1536 , 494 , 1536 , 금액을
547 , 1551 , 611 , 1551 , 611 , 1536 , 547 , 1536 , 말합니다
111 , 1589 , 128 , 1589 , 128 , 1572 , 111 , 1572 , 駐
161 , 1587 , 225 , 1587 , 225 , 1571 , 161 , 1571 , 진료항목
580 , 1582 , 611 , 1582 , 611 , 1566 , 580 , 1566 , 또는
701 , 1580 , 765 , 1580 , 765 , 1564 , 701 , 1564 , 있습니다
147 , 1628 , 182 , 1628 , 182 , 1611 , 147 , 1611 , 2016
189 , 1628 , 207 , 1628 , 207 , 1611 , 189 , 1611 , 09
214 , 1627 , 231 , 1627 , 231 , 1611 , 214 , 1611 , 21
241 , 1628 , 255 , 1628 , 255 , 1610 , 241 , 1610 , 15
264 , 1626 , 280 , 1626 , 280 , 1611 , 264 , 1611 , 10
289 , 1627 , 307 , 1627 , 307 , 1610 , 289 , 1610 , 40
851 , 1620 , 861 , 1620 , 861 , 1604 , 851 , 1604 , X
868 , 1621 , 909 , 1621 , 909 , 1604 , 868 , 1604 , 297mm
919 , 1620 , 981 , 1620 , 981 , 1603 , 919 , 1603 , 보존용지
991 , 1620 , 1014 , 1620 , 1014 , 1605 , 991 , 1605 , 2종
1028 , 1620 , 1055 , 1620 , 1055 , 1602 , 1028 , 1602 , 70g
1064 , 1622 , 1072 , 1622 , 1072 , 1605 , 1064 , 1605 , m
995 , 1151 , 1022 , 1151 , 1022 , 1135 , 995 , 1135 , 761
1034 , 1151 , 1072 , 1151 , 1072 , 1136 , 1034 , 1136 , 1001
691 , 1275 , 707 , 1275 , 707 , 1261 , 691 , 1261 , 이
713 , 1275 , 759 , 1275 , 759 , 1260 , 713 , 1260 , 계산서
774 , 1275 , 837 , 1275 , 837 , 1260 , 774 , 1260 , 영수증에
845 , 1276 , 875 , 1276 , 875 , 1259 , 845 , 1259 , 대한
884 , 1275 , 958 , 1275 , 958 , 1259 , 884 , 1259 , 세부내용은
966 , 1276 , 1044 , 1276 , 1044 , 1259 , 966 , 1259 , 요양기관에
1050 , 1274 , 1082 , 1274 , 1082 , 1259 , 1050 , 1259 , 요구
724 , 1295 , 787 , 1295 , 787 , 1280 , 724 , 1280 , 제공받을
794 , 1296 , 809 , 1296 , 809 , 1280 , 794 , 1280 , 수
814 , 1295 , 878 , 1295 , 878 , 1280 , 814 , 1280 , 있습니다
828 , 1316 , 903 , 1316 , 903 , 1301 , 828 , 1301 , 제43조의2
909 , 1316 , 938 , 1316 , 938 , 1302 , 909 , 1302 , 또는
707 , 1338 , 757 , 1338 , 757 , 1322 , 707 , 1322 , 11조의
763 , 1338 , 786 , 1338 , 786 , 1322 , 763 , 1322 , 3에
793 , 1336 , 824 , 1336 , 824 , 1322 , 793 , 1322 , 따라
831 , 1336 , 877 , 1336 , 877 , 1322 , 831 , 1322 , 환자가
883 , 1336 , 914 , 1336 , 914 , 1322 , 883 , 1322 , 전액
972 , 1337 , 1019 , 1337 , 1019 , 1320 , 972 , 1320 , 비용과
1027 , 1337 , 1075 , 1337 , 1075 , 1321 , 1027 , 1321 , 비급여
709 , 1359 , 755 , 1359 , 755 , 1344 , 709 , 1344 , 부담한
762 , 1357 , 807 , 1357 , 807 , 1344 , 762 , 1344 , 비용의
813 , 1359 , 861 , 1359 , 861 , 1343 , 813 , 1343 , 타당성
868 , 1359 , 914 , 1359 , 914 , 1343 , 868 , 1343 , 여부를
755 , 1378 , 790 , 1378 , 790 , 1366 , 755 , 1366 , 2000
803 , 1380 , 865 , 1380 , 865 , 1366 , 803 , 1366 , 홈페이지
879 , 1381 , 989 , 1381 , 989 , 1366 , 879 , 1366 , www.hira.or.kr
994 , 1378 , 1008 , 1378 , 1008 , 1364 , 994 , 1364 , 에
1015 , 1381 , 1046 , 1381 , 1046 , 1362 , 1015 , 1362 , 확인
1052 , 1379 , 1084 , 1379 , 1084 , 1363 , 1052 , 1363 , 요청
724 , 1401 , 739 , 1401 , 739 , 1385 , 724 , 1385 , 수
745 , 1400 , 808 , 1400 , 808 , 1386 , 745 , 1386 , 있습니다
693 , 1421 , 739 , 1421 , 739 , 1406 , 693 , 1406 , 계산서
747 , 1422 , 807 , 1422 , 807 , 1406 , 747 , 1406 , 영수증은
828 , 1422 , 886 , 1422 , 886 , 1406 , 828 , 1406 , 소득세법
964 , 1422 , 1010 , 1422 , 1010 , 1406 , 964 , 1406 , 의료비
889 , 1445 , 920 , 1445 , 920 , 1428 , 889 , 1428 , 따른
926 , 1444 , 1005 , 1444 , 1005 , 1428 , 926 , 1428 , 현금영수증
1013 , 1444 , 1075 , 1444 , 1075 , 1428 , 1013 , 1428 , 공제신청
780 , 1465 , 857 , 1465 , 857 , 1450 , 780 , 1450 , 승인번호가
902 , 1466 , 947 , 1466 , 947 , 1451 , 902 , 1451 , 경우만
954 , 1466 , 1033 , 1466 , 1033 , 1449 , 954 , 1449 , 해당합니다
1040 , 1464 , 1056 , 1464 , 1056 , 1449 , 1040 , 1449 , 에
1061 , 1464 , 1076 , 1464 , 1076 , 1448 , 1061 , 1448 , 사
725 , 1486 , 739 , 1486 , 739 , 1472 , 725 , 1472 , 수
748 , 1486 , 808 , 1486 , 808 , 1470 , 748 , 1470 , 있습니다
818 , 1486 , 851 , 1486 , 851 , 1470 , 818 , 1470 , 다만
979 , 1487 , 1026 , 1487 , 1026 , 1471 , 979 , 1471 , 발급된
1039 , 1486 , 1070 , 1486 , 1070 , 1472 , 1039 , 1472 , 현금
743 , 1507 , 804 , 1507 , 804 , 1493 , 743 , 1493 , 지출증빙
818 , 1508 , 834 , 1508 , 834 , 1493 , 818 , 1493 , 은
839 , 1507 , 917 , 1507 , 917 , 1492 , 839 , 1492 , 공제신청에
924 , 1507 , 970 , 1507 , 970 , 1492 , 924 , 1492 , 사용할
999 , 1507 , 1061 , 1507 , 1061 , 1493 , 999 , 1493 , 없습니다
779 , 1530 , 809 , 1530 , 809 , 1512 , 779 , 1512 , 문의
849 , 1528 , 895 , 1528 , 895 , 1511 , 849 , 1511 , 인터넷
904 , 1529 , 963 , 1529 , 963 , 1511 , 904 , 1511 , 홈페이지
1030 , 1527 , 1077 , 1527 , 1077 , 1513 , 1030 , 1513 , 현금영수증
994 , 159 , 1009 , 159 , 1009 , 110 , 994 , 110 , 위변조방지
