1 , 775 , 50 , 775 , 50 , 759 , 1 , 759 , 한국표준질병
381 , 696 , 394 , 696 , 394 , 683 , 381 , 683 , 명
416 , 696 , 454 , 696 , 454 , 682 , 416 , 682 , 정승희
198 , 698 , 244 , 698 , 244 , 680 , 198 , 680 , 면허번호
141 , 696 , 162 , 696 , 162 , 681 , 141 , 681 , 의사
483 , 697 , 502 , 697 , 502 , 678 , 483 , 678 , 정
389 , 673 , 415 , 673 , 415 , 658 , 389 , 658 , 화양동
188 , 671 , 208 , 671 , 208 , 660 , 188 , 660 , 주소
149 , 652 , 186 , 652 , 186 , 639 , 149 , 639 , 의료기관
434 , 628 , 447 , 628 , 447 , 614 , 434 , 614 , 년
481 , 628 , 493 , 628 , 493 , 614 , 481 , 614 , 월
248 , 672 , 296 , 672 , 296 , 658 , 248 , 658 , 서울특별시
251 , 654 , 339 , 654 , 339 , 637 , 251 , 637 , 건국대학교병원
393 , 626 , 423 , 626 , 423 , 615 , 393 , 615 , 2013
84 , 550 , 98 , 550 , 98 , 535 , 84 , 535 , 고
59 , 368 , 87 , 368 , 87 , 355 , 59 , 355 , 치료에
58 , 338 , 97 , 338 , 97 , 322 , 58 , 322 , 치료내용
55 , 253 , 75 , 253 , 75 , 239 , 55 , 239 , 진단
53 , 233 , 74 , 233 , 74 , 219 , 53 , 219 , 발병
58 , 180 , 98 , 180 , 98 , 167 , 58 , 167 , 최종진단
55 , 155 , 71 , 155 , 71 , 140 , 55 , 140 , 질
442 , 135 , 476 , 135 , 476 , 123 , 442 , 123 , 552120
200 , 132 , 221 , 132 , 221 , 121 , 200 , 121 , 요골
444 , 111 , 534 , 111 , 534 , 99 , 444 , 99 , 한국표준질병분류번호
411 , 92 , 447 , 92 , 447 , 82 , 411 , 82 , 전화번호
57 , 86 , 87 , 86 , 87 , 77 , 57 , 77 , 환자의
294 , 75 , 348 , 75 , 348 , 61 , 294 , 61 , 주민등록번호
59 , 71 , 89 , 71 , 89 , 59 , 59 , 59 , 환자의
105 , 54 , 132 , 54 , 132 , 43 , 105 , 43 , 2013
53 , 54 , 63 , 54 , 63 , 43 , 53 , 43 , 연
55 , 39 , 89 , 39 , 89 , 31 , 55 , 31 , 등록번호
248 , 21 , 328 , 21 , 328 , 1 , 248 , 1 , 진단서
69 , 54 , 86 , 54 , 86 , 43 , 69 , 43 , 번호
93 , 71 , 108 , 71 , 108 , 61 , 93 , 61 , 성명
91 , 87 , 106 , 87 , 106 , 76 , 91 , 76 , 주소
232 , 132 , 251 , 132 , 251 , 121 , 232 , 121 , 골절
153 , 119 , 168 , 119 , 168 , 110 , 153 , 110 , 좌측
174 , 119 , 179 , 119 , 179 , 111 , 174 , 111 , 주
183 , 119 , 199 , 119 , 199 , 110 , 183 , 110 , 관절
202 , 120 , 220 , 120 , 220 , 111 , 202 , 111 , 탈구
152 , 131 , 170 , 131 , 170 , 122 , 152 , 122 , 좌측
173 , 132 , 180 , 132 , 180 , 122 , 173 , 122 , 주
182 , 131 , 199 , 131 , 199 , 122 , 182 , 122 , 관절
78 , 157 , 89 , 157 , 89 , 141 , 78 , 141 , 병
104 , 156 , 117 , 156 , 117 , 141 , 104 , 141 , 명
76 , 232 , 108 , 232 , 108 , 219 , 76 , 219 , 년월일
77 , 253 , 103 , 253 , 103 , 240 , 77 , 240 , 년월일
39 , 370 , 56 , 370 , 56 , 356 , 39 , 356 , 향후
89 , 370 , 107 , 370 , 107 , 357 , 89 , 357 , 대한
109 , 372 , 127 , 372 , 127 , 356 , 109 , 356 , 소견
54 , 475 , 67 , 475 , 67 , 461 , 54 , 461 , 용
91 , 477 , 101 , 477 , 101 , 463 , 91 , 463 , 도
54 , 550 , 66 , 550 , 66 , 534 , 54 , 534 , 비
133 , 270 , 150 , 270 , 150 , 258 , 133 , 258 , 상기
154 , 270 , 189 , 270 , 189 , 258 , 154 , 258 , 병명으로
193 , 271 , 222 , 271 , 222 , 259 , 193 , 259 , 2013년
271 , 270 , 287 , 270 , 287 , 259 , 271 , 259 , 본원
290 , 271 , 333 , 271 , 333 , 259 , 290 , 259 , 정형외과에
338 , 270 , 374 , 270 , 374 , 258 , 338 , 258 , 입원하여
376 , 270 , 406 , 270 , 406 , 260 , 376 , 260 , 2013년
453 , 271 , 483 , 271 , 483 , 259 , 453 , 259 , 관혈적
485 , 270 , 512 , 270 , 512 , 260 , 485 , 260 , 정복술
514 , 270 , 523 , 270 , 523 , 259 , 514 , 259 , 및
526 , 271 , 539 , 271 , 539 , 260 , 526 , 260 , 내
133 , 283 , 161 , 283 , 161 , 272 , 133 , 272 , 고정술
163 , 282 , 199 , 282 , 199 , 272 , 163 , 272 , 시행받은
203 , 282 , 227 , 282 , 227 , 272 , 203 , 272 , 환자로
231 , 282 , 258 , 282 , 258 , 271 , 231 , 271 , 합병증
265 , 284 , 291 , 284 , 291 , 271 , 265 , 271 , 후유증
293 , 284 , 304 , 284 , 304 , 272 , 293 , 272 , 및
306 , 283 , 351 , 283 , 351 , 272 , 306 , 272 , 미발견증이
354 , 283 , 371 , 283 , 371 , 271 , 354 , 271 , 없는
374 , 282 , 383 , 282 , 383 , 273 , 374 , 273 , 한
387 , 282 , 440 , 282 , 440 , 272 , 387 , 272 , 수술일로부터
442 , 282 , 466 , 282 , 466 , 272 , 442 , 272 , 7주의
469 , 283 , 515 , 283 , 515 , 272 , 469 , 272 , 안정가료를
517 , 285 , 539 , 285 , 539 , 272 , 517 , 272 , 요할
131 , 293 , 161 , 293 , 161 , 284 , 131 , 284 , 것으로
163 , 295 , 189 , 295 , 189 , 283 , 163 , 283 , 사료됨
134 , 305 , 143 , 305 , 143 , 294 , 134 , 294 , 단
148 , 307 , 166 , 307 , 166 , 295 , 148 , 295 , 장기
168 , 306 , 195 , 306 , 195 , 296 , 168 , 296 , 예후는
199 , 306 , 225 , 306 , 225 , 294 , 199 , 294 , 추후에
228 , 305 , 264 , 305 , 264 , 294 , 228 , 294 , 재판정을
267 , 307 , 284 , 307 , 284 , 294 , 267 , 294 , 요함
36 , 609 , 71 , 609 , 71 , 594 , 36 , 594 , 의료법
80 , 609 , 90 , 609 , 90 , 594 , 80 , 594 , 제
96 , 609 , 120 , 609 , 120 , 595 , 96 , 595 , 17조
123 , 611 , 135 , 611 , 135 , 595 , 123 , 595 , 및
140 , 609 , 162 , 609 , 162 , 594 , 140 , 594 , 같은
166 , 610 , 176 , 610 , 176 , 595 , 166 , 595 , 법
182 , 609 , 227 , 609 , 227 , 595 , 182 , 595 , 시행규칙
232 , 609 , 272 , 609 , 272 , 595 , 232 , 595 , 제9조에
276 , 610 , 299 , 610 , 299 , 594 , 276 , 594 , 따라
303 , 608 , 326 , 608 , 326 , 595 , 303 , 595 , 위와
330 , 608 , 354 , 608 , 354 , 594 , 330 , 594 , 같이
358 , 609 , 415 , 609 , 415 , 596 , 358 , 596 , 진단합니다
524 , 627 , 537 , 627 , 537 , 613 , 524 , 613 , 일
512 , 695 , 526 , 695 , 526 , 674 , 512 , 674 , 승
532 , 696 , 551 , 696 , 551 , 675 , 532 , 675 , 희
366 , 697 , 378 , 697 , 378 , 684 , 366 , 684 , 성
297 , 672 , 324 , 672 , 324 , 660 , 297 , 660 , 광진구
356 , 673 , 375 , 673 , 375 , 659 , 356 , 659 , 120
189 , 654 , 207 , 654 , 207 , 639 , 189 , 639 , 명칭
51 , 776 , 94 , 776 , 94 , 761 , 51 , 761 , 분류번호를
96 , 776 , 139 , 776 , 139 , 763 , 96 , 763 , 기입합니다
5 , 718 , 10 , 718 , 10 , 708 , 5 , 708 , 1
16 , 720 , 42 , 720 , 42 , 707 , 16 , 707 , 환자의
45 , 721 , 85 , 721 , 85 , 707 , 45 , 707 , 인적사항은
87 , 720 , 113 , 720 , 113 , 709 , 87 , 709 , 진찰한
115 , 722 , 138 , 722 , 138 , 709 , 115 , 709 , 의사가
141 , 722 , 183 , 722 , 183 , 708 , 141 , 708 , 주민등록증
188 , 723 , 222 , 723 , 222 , 709 , 188 , 709 , 기간만료
224 , 723 , 232 , 723 , 232 , 710 , 224 , 710 , 전
234 , 721 , 250 , 721 , 250 , 710 , 234 , 710 , 여권
256 , 723 , 297 , 723 , 297 , 710 , 256 , 710 , 운전면허증
302 , 721 , 335 , 721 , 335 , 709 , 302 , 709 , 공무원증
341 , 723 , 383 , 723 , 383 , 708 , 341 , 708 , 국공립대학
384 , 721 , 410 , 721 , 410 , 710 , 384 , 710 , 학생증
415 , 721 , 448 , 721 , 448 , 709 , 415 , 709 , 군무원증
452 , 720 , 494 , 720 , 494 , 709 , 452 , 709 , 의료보험증
499 , 721 , 523 , 721 , 523 , 707 , 499 , 707 , 외국인
526 , 723 , 550 , 723 , 550 , 706 , 526 , 706 , 등록증
467 , 738 , 509 , 738 , 509 , 725 , 467 , 725 , 날인합니다
447 , 740 , 465 , 740 , 465 , 725 , 447 , 725 , 또는
429 , 739 , 446 , 739 , 446 , 727 , 429 , 727 , 서명
393 , 739 , 427 , 739 , 427 , 726 , 393 , 726 , 확인하고
356 , 739 , 391 , 739 , 391 , 727 , 356 , 727 , 대조하여
534 , 756 , 558 , 756 , 558 , 743 , 534 , 743 , 적으며
514 , 755 , 532 , 755 , 532 , 744 , 514 , 744 , 함께
486 , 756 , 512 , 756 , 512 , 743 , 486 , 743 , 한글을
450 , 757 , 485 , 757 , 485 , 742 , 450 , 742 , 경우에는
432 , 757 , 448 , 757 , 448 , 743 , 432 , 743 , 적을
404 , 757 , 428 , 757 , 428 , 743 , 404 , 743 , 영어로
381 , 757 , 398 , 757 , 398 , 744 , 381 , 744 , 적되
354 , 757 , 378 , 757 , 378 , 745 , 354 , 745 , 한글로
316 , 758 , 351 , 758 , 351 , 743 , 316 , 743 , 지렵ㅇ명은
345 , 739 , 355 , 739 , 355 , 727 , 345 , 727 , 과
326 , 739 , 343 , 739 , 343 , 728 , 326 , 728 , 가능
307 , 738 , 325 , 738 , 325 , 726 , 307 , 726 , 대체
280 , 740 , 304 , 740 , 304 , 726 , 280 , 726 , 등으로
277 , 757 , 312 , 757 , 312 , 744 , 277 , 744 , 표시하고
251 , 740 , 277 , 740 , 277 , 727 , 251 , 727 , 학생증
246 , 758 , 262 , 758 , 262 , 744 , 246 , 744 , 체크
229 , 739 , 247 , 739 , 247 , 727 , 229 , 727 , 초본
234 , 757 , 243 , 757 , 243 , 745 , 234 , 745 , 에
177 , 740 , 228 , 740 , 228 , 727 , 177 , 727 , 주민등록등본
189 , 757 , 224 , 757 , 224 , 745 , 189 , 745 , 택일하여
178 , 758 , 188 , 758 , 188 , 744 , 178 , 744 , 중
141 , 741 , 174 , 741 , 174 , 726 , 141 , 726 , 경우에는
139 , 758 , 172 , 758 , 172 , 744 , 139 , 744 , 최종진단
97 , 740 , 138 , 740 , 138 , 725 , 97 , 725 , 미성년자인
124 , 757 , 133 , 757 , 133 , 744 , 124 , 744 , 과
104 , 758 , 119 , 758 , 119 , 743 , 104 , 743 , 추정
77 , 756 , 101 , 756 , 101 , 743 , 77 , 743 , 임상적
71 , 738 , 95 , 738 , 95 , 726 , 71 , 726 , 환자가
45 , 756 , 68 , 756 , 68 , 742 , 45 , 742 , 란에는
42 , 740 , 65 , 740 , 65 , 725 , 42 , 725 , 신분증
3 , 739 , 40 , 739 , 40 , 723 , 3 , 723 , 국가공인
16 , 757 , 41 , 757 , 41 , 743 , 16 , 743 , 질병명
1 , 755 , 9 , 755 , 9 , 743 , 1 , 743 , 2
