329 , 382 , 339 , 382 , 339 , 372 , 329 , 372 , 호
269 , 339 , 292 , 339 , 292 , 328 , 269 , 328 , 67,500
137 , 254 , 166 , 254 , 166 , 246 , 137 , 246 , 358,540
137 , 228 , 165 , 228 , 165 , 220 , 137 , 220 , 309,003
369 , 204 , 395 , 204 , 395 , 195 , 369 , 195 , 67,500
140 , 203 , 164 , 203 , 164 , 195 , 140 , 195 , 103,627
364 , 166 , 395 , 166 , 395 , 156 , 364 , 156 , 67,500
367 , 122 , 395 , 122 , 395 , 114 , 367 , 114 , 67,500
187 , 102 , 201 , 102 , 201 , 95 , 187 , 95 , 전액
151 , 75 , 201 , 75 , 201 , 66 , 151 , 66 , 질병군(DRG)번호
292 , 393 , 312 , 393 , 312 , 384 , 292 , 384 , 안진수
268 , 393 , 284 , 393 , 284 , 385 , 268 , 385 , 수납자
262 , 380 , 270 , 380 , 270 , 373 , 262 , 373 , 대
309 , 380 , 317 , 380 , 317 , 372 , 309 , 372 , 전
26 , 379 , 51 , 379 , 51 , 373 , 26 , 373 , 사업장
140 , 358 , 159 , 358 , 159 , 351 , 140 , 351 , 의원급
269 , 294 , 293 , 294 , 293 , 287 , 269 , 287 , 20,000
93 , 112 , 123 , 112 , 123 , 103 , 93 , 103 , 본인부담금
228 , 102 , 241 , 102 , 241 , 96 , 228 , 96 , 선택
44 , 103 , 52 , 103 , 52 , 94 , 44 , 94 , 항
258 , 111 , 290 , 111 , 290 , 103 , 258 , 103 , 진료료 이외
290 , 75 , 316 , 75 , 316 , 67 , 290 , 67 , 환자구분
349 , 74 , 379 , 74 , 379 , 65 , 349 , 65 , 영수증번호
101 , 73 , 124 , 73 , 124 , 65 , 101 , 65 , 의사명
30 , 73 , 42 , 73 , 42 , 65 , 30 , 65 , 야간
352 , 49 , 376 , 49 , 376 , 42 , 352 , 42 , 진료과목
259 , 50 , 283 , 50 , 283 , 43 , 259 , 43 , 진료기간
135 , 50 , 159 , 50 , 159 , 42 , 135 , 42 , 환자성명
33 , 50 , 75 , 50 , 75 , 41 , 33 , 41 , 환자등록번호
85 , 37 , 109 , 37 , 109 , 23 , 85 , 23 , 외래
138 , 38 , 161 , 38 , 161 , 24 , 138 , 24 , 입원
120 , 36 , 131 , 36 , 131 , 22 , 120 , 22 , V
186 , 38 , 202 , 38 , 202 , 28 , 186 , 28 , 퇴원
218 , 38 , 234 , 38 , 234 , 27 , 218 , 27 , 중간
171 , 36 , 179 , 36 , 179 , 25 , 171 , 25 , V
240 , 38 , 276 , 38 , 276 , 23 , 240 , 23 , 진료비
280 , 38 , 315 , 38 , 315 , 23 , 280 , 23 , 계산서
326 , 38 , 360 , 38 , 360 , 25 , 326 , 25 , 영수증
363 , 38 , 370 , 38 , 370 , 27 , 363 , 27 , N
335 , 61 , 377 , 61 , 377 , 52 , 335 , 52 , 재활의학과
236 , 73 , 249 , 73 , 249 , 66 , 236 , 66 , 병실
46 , 73 , 62 , 73 , 62 , 66 , 46 , 66 , 공휴일
65 , 73 , 77 , 73 , 77 , 66 , 65 , 66 , 진료
37 , 83 , 49 , 83 , 49 , 76 , 37 , 76 , 야간
65 , 83 , 82 , 83 , 82 , 76 , 65 , 76 , 공휴일
92 , 82 , 114 , 82 , 114 , 75 , 92 , 75 , 이태일
118 , 81 , 132 , 81 , 132 , 75 , 118 , 75 , 선택
55 , 103 , 62 , 103 , 62 , 93 , 55 , 93 , 목
140 , 92 , 157 , 92 , 157 , 84 , 140 , 84 , 급여
107 , 101 , 146 , 101 , 146 , 94 , 107 , 94 , 일부본인부담
136 , 110 , 165 , 110 , 165 , 104 , 136 , 104 , 공단부담금
178 , 111 , 202 , 111 , 202 , 104 , 178 , 104 , 본인부담
240 , 93 , 264 , 93 , 264 , 86 , 240 , 86 , 비급여
223 , 110 , 241 , 110 , 241 , 104 , 223 , 104 , 진료료
271 , 102 , 283 , 102 , 283 , 95 , 271 , 95 , 선택
307 , 102 , 339 , 102 , 339 , 95 , 307 , 95 , 진료비총액
360 , 105 , 394 , 105 , 394 , 97 , 360 , 97 , 7,776,729
327 , 93 , 364 , 93 , 364 , 86 , 327 , 86 , 금액산정내용
387 , 134 , 394 , 134 , 394 , 127 , 387 , 127 , 0
388 , 144 , 394 , 144 , 394 , 136 , 388 , 136 , 0
387 , 152 , 394 , 152 , 394 , 145 , 387 , 145 , 0
370 , 193 , 394 , 193 , 394 , 186 , 370 , 186 , 67,500
387 , 178 , 393 , 178 , 393 , 169 , 387 , 169 , 0
55 , 380 , 78 , 380 , 78 , 372 , 55 , 372 , 소재지
34 , 118 , 41 , 118 , 41 , 112 , 34 , 112 , 진
55 , 119 , 61 , 119 , 61 , 112 , 55 , 112 , 찰
75 , 119 , 83 , 119 , 83 , 112 , 75 , 112 , 료
35 , 127 , 42 , 127 , 42 , 121 , 35 , 121 , 입
55 , 128 , 62 , 128 , 62 , 122 , 55 , 122 , 원
76 , 127 , 82 , 127 , 82 , 121 , 76 , 121 , 료
35 , 136 , 42 , 136 , 42 , 130 , 35 , 130 , 식
75 , 136 , 82 , 136 , 82 , 129 , 75 , 129 , 대
25 , 157 , 32 , 157 , 32 , 149 , 25 , 149 , 기
25 , 175 , 32 , 175 , 32 , 166 , 25 , 166 , 본
25 , 192 , 32 , 192 , 32 , 183 , 25 , 183 , 항
26 , 209 , 32 , 209 , 32 , 200 , 26 , 200 , 목
36 , 144 , 55 , 144 , 55 , 138 , 36 , 138 , 투약및
37 , 153 , 55 , 153 , 55 , 146 , 37 , 146 , 조제료
60 , 144 , 81 , 144 , 81 , 137 , 60 , 137 , 행위료
60 , 153 , 81 , 153 , 81 , 146 , 60 , 146 , 약품비
61 , 161 , 81 , 161 , 81 , 155 , 61 , 155 , 행위료
61 , 170 , 81 , 170 , 81 , 164 , 61 , 164 , 약품비
37 , 166 , 55 , 166 , 55 , 158 , 37 , 158 , 주사료
36 , 178 , 42 , 178 , 42 , 170 , 36 , 170 , 마
55 , 178 , 61 , 178 , 61 , 171 , 55 , 171 , 취
75 , 178 , 82 , 178 , 82 , 172 , 75 , 172 , 료
36 , 186 , 82 , 186 , 82 , 180 , 36 , 180 , 처치및수술료
36 , 195 , 41 , 195 , 41 , 188 , 36 , 188 , 검
55 , 195 , 61 , 195 , 61 , 189 , 55 , 189 , 사
76 , 195 , 81 , 195 , 81 , 187 , 76 , 187 , 료
35 , 203 , 81 , 203 , 81 , 196 , 35 , 196 , 영상진단료
36 , 211 , 82 , 211 , 82 , 206 , 36 , 206 , 방사선치료료
35 , 220 , 83 , 220 , 83 , 214 , 35 , 214 , 치료재료대
36 , 228 , 82 , 228 , 82 , 222 , 36 , 222 , 재활및물리치료료
36 , 237 , 82 , 237 , 82 , 230 , 36 , 230 , 정신요법료
36 , 245 , 81 , 245 , 81 , 239 , 36 , 239 , 전혈및혈액성분제재료
25 , 275 , 32 , 275 , 32 , 266 , 25 , 266 , 선
25 , 287 , 32 , 287 , 32 , 278 , 25 , 278 , 택
26 , 299 , 32 , 299 , 32 , 290 , 26 , 290 , 항
26 , 310 , 32 , 310 , 32 , 302 , 26 , 302 , 목
35 , 253 , 41 , 253 , 41 , 247 , 35 , 247 , C
44 , 253 , 49 , 253 , 49 , 246 , 44 , 246 , T
35 , 262 , 49 , 262 , 49 , 256 , 35 , 256 , MRI
35 , 270 , 48 , 270 , 48 , 264 , 35 , 264 , PET
53 , 254 , 81 , 254 , 81 , 247 , 53 , 247 , 진단료
53 , 262 , 82 , 262 , 82 , 256 , 53 , 256 , 진단료
54 , 271 , 81 , 271 , 81 , 264 , 54 , 264 , 진단료
35 , 278 , 81 , 278 , 81 , 273 , 35 , 273 , 초음파진단료
35 , 287 , 49 , 287 , 49 , 280 , 35 , 280 , 보철
59 , 287 , 81 , 287 , 81 , 280 , 59 , 280 , 교정료
35 , 295 , 42 , 295 , 42 , 289 , 35 , 289 , 구
49 , 295 , 56 , 295 , 56 , 289 , 49 , 289 , 급
62 , 295 , 69 , 295 , 69 , 289 , 62 , 289 , 차
74 , 296 , 81 , 296 , 81 , 289 , 74 , 289 , 료
35 , 304 , 42 , 304 , 42 , 297 , 35 , 297 , 제
47 , 304 , 55 , 304 , 55 , 298 , 47 , 298 , 증
61 , 304 , 69 , 304 , 69 , 298 , 61 , 298 , 명
76 , 304 , 82 , 304 , 82 , 298 , 76 , 298 , 료
34 , 313 , 41 , 313 , 41 , 306 , 34 , 306 , 건
45 , 313 , 51 , 313 , 51 , 306 , 45 , 306 , 강
55 , 313 , 61 , 313 , 61 , 306 , 55 , 306 , 관
66 , 313 , 72 , 313 , 72 , 306 , 66 , 306 , 리
75 , 313 , 83 , 313 , 83 , 306 , 75 , 306 , 료
36 , 321 , 41 , 321 , 41 , 314 , 36 , 314 , 기
75 , 321 , 82 , 321 , 82 , 315 , 75 , 315 , 타
35 , 330 , 81 , 330 , 81 , 323 , 35 , 323 , 포갈수가진료비
42 , 339 , 48 , 339 , 48 , 332 , 42 , 332 , 합
57 , 339 , 64 , 339 , 64 , 331 , 57 , 331 , 계
37 , 348 , 56 , 348 , 56 , 342 , 37 , 342 , 상한액
58 , 348 , 77 , 348 , 77 , 342 , 58 , 342 , 초과금
29 , 358 , 59 , 358 , 59 , 351 , 29 , 351 , 요양기관
63 , 359 , 76 , 359 , 76 , 351 , 63 , 351 , 종류
29 , 368 , 77 , 368 , 77 , 361 , 29 , 361 , 사업자등록번호
153 , 392 , 169 , 392 , 169 , 384 , 153 , 384 , 2013
172 , 393 , 179 , 393 , 179 , 386 , 172 , 386 , 년
184 , 392 , 193 , 392 , 193 , 385 , 184 , 385 , 01
196 , 394 , 202 , 394 , 202 , 386 , 196 , 386 , 월
207 , 393 , 215 , 393 , 215 , 384 , 207 , 384 , 02
219 , 392 , 227 , 392 , 227 , 384 , 219 , 384 , 일
115 , 381 , 132 , 381 , 132 , 372 , 115 , 372 , 경기도
135 , 380 , 151 , 380 , 151 , 373 , 135 , 373 , 성남시
154 , 380 , 171 , 380 , 171 , 373 , 154 , 373 , 분당구
173 , 381 , 189 , 381 , 189 , 373 , 173 , 373 , 서현동
192 , 380 , 204 , 380 , 204 , 373 , 192 , 373 , 255
207 , 380 , 211 , 380 , 211 , 373 , 207 , 373 , 2
164 , 358 , 188 , 358 , 188 , 351 , 164 , 351 , 보건기관
91 , 369 , 104 , 369 , 104 , 360 , 91 , 360 , 129
110 , 369 , 120 , 369 , 120 , 361 , 110 , 361 , 82
124 , 369 , 150 , 369 , 150 , 361 , 124 , 361 , 04787
163 , 369 , 170 , 369 , 170 , 360 , 163 , 360 , 상
176 , 370 , 184 , 370 , 184 , 360 , 176 , 360 , 호
199 , 369 , 241 , 369 , 241 , 361 , 199 , 361 , 대진의료재단
244 , 369 , 286 , 369 , 286 , 361 , 244 , 361 , 분당재생병원
299 , 368 , 323 , 368 , 323 , 361 , 299 , 361 , 전화번호
273 , 380 , 280 , 380 , 280 , 373 , 273 , 373 , 표
282 , 381 , 289 , 381 , 289 , 373 , 282 , 373 , 자
351 , 380 , 360 , 380 , 360 , 372 , 351 , 372 , 덕
360 , 348 , 368 , 348 , 368 , 341 , 360 , 341 , 유
385 , 350 , 393 , 350 , 393 , 342 , 385 , 342 , 무
334 , 368 , 347 , 368 , 347 , 360 , 334 , 360 , 031
349 , 368 , 361 , 368 , 361 , 361 , 349 , 361 , 779
365 , 369 , 381 , 369 , 381 , 361 , 365 , 361 , 0114
270 , 304 , 293 , 304 , 293 , 297 , 270 , 297 , 45,000
131 , 338 , 165 , 338 , 165 , 330 , 131 , 330 , 7,709,229
138 , 219 , 165 , 219 , 165 , 211 , 138 , 211 , 288,432
138 , 194 , 166 , 194 , 166 , 186 , 138 , 186 , 855,526
139 , 185 , 164 , 185 , 164 , 178 , 139 , 178 , 877,385
142 , 118 , 165 , 118 , 165 , 112 , 142 , 112 , 32,200
132 , 126 , 164 , 126 , 164 , 119 , 132 , 119 , 2,658,290
141 , 133 , 165 , 133 , 165 , 127 , 141 , 127 , 749,580
140 , 143 , 165 , 143 , 165 , 136 , 140 , 136 , 112,603
139 , 151 , 165 , 151 , 165 , 145 , 139 , 145 , 405,521
139 , 160 , 165 , 160 , 165 , 154 , 139 , 154 , 118,555
138 , 169 , 165 , 169 , 165 , 162 , 138 , 162 , 768,502
296 , 280 , 302 , 280 , 302 , 273 , 296 , 273 , 금
320 , 280 , 326 , 280 , 326 , 273 , 320 , 273 , 액
297 , 271 , 326 , 271 , 326 , 264 , 297 , 264 , 결재방법
297 , 263 , 326 , 263 , 326 , 256 , 297 , 256 , 승인번호
297 , 254 , 326 , 254 , 326 , 247 , 297 , 247 , 카드번호
297 , 246 , 326 , 246 , 326 , 239 , 297 , 239 , 카드종류
298 , 237 , 326 , 237 , 326 , 231 , 298 , 231 , 가맹점번호
303 , 229 , 336 , 229 , 336 , 223 , 303 , 223 , 현금승인번호
303 , 220 , 337 , 220 , 337 , 214 , 303 , 214 , 신분확인번호
303 , 211 , 333 , 211 , 333 , 205 , 303 , 205 , 현금영수증
274 , 186 , 292 , 186 , 292 , 178 , 274 , 178 , 2,500
296 , 182 , 306 , 182 , 306 , 176 , 296 , 176 , 납부
298 , 190 , 304 , 190 , 304 , 184 , 298 , 184 , 할
295 , 199 , 306 , 199 , 306 , 192 , 295 , 192 , 금액
320 , 177 , 334 , 177 , 334 , 171 , 320 , 171 , 카드
312 , 186 , 342 , 186 , 342 , 180 , 312 , 180 , 현금영수증
320 , 195 , 334 , 195 , 334 , 188 , 320 , 188 , 현금
310 , 203 , 322 , 203 , 322 , 197 , 310 , 197 , 합계
308 , 162 , 338 , 162 , 338 , 154 , 308 , 154 , 납부할금액
301 , 135 , 343 , 135 , 343 , 129 , 301 , 129 , 이미납부한금액
305 , 119 , 342 , 119 , 342 , 112 , 305 , 112 , 환자부담총액
325 , 144 , 330 , 144 , 330 , 136 , 325 , 136 , 백
325 , 152 , 331 , 152 , 331 , 145 , 325 , 145 , 백
219 , 358 , 237 , 358 , 237 , 350 , 219 , 350 , 병원급
299 , 347 , 311 , 347 , 311 , 341 , 299 , 341 , 선택
313 , 347 , 324 , 347 , 324 , 341 , 313 , 341 , 진료
327 , 348 , 338 , 348 , 338 , 342 , 327 , 342 , 신청
301 , 101 , 305 , 101 , 305 , 95 , 301 , 95 , 1
298 , 109 , 342 , 109 , 342 , 102 , 298 , 102 , 1+2+3+4+5
