47 , 536 , 55 , 536 , 55 , 529 , 47 , 529 , 면
317 , 518 , 330 , 518 , 330 , 509 , 317 , 509 , 031
98 , 518 , 112 , 518 , 112 , 510 , 98 , 510 , 031
100 , 503 , 115 , 503 , 115 , 489 , 100 , 489 , 국
100 , 482 , 121 , 482 , 121 , 473 , 100 , 473 , 경기도
57 , 481 , 84 , 481 , 84 , 474 , 57 , 474 , 의원주소
98 , 466 , 123 , 466 , 123 , 456 , 98 , 456 , 2015년
38 , 448 , 57 , 448 , 57 , 437 , 38 , 437 , 위와
327 , 413 , 357 , 413 , 357 , 404 , 327 , 404 , 보험회사
287 , 414 , 305 , 414 , 305 , 404 , 287 , 404 , 용도
53 , 414 , 68 , 414 , 68 , 405 , 53 , 405 , 비고
39 , 352 , 82 , 352 , 82 , 344 , 39 , 344 , 향후진료의견
38 , 282 , 51 , 282 , 51 , 274 , 38 , 274 , 수술
323 , 248 , 340 , 248 , 340 , 239 , 323 , 239 , 2015
285 , 249 , 308 , 249 , 308 , 239 , 285 , 239 , 진단일
136 , 264 , 186 , 264 , 186 , 256 , 136 , 256 , Laparosooplc
88 , 248 , 104 , 248 , 104 , 239 , 88 , 239 , 이상
48 , 250 , 71 , 250 , 71 , 239 , 48 , 239 , 발병일
47 , 202 , 83 , 202 , 83 , 191 , 47 , 191 , 임상적추정
73 , 180 , 83 , 180 , 83 , 171 , 73 , 171 , 명
130 , 167 , 153 , 167 , 153 , 159 , 130 , 159 , 자궁의
331 , 164 , 361 , 164 , 361 , 155 , 331 , 155 , 국제질병
289 , 147 , 306 , 147 , 306 , 137 , 289 , 137 , 전화
66 , 145 , 79 , 145 , 79 , 138 , 66 , 138 , 주소
422 , 124 , 435 , 124 , 435 , 116 , 422 , 116 , 40
385 , 126 , 399 , 126 , 399 , 116 , 385 , 116 , 연령
295 , 126 , 320 , 126 , 320 , 116 , 295 , 116 , 1975년
239 , 125 , 271 , 125 , 271 , 116 , 239 , 116 , 생년월일
195 , 125 , 204 , 125 , 204 , 116 , 195 , 116 , 남
161 , 126 , 179 , 126 , 179 , 115 , 161 , 115 , 성별
43 , 126 , 62 , 126 , 62 , 116 , 43 , 116 , 환자의
215 , 108 , 261 , 108 , 261 , 98 , 215 , 98 , 주민등록번호
44 , 96 , 52 , 96 , 52 , 88 , 44 , 88 , 등
45 , 107 , 51 , 107 , 51 , 99 , 45 , 99 , 연
190 , 74 , 295 , 74 , 295 , 57 , 190 , 57 , 일반진단서
55 , 96 , 63 , 96 , 63 , 88 , 55 , 88 , 록
67 , 96 , 75 , 96 , 75 , 88 , 67 , 88 , 번
78 , 96 , 86 , 96 , 86 , 88 , 78 , 88 , 호
78 , 108 , 86 , 108 , 86 , 100 , 78 , 100 , 호
62 , 107 , 70 , 107 , 70 , 99 , 62 , 99 , 번
65 , 125 , 79 , 125 , 79 , 117 , 65 , 117 , 성명
42 , 147 , 63 , 147 , 63 , 136 , 42 , 136 , 환자의
46 , 180 , 56 , 180 , 56 , 171 , 46 , 171 , 병
75 , 215 , 83 , 215 , 83 , 208 , 75 , 208 , 단
65 , 215 , 73 , 215 , 73 , 208 , 65 , 208 , 진
56 , 215 , 64 , 215 , 64 , 208 , 56 , 208 , 종
47 , 215 , 55 , 215 , 55 , 208 , 47 , 208 , 최
91 , 166 , 128 , 166 , 128 , 158 , 91 , 158 , 상세불명의
218 , 125 , 227 , 125 , 227 , 116 , 218 , 116 , 여
322 , 124 , 337 , 124 , 337 , 117 , 322 , 117 , 01월
340 , 125 , 355 , 125 , 355 , 117 , 340 , 117 , 15일
344 , 248 , 352 , 248 , 352 , 238 , 344 , 238 , 03
364 , 164 , 394 , 164 , 394 , 155 , 364 , 155 , 분류번호
357 , 248 , 365 , 248 , 365 , 239 , 357 , 239 , 12
243 , 263 , 258 , 263 , 258 , 256 , 243 , 256 , 11시
261 , 263 , 275 , 263 , 275 , 256 , 261 , 256 , 이후
88 , 263 , 106 , 263 , 106 , 255 , 88 , 255 , 2015
110 , 262 , 120 , 262 , 120 , 255 , 110 , 255 , 03
125 , 263 , 133 , 263 , 133 , 254 , 125 , 254 , 12
55 , 282 , 83 , 282 , 83 , 275 , 55 , 275 , 시술일자
59 , 291 , 78 , 291 , 78 , 284 , 59 , 284 , 시술명
42 , 292 , 55 , 292 , 55 , 284 , 42 , 284 , 수술
89 , 323 , 127 , 323 , 127 , 315 , 89 , 315 , 상병명으로
130 , 324 , 155 , 324 , 155 , 316 , 130 , 316 , 2015년
158 , 324 , 169 , 324 , 169 , 317 , 158 , 317 , 3월
173 , 325 , 188 , 325 , 188 , 316 , 173 , 316 , 11일
192 , 324 , 221 , 324 , 221 , 317 , 192 , 317 , 입원하여
224 , 324 , 234 , 324 , 234 , 317 , 224 , 317 , 3월
239 , 324 , 254 , 324 , 254 , 316 , 239 , 316 , 12일
91 , 331 , 104 , 331 , 104 , 325 , 91 , 325 , 관찰
109 , 332 , 121 , 332 , 121 , 325 , 109 , 325 , 요망
258 , 324 , 286 , 324 , 286 , 315 , 258 , 315 , 복강경하
290 , 325 , 341 , 325 , 341 , 316 , 290 , 316 , 자궁근종절제술
345 , 325 , 360 , 325 , 360 , 317 , 345 , 317 , 시행
363 , 323 , 369 , 323 , 369 , 316 , 363 , 316 , 후
371 , 323 , 383 , 323 , 383 , 315 , 371 , 315 , 3월
387 , 324 , 403 , 324 , 403 , 315 , 387 , 315 , 14일
406 , 323 , 426 , 323 , 426 , 316 , 406 , 316 , 퇴원함
433 , 325 , 446 , 325 , 446 , 314 , 433 , 314 , 추적
61 , 446 , 78 , 446 , 78 , 436 , 61 , 436 , 같이
83 , 447 , 110 , 447 , 110 , 437 , 83 , 437 , 진단함
359 , 412 , 381 , 412 , 381 , 404 , 359 , 404 , 제출용
334 , 518 , 347 , 518 , 347 , 509 , 334 , 509 , 920
352 , 518 , 368 , 518 , 368 , 509 , 352 , 509 , 1079
287 , 518 , 301 , 518 , 301 , 508 , 287 , 508 , 번호
118 , 503 , 133 , 503 , 133 , 489 , 118 , 489 , 립
137 , 503 , 152 , 503 , 152 , 489 , 137 , 489 , 암
156 , 502 , 171 , 502 , 171 , 488 , 156 , 488 , 센
174 , 503 , 189 , 503 , 189 , 489 , 174 , 489 , 터
117 , 518 , 129 , 518 , 129 , 510 , 117 , 510 , 920
134 , 520 , 150 , 520 , 150 , 509 , 134 , 509 , 1000
57 , 535 , 65 , 535 , 65 , 528 , 57 , 528 , 허
66 , 535 , 74 , 535 , 74 , 528 , 66 , 528 , 번
76 , 535 , 83 , 535 , 83 , 528 , 76 , 528 , 호
66 , 518 , 74 , 518 , 74 , 511 , 66 , 511 , 번
76 , 518 , 83 , 518 , 83 , 511 , 76 , 511 , 호
48 , 517 , 55 , 517 , 55 , 510 , 48 , 510 , 전
57 , 517 , 64 , 517 , 64 , 510 , 57 , 510 , 화
47 , 500 , 54 , 500 , 54 , 493 , 47 , 493 , 병
47 , 481 , 54 , 481 , 54 , 474 , 47 , 474 , 병
57 , 499 , 64 , 499 , 64 , 492 , 57 , 492 , 의
67 , 499 , 74 , 499 , 74 , 492 , 67 , 492 , 원
77 , 499 , 84 , 499 , 84 , 492 , 77 , 492 , 명
48 , 464 , 55 , 464 , 55 , 457 , 48 , 457 , 발
62 , 464 , 69 , 464 , 69 , 457 , 62 , 457 , 행
75 , 464 , 82 , 464 , 82 , 457 , 75 , 457 , 일
34 , 562 , 74 , 562 , 74 , 553 , 34 , 553 , 대한의학협회
77 , 562 , 88 , 562 , 88 , 554 , 77 , 554 , 개정
93 , 561 , 108 , 561 , 108 , 555 , 93 , 555 , 1933
111 , 562 , 114 , 562 , 114 , 554 , 111 , 554 , 7
117 , 561 , 124 , 561 , 124 , 555 , 117 , 555 , 22
48 , 572 , 53 , 572 , 53 , 564 , 48 , 564 , 참
57 , 572 , 62 , 572 , 62 , 564 , 57 , 564 , 고
47 , 580 , 60 , 580 , 60 , 574 , 47 , 574 , 본인
63 , 580 , 83 , 580 , 83 , 574 , 63 , 574 , 확인은
86 , 581 , 120 , 581 , 120 , 574 , 86 , 574 , 진단의사가
123 , 581 , 165 , 581 , 165 , 573 , 123 , 573 , 주민등록증과
168 , 580 , 181 , 580 , 181 , 574 , 168 , 574 , 대조
185 , 581 , 219 , 581 , 219 , 573 , 185 , 573 , 미성년자일
222 , 580 , 235 , 580 , 235 , 573 , 222 , 573 , 때는
238 , 580 , 250 , 580 , 250 , 572 , 238 , 572 , 기타
254 , 581 , 274 , 581 , 274 , 571 , 254 , 571 , 본인을
276 , 580 , 291 , 580 , 291 , 572 , 276 , 572 , 특징
302 , 581 , 309 , 581 , 309 , 572 , 302 , 572 , 수
312 , 583 , 326 , 583 , 326 , 572 , 312 , 572 , 있는
244 , 600 , 265 , 600 , 265 , 592 , 244 , 592 , 표한다
293 , 581 , 300 , 581 , 300 , 572 , 293 , 572 , 할
221 , 600 , 242 , 600 , 242 , 592 , 221 , 592 , 체크로
150 , 600 , 177 , 600 , 177 , 592 , 150 , 592 , 진단명을
180 , 600 , 193 , 600 , 193 , 592 , 180 , 592 , 택일
205 , 599 , 218 , 599 , 218 , 591 , 205 , 591 , 표에
153 , 609 , 181 , 609 , 181 , 601 , 153 , 601 , 기입한다
158 , 590 , 186 , 590 , 186 , 583 , 158 , 583 , 날인한다
128 , 590 , 156 , 590 , 156 , 582 , 128 , 582 , 확인하고
133 , 601 , 147 , 601 , 147 , 593 , 133 , 593 , 최종
138 , 609 , 150 , 609 , 150 , 602 , 138 , 602 , 함께
139 , 619 , 162 , 619 , 162 , 611 , 139 , 611 , 무효임
114 , 619 , 137 , 619 , 137 , 611 , 114 , 611 , 없으면
92 , 619 , 112 , 619 , 112 , 611 , 92 , 611 , 직인이
70 , 619 , 90 , 619 , 90 , 611 , 70 , 611 , 본인의
47 , 618 , 67 , 618 , 67 , 611 , 47 , 611 , 본서에
100 , 610 , 135 , 610 , 135 , 602 , 100 , 602 , 분류번호를
70 , 609 , 96 , 609 , 96 , 602 , 70 , 602 , 국제질병
47 , 609 , 67 , 609 , 67 , 602 , 47 , 602 , 병명과
47 , 599 , 67 , 599 , 67 , 593 , 47 , 593 , 병명은
70 , 599 , 89 , 599 , 89 , 592 , 70 , 592 , 임상적
94 , 599 , 121 , 599 , 121 , 592 , 94 , 592 , 인프레션
124 , 600 , 131 , 600 , 131 , 593 , 124 , 593 , 과
110 , 590 , 123 , 590 , 123 , 583 , 110 , 583 , 있다
100 , 590 , 106 , 590 , 106 , 584 , 100 , 584 , 수
76 , 590 , 97 , 590 , 97 , 583 , 76 , 583 , 대체할
47 , 590 , 74 , 590 , 74 , 582 , 47 , 582 , 방법으로
37 , 582 , 41 , 582 , 41 , 573 , 37 , 573 , 1
36 , 600 , 42 , 600 , 42 , 591 , 36 , 591 , 2
36 , 609 , 42 , 609 , 42 , 602 , 36 , 602 , 3
36 , 618 , 43 , 618 , 43 , 612 , 36 , 612 , 4
124 , 482 , 145 , 482 , 145 , 473 , 124 , 473 , 고양시
128 , 464 , 144 , 464 , 144 , 456 , 128 , 456 , 03월
151 , 463 , 167 , 463 , 167 , 455 , 151 , 455 , 19일
