961 , 787 , 1025 , 787 , 1025 , 754 , 961 , 754 , name
1037 , 791 , 1106 , 791 , 1106 , 756 , 1037 , 756 , name
895 , 768 , 959 , 768 , 959 , 739 , 895 , 739 , name
881 , 696 , 970 , 696 , 970 , 665 , 881 , 665 , name
869 , 728 , 918 , 728 , 918 , 705 , 869 , 705 , name
925 , 727 , 947 , 727 , 947 , 711 , 925 , 711 , name
962 , 729 , 989 , 729 , 989 , 710 , 962 , 710 , name
865 , 832 , 966 , 832 , 966 , 802 , 865 , 802 , name
863 , 865 , 967 , 865 , 967 , 837 , 863 , 837 , name
866 , 900 , 967 , 900 , 967 , 866 , 866 , 866 , name
864 , 928 , 965 , 928 , 965 , 899 , 864 , 899 , name
859 , 961 , 965 , 961 , 965 , 933 , 859 , 933 , name
1044 , 831 , 1139 , 831 , 1139 , 810 , 1044 , 810 , name
988 , 865 , 1165 , 865 , 1165 , 839 , 988 , 839 , name
1030 , 900 , 1124 , 900 , 1124 , 873 , 1030 , 873 , name
1014 , 931 , 1132 , 931 , 1132 , 905 , 1014 , 905 , name
1021 , 965 , 1128 , 965 , 1128 , 937 , 1021 , 937 , name
1153 , 673 , 1169 , 673 , 1169 , 649 , 1153 , 649 , name
1080 , 639 , 1178 , 639 , 1178 , 615 , 1080 , 615 , name
865 , 636 , 958 , 636 , 958 , 614 , 865 , 614 , name
966 , 635 , 1021 , 635 , 1021 , 616 , 966 , 616 , name
1083 , 610 , 1179 , 610 , 1179 , 584 , 1083 , 584 , name
928 , 606 , 1036 , 606 , 1036 , 585 , 928 , 585 , name
864 , 554 , 914 , 554 , 914 , 530 , 864 , 530 , name
865 , 590 , 914 , 590 , 914 , 566 , 865 , 566 , name
928 , 575 , 1036 , 575 , 1036 , 551 , 928 , 551 , name
935 , 542 , 1041 , 542 , 1041 , 519 , 935 , 519 , name
931 , 512 , 1041 , 512 , 1041 , 484 , 931 , 484 , name
1087 , 511 , 1183 , 511 , 1183 , 486 , 1087 , 486 , name
1088 , 467 , 1186 , 467 , 1186 , 436 , 1088 , 436 , name
1091 , 402 , 1183 , 402 , 1183 , 368 , 1091 , 368 , name
1072 , 331 , 1184 , 331 , 1184 , 307 , 1072 , 307 , name
1074 , 270 , 1182 , 270 , 1182 , 236 , 1074 , 236 , name
892 , 451 , 1034 , 451 , 1034 , 429 , 892 , 429 , name
925 , 475 , 981 , 475 , 981 , 452 , 925 , 452 , name
867 , 453 , 892 , 453 , 892 , 425 , 867 , 425 , name
864 , 402 , 1041 , 402 , 1041 , 369 , 864 , 369 , name
870 , 321 , 1038 , 321 , 1038 , 292 , 870 , 292 , name
874 , 345 , 1033 , 345 , 1033 , 325 , 874 , 325 , name
868 , 251 , 1040 , 251 , 1040 , 232 , 868 , 232 , name
870 , 277 , 1040 , 277 , 1040 , 254 , 870 , 254 , name
922 , 220 , 1135 , 220 , 1135 , 189 , 922 , 189 , name
1028 , 186 , 1127 , 186 , 1127 , 160 , 1028 , 160 , name
871 , 184 , 938 , 184 , 938 , 162 , 871 , 162 , name
711 , 186 , 840 , 186 , 840 , 162 , 711 , 162 , name
510 , 178 , 576 , 178 , 576 , 159 , 510 , 159 , name
587 , 182 , 625 , 182 , 625 , 159 , 587 , 159 , name
249 , 180 , 379 , 180 , 379 , 156 , 249 , 156 , name
48 , 175 , 161 , 175 , 161 , 154 , 48 , 154 , name
976 , 148 , 1066 , 148 , 1066 , 125 , 976 , 125 , name
1070 , 150 , 1109 , 150 , 1109 , 127 , 1070 , 127 , name
1113 , 149 , 1183 , 149 , 1183 , 128 , 1113 , 128 , name
1027 , 118 , 1068 , 118 , 1068 , 95 , 1027 , 95 , name
1120 , 118 , 1182 , 118 , 1182 , 96 , 1120 , 96 , name
999 , 85 , 1040 , 85 , 1040 , 66 , 999 , 66 , name
1051 , 85 , 1117 , 85 , 1117 , 66 , 1051 , 66 , name
1127 , 86 , 1171 , 86 , 1171 , 67 , 1127 , 67 , name
865 , 148 , 962 , 148 , 962 , 129 , 865 , 129 , name
712 , 153 , 834 , 153 , 834 , 126 , 712 , 126 , name
518 , 148 , 608 , 148 , 608 , 124 , 518 , 124 , name
242 , 148 , 384 , 148 , 384 , 122 , 242 , 122 , name
38 , 148 , 160 , 148 , 160 , 121 , 38 , 121 , name
31 , 85 , 166 , 85 , 166 , 57 , 31 , 57 , name
244 , 83 , 382 , 83 , 382 , 60 , 244 , 60 , name
587 , 84 , 733 , 84 , 733 , 62 , 587 , 62 , name
758 , 83 , 815 , 83 , 815 , 63 , 758 , 63 , name
471 , 117 , 528 , 117 , 528 , 87 , 471 , 87 , name
539 , 115 , 564 , 115 , 564 , 91 , 539 , 91 , name
579 , 114 , 601 , 114 , 601 , 90 , 579 , 90 , name
620 , 112 , 660 , 112 , 660 , 94 , 620 , 94 , name
699 , 115 , 751 , 115 , 751 , 96 , 699 , 96 , name
760 , 114 , 785 , 114 , 785 , 97 , 760 , 97 , name
795 , 118 , 824 , 118 , 824 , 94 , 795 , 94 , name
852 , 118 , 892 , 118 , 892 , 93 , 852 , 93 , name
660 , 214 , 784 , 214 , 784 , 192 , 660 , 192 , name
289 , 210 , 312 , 210 , 312 , 194 , 289 , 194 , name
445 , 213 , 478 , 213 , 478 , 189 , 445 , 189 , name
47 , 226 , 149 , 226 , 149 , 207 , 47 , 207 , name
734 , 250 , 849 , 250 , 849 , 226 , 734 , 226 , name
598 , 247 , 702 , 247 , 702 , 229 , 598 , 229 , name
454 , 245 , 568 , 245 , 568 , 221 , 454 , 221 , name
322 , 248 , 430 , 248 , 430 , 220 , 322 , 220 , name
193 , 244 , 298 , 244 , 298 , 220 , 193 , 220 , name
23 , 278 , 169 , 278 , 169 , 248 , 23 , 248 , name
22 , 312 , 170 , 312 , 170 , 281 , 22 , 281 , name
25 , 341 , 172 , 341 , 172 , 319 , 25 , 319 , name
28 , 378 , 84 , 378 , 84 , 351 , 28 , 351 , name
102 , 376 , 173 , 376 , 173 , 350 , 102 , 350 , name
104 , 407 , 172 , 407 , 172 , 387 , 104 , 387 , name
106 , 439 , 171 , 439 , 171 , 415 , 106 , 415 , name
99 , 470 , 171 , 470 , 171 , 452 , 99 , 452 , name
25 , 454 , 84 , 454 , 84 , 434 , 25 , 434 , name
25 , 501 , 168 , 501 , 168 , 476 , 25 , 476 , name
24 , 535 , 173 , 535 , 173 , 507 , 24 , 507 , name
30 , 568 , 174 , 568 , 174 , 541 , 30 , 541 , name
32 , 598 , 172 , 598 , 172 , 574 , 32 , 574 , name
25 , 634 , 171 , 634 , 171 , 609 , 25 , 609 , name
27 , 665 , 176 , 665 , 176 , 637 , 27 , 637 , name
25 , 695 , 175 , 695 , 175 , 670 , 25 , 670 , name
32 , 732 , 175 , 732 , 175 , 701 , 32 , 701 , name
29 , 758 , 171 , 758 , 171 , 735 , 29 , 735 , name
35 , 793 , 177 , 793 , 177 , 766 , 35 , 766 , name
28 , 822 , 171 , 822 , 171 , 799 , 28 , 799 , name
26 , 854 , 177 , 854 , 177 , 825 , 26 , 825 , name
30 , 887 , 172 , 887 , 172 , 861 , 30 , 861 , name
27 , 920 , 174 , 920 , 174 , 891 , 27 , 891 , name
26 , 950 , 169 , 950 , 169 , 922 , 26 , 922 , name
24 , 985 , 171 , 985 , 171 , 952 , 24 , 952 , name
29 , 1019 , 172 , 1019 , 172 , 988 , 29 , 988 , name
30 , 1048 , 172 , 1048 , 172 , 1026 , 30 , 1026 , name
42 , 1081 , 174 , 1081 , 174 , 1056 , 42 , 1056 , name
20 , 1114 , 177 , 1114 , 177 , 1089 , 20 , 1089 , name
27 , 1184 , 174 , 1184 , 174 , 1153 , 27 , 1153 , name
27 , 1220 , 176 , 1220 , 176 , 1188 , 27 , 1188 , name
284 , 1212 , 302 , 1212 , 302 , 1193 , 284 , 1193 , name
222 , 1182 , 302 , 1182 , 302 , 1153 , 222 , 1153 , name
341 , 1182 , 434 , 1182 , 434 , 1160 , 341 , 1160 , name
548 , 1188 , 566 , 1188 , 566 , 1159 , 548 , 1159 , name
750 , 1195 , 840 , 1195 , 840 , 1160 , 750 , 1160 , name
286 , 1150 , 303 , 1150 , 303 , 1121 , 286 , 1121 , name
280 , 1109 , 304 , 1109 , 304 , 1088 , 280 , 1088 , name
283 , 1084 , 302 , 1084 , 302 , 1057 , 283 , 1057 , name
284 , 1048 , 303 , 1048 , 303 , 1023 , 284 , 1023 , name
257 , 1014 , 301 , 1014 , 301 , 993 , 257 , 993 , name
287 , 985 , 304 , 985 , 304 , 959 , 287 , 959 , name
283 , 954 , 306 , 954 , 306 , 926 , 283 , 926 , name
282 , 919 , 304 , 919 , 304 , 896 , 282 , 896 , name
282 , 888 , 305 , 888 , 305 , 861 , 282 , 861 , name
287 , 852 , 306 , 852 , 306 , 832 , 287 , 832 , name
287 , 823 , 305 , 823 , 305 , 801 , 287 , 801 , name
286 , 791 , 305 , 791 , 305 , 769 , 286 , 769 , name
285 , 759 , 306 , 759 , 306 , 735 , 285 , 735 , name
287 , 724 , 304 , 724 , 304 , 705 , 287 , 705 , name
290 , 696 , 306 , 696 , 306 , 675 , 290 , 675 , name
285 , 661 , 303 , 661 , 303 , 643 , 285 , 643 , name
287 , 628 , 304 , 628 , 304 , 612 , 287 , 612 , name
290 , 596 , 306 , 596 , 306 , 577 , 290 , 577 , name
226 , 568 , 307 , 568 , 307 , 542 , 226 , 542 , name
290 , 536 , 303 , 536 , 303 , 511 , 290 , 511 , name
287 , 506 , 304 , 506 , 304 , 479 , 287 , 479 , name
240 , 472 , 305 , 472 , 305 , 449 , 240 , 449 , name
238 , 441 , 303 , 441 , 303 , 414 , 238 , 414 , name
233 , 408 , 303 , 408 , 303 , 382 , 233 , 382 , name
287 , 373 , 303 , 373 , 303 , 353 , 287 , 353 , name
227 , 345 , 303 , 345 , 303 , 315 , 227 , 315 , name
228 , 311 , 304 , 311 , 304 , 286 , 228 , 286 , name
240 , 280 , 305 , 280 , 305 , 252 , 240 , 252 , name
366 , 281 , 439 , 281 , 439 , 253 , 366 , 253 , name
348 , 313 , 438 , 313 , 438 , 288 , 348 , 288 , name
365 , 346 , 436 , 346 , 436 , 320 , 365 , 320 , name
420 , 378 , 437 , 378 , 437 , 356 , 420 , 356 , name
359 , 409 , 435 , 409 , 435 , 386 , 359 , 386 , name
374 , 444 , 436 , 444 , 436 , 413 , 374 , 413 , name
373 , 475 , 440 , 475 , 440 , 451 , 373 , 451 , name
422 , 505 , 441 , 505 , 441 , 480 , 422 , 480 , name
418 , 536 , 441 , 536 , 441 , 513 , 418 , 513 , name
353 , 569 , 433 , 569 , 433 , 545 , 353 , 545 , name
420 , 599 , 436 , 599 , 436 , 578 , 420 , 578 , name
422 , 633 , 440 , 633 , 440 , 608 , 422 , 608 , name
418 , 665 , 441 , 665 , 441 , 643 , 418 , 643 , name
421 , 695 , 440 , 695 , 440 , 675 , 421 , 675 , name
421 , 732 , 440 , 732 , 440 , 705 , 421 , 705 , name
424 , 760 , 438 , 760 , 438 , 733 , 424 , 733 , name
421 , 795 , 444 , 795 , 444 , 772 , 421 , 772 , name
422 , 827 , 439 , 827 , 439 , 802 , 422 , 802 , name
419 , 858 , 442 , 858 , 442 , 830 , 419 , 830 , name
420 , 890 , 441 , 890 , 441 , 867 , 420 , 867 , name
417 , 954 , 437 , 954 , 437 , 929 , 417 , 929 , name
416 , 986 , 434 , 986 , 434 , 962 , 416 , 962 , name
552 , 985 , 570 , 985 , 570 , 966 , 552 , 966 , name
690 , 988 , 708 , 988 , 708 , 967 , 690 , 967 , name
822 , 991 , 846 , 991 , 846 , 969 , 822 , 969 , name
824 , 958 , 845 , 958 , 845 , 936 , 824 , 936 , name
691 , 956 , 711 , 956 , 711 , 935 , 691 , 935 , name
550 , 951 , 568 , 951 , 568 , 930 , 550 , 930 , name
825 , 926 , 842 , 926 , 842 , 904 , 825 , 904 , name
827 , 894 , 847 , 894 , 847 , 873 , 827 , 873 , name
692 , 890 , 713 , 890 , 713 , 871 , 692 , 871 , name
551 , 886 , 572 , 886 , 572 , 869 , 551 , 869 , name
551 , 857 , 568 , 857 , 568 , 832 , 551 , 832 , name
552 , 823 , 571 , 823 , 571 , 800 , 552 , 800 , name
552 , 790 , 572 , 790 , 572 , 773 , 552 , 773 , name
549 , 760 , 573 , 760 , 573 , 745 , 549 , 745 , name
553 , 731 , 571 , 731 , 571 , 711 , 553 , 711 , name
552 , 701 , 570 , 701 , 570 , 676 , 552 , 676 , name
553 , 668 , 572 , 668 , 572 , 641 , 553 , 641 , name
555 , 635 , 571 , 635 , 571 , 612 , 555 , 612 , name
551 , 602 , 569 , 602 , 569 , 580 , 551 , 580 , name
553 , 572 , 572 , 572 , 572 , 550 , 553 , 550 , name
553 , 542 , 574 , 542 , 574 , 514 , 553 , 514 , name
553 , 510 , 573 , 510 , 573 , 484 , 553 , 484 , name
559 , 475 , 575 , 475 , 575 , 452 , 559 , 452 , name
553 , 445 , 574 , 445 , 574 , 422 , 553 , 422 , name
554 , 414 , 573 , 414 , 573 , 389 , 554 , 389 , name
554 , 382 , 574 , 382 , 574 , 359 , 554 , 359 , name
556 , 348 , 574 , 348 , 574 , 325 , 556 , 325 , name
556 , 313 , 575 , 313 , 575 , 292 , 556 , 292 , name
557 , 281 , 574 , 281 , 574 , 260 , 557 , 260 , name
833 , 283 , 850 , 283 , 850 , 259 , 833 , 259 , name
834 , 321 , 852 , 321 , 852 , 295 , 834 , 295 , name
831 , 351 , 849 , 351 , 849 , 328 , 831 , 328 , name
831 , 385 , 851 , 385 , 851 , 358 , 831 , 358 , name
830 , 414 , 851 , 414 , 851 , 396 , 830 , 396 , name
767 , 446 , 850 , 446 , 850 , 425 , 767 , 425 , name
760 , 479 , 848 , 479 , 848 , 456 , 760 , 456 , name
830 , 508 , 848 , 508 , 848 , 487 , 830 , 487 , name
828 , 546 , 849 , 546 , 849 , 518 , 828 , 518 , name
765 , 573 , 846 , 573 , 846 , 553 , 765 , 553 , name
826 , 608 , 847 , 608 , 847 , 589 , 826 , 589 , name
826 , 639 , 850 , 639 , 850 , 615 , 826 , 615 , name
774 , 673 , 846 , 673 , 846 , 647 , 774 , 647 , name
827 , 704 , 847 , 704 , 847 , 676 , 827 , 676 , name
829 , 738 , 852 , 738 , 852 , 710 , 829 , 710 , name
826 , 769 , 856 , 769 , 856 , 745 , 826 , 745 , name
827 , 803 , 848 , 803 , 848 , 781 , 827 , 781 , name
826 , 832 , 847 , 832 , 847 , 811 , 826 , 811 , name
828 , 857 , 850 , 857 , 850 , 832 , 828 , 832 , name
695 , 863 , 724 , 863 , 724 , 840 , 695 , 840 , name
688 , 827 , 717 , 827 , 717 , 804 , 688 , 804 , name
696 , 796 , 710 , 796 , 710 , 769 , 696 , 769 , name
697 , 766 , 705 , 766 , 705 , 743 , 697 , 743 , name
691 , 734 , 717 , 734 , 717 , 709 , 691 , 709 , name
693 , 700 , 722 , 700 , 722 , 680 , 693 , 680 , name
693 , 670 , 715 , 670 , 715 , 643 , 693 , 643 , name
687 , 635 , 719 , 635 , 719 , 617 , 687 , 617 , name
691 , 609 , 717 , 609 , 717 , 583 , 691 , 583 , name
695 , 574 , 714 , 574 , 714 , 552 , 695 , 552 , name
696 , 543 , 717 , 543 , 717 , 520 , 696 , 520 , name
694 , 513 , 719 , 513 , 719 , 488 , 694 , 488 , name
693 , 444 , 715 , 444 , 715 , 424 , 693 , 424 , name
695 , 384 , 718 , 384 , 718 , 358 , 695 , 358 , name
692 , 353 , 716 , 353 , 716 , 323 , 692 , 323 , name
691 , 317 , 722 , 317 , 722 , 291 , 691 , 291 , name
699 , 281 , 716 , 281 , 716 , 259 , 699 , 259 , name
1062 , 995 , 1087 , 995 , 1087 , 974 , 1062 , 974 , name
24 , 1275 , 168 , 1275 , 168 , 1252 , 24 , 1252 , name
22 , 1309 , 171 , 1309 , 171 , 1281 , 22 , 1281 , name
217 , 1276 , 308 , 1276 , 308 , 1251 , 217 , 1251 , name
220 , 1309 , 359 , 1309 , 359 , 1282 , 220 , 1282 , name
308 , 1271 , 350 , 1271 , 350 , 1252 , 308 , 1252 , name
360 , 1276 , 415 , 1276 , 415 , 1250 , 360 , 1250 , name
416 , 1276 , 493 , 1276 , 493 , 1254 , 416 , 1254 , name
502 , 1275 , 537 , 1275 , 537 , 1253 , 502 , 1253 , name
413 , 1311 , 563 , 1311 , 563 , 1282 , 413 , 1282 , name
616 , 1309 , 666 , 1309 , 666 , 1284 , 616 , 1284 , name
685 , 1308 , 713 , 1308 , 713 , 1287 , 685 , 1287 , name
729 , 1315 , 815 , 1315 , 815 , 1292 , 729 , 1292 , name
684 , 1331 , 755 , 1331 , 755 , 1304 , 684 , 1304 , name
859 , 1288 , 933 , 1288 , 933 , 1260 , 859 , 1260 , name
859 , 1320 , 934 , 1320 , 934 , 1289 , 859 , 1289 , name
967 , 1323 , 1087 , 1323 , 1087 , 1296 , 967 , 1296 , name
965 , 1295 , 1158 , 1295 , 1158 , 1266 , 965 , 1266 , name
1047 , 1227 , 1075 , 1227 , 1075 , 1204 , 1047 , 1204 , name
1140 , 1229 , 1159 , 1229 , 1159 , 1204 , 1140 , 1204 , name
866 , 1223 , 939 , 1223 , 939 , 1203 , 866 , 1203 , name
944 , 1225 , 978 , 1225 , 978 , 1201 , 944 , 1201 , name
1127 , 997 , 1160 , 997 , 1160 , 976 , 1127 , 976 , name
860 , 990 , 970 , 990 , 970 , 969 , 860 , 969 , name
60 , 112 , 156 , 112 , 156 , 86 , 60 , 86 , name
900 , 51 , 1006 , 51 , 1006 , 15 , 900 , 15 , name
772 , 50 , 875 , 50 , 875 , 13 , 772 , 13 , name
654 , 49 , 755 , 49 , 755 , 19 , 654 , 19 , name
599 , 49 , 636 , 49 , 636 , 23 , 599 , 23 , name
508 , 48 , 555 , 48 , 555 , 22 , 508 , 22 , name
393 , 50 , 456 , 50 , 456 , 11 , 393 , 11 , name
259 , 52 , 320 , 52 , 320 , 13 , 259 , 13 , name
