377 , 801 , 399 , 801 , 399 , 788 , 377 , 788 , 면허
335 , 798 , 353 , 798 , 353 , 787 , 335 , 787 , 날인
111 , 797 , 133 , 797 , 133 , 783 , 111 , 783 , 담당
114 , 772 , 133 , 772 , 133 , 760 , 114 , 760 , 전화
114 , 752 , 172 , 752 , 172 , 739 , 114 , 739 , 의료기관주소
223 , 731 , 261 , 731 , 261 , 717 , 223 , 717 , 내과의원
117 , 727 , 135 , 727 , 135 , 717 , 117 , 717 , 의료
193 , 706 , 244 , 706 , 244 , 694 , 193 , 694 , 2010-03-13
115 , 704 , 136 , 704 , 136 , 692 , 115 , 692 , 발행
69 , 507 , 81 , 507 , 81 , 493 , 69 , 493 , 특
71 , 355 , 84 , 355 , 84 , 342 , 71 , 342 , 진
115 , 271 , 129 , 271 , 129 , 257 , 115 , 257 , 명
77 , 270 , 91 , 270 , 91 , 256 , 77 , 256 , 상
280 , 204 , 338 , 204 , 338 , 192 , 280 , 192 , 식도역류질환
145 , 212 , 171 , 212 , 171 , 202 , 145 , 202 , K59.9
145 , 199 , 171 , 199 , 171 , 190 , 145 , 190 , K21.0
492 , 187 , 512 , 187 , 512 , 174 , 492 , 174 , 0724
394 , 185 , 436 , 185 , 436 , 172 , 394 , 172 , 주민번호
122 , 181 , 133 , 181 , 133 , 168 , 122 , 168 , 소
77 , 179 , 91 , 179 , 91 , 167 , 77 , 167 , 주
394 , 159 , 408 , 159 , 408 , 150 , 394 , 150 , 성
151 , 157 , 184 , 157 , 184 , 144 , 151 , 144 , 손진희
79 , 113 , 118 , 113 , 118 , 103 , 79 , 103 , 병목번호
265 , 98 , 282 , 98 , 282 , 78 , 265 , 78 , 진
294 , 98 , 311 , 98 , 311 , 78 , 294 , 78 , 료
323 , 98 , 342 , 98 , 342 , 78 , 323 , 78 , 확
352 , 99 , 369 , 99 , 369 , 79 , 352 , 79 , 인
379 , 99 , 396 , 99 , 396 , 79 , 379 , 79 , 서
79 , 129 , 89 , 129 , 89 , 118 , 79 , 118 , 연
95 , 130 , 104 , 130 , 104 , 119 , 95 , 119 , 번
108 , 129 , 121 , 129 , 121 , 120 , 108 , 120 , 호
78 , 157 , 89 , 157 , 89 , 144 , 78 , 144 , 성
121 , 157 , 133 , 157 , 133 , 145 , 121 , 145 , 명
97 , 271 , 109 , 271 , 109 , 257 , 97 , 257 , 병
189 , 201 , 227 , 201 , 227 , 191 , 189 , 191 , 식도염을
231 , 202 , 260 , 202 , 260 , 191 , 231 , 191 , 동반한
265 , 203 , 274 , 203 , 274 , 192 , 265 , 192 , 위
188 , 215 , 236 , 215 , 236 , 204 , 188 , 204 , 상세불명의
240 , 215 , 270 , 215 , 270 , 205 , 240 , 205 , 기능적
298 , 215 , 318 , 215 , 318 , 205 , 298 , 205 , 장애
284 , 216 , 295 , 216 , 295 , 206 , 284 , 206 , 자
424 , 162 , 434 , 162 , 434 , 149 , 424 , 149 , 별
512 , 163 , 524 , 163 , 524 , 150 , 512 , 150 , 남
148 , 357 , 158 , 357 , 158 , 344 , 148 , 344 , 위
163 , 357 , 191 , 357 , 191 , 345 , 163 , 345 , 사람은
196 , 357 , 225 , 357 , 225 , 345 , 196 , 345 , 2010년
229 , 358 , 248 , 358 , 248 , 346 , 229 , 346 , 02월
254 , 358 , 272 , 358 , 272 , 347 , 254 , 347 , 16일
274 , 359 , 292 , 359 , 292 , 347 , 274 , 347 , 부터
296 , 357 , 325 , 357 , 325 , 347 , 296 , 347 , 2010년
330 , 359 , 349 , 359 , 349 , 347 , 330 , 347 , 03월
355 , 360 , 392 , 360 , 392 , 347 , 355 , 347 , 13일까지
397 , 361 , 434 , 361 , 434 , 347 , 397 , 347 , 본원에서
237 , 386 , 274 , 386 , 274 , 374 , 237 , 374 , 복통으로
280 , 387 , 319 , 387 , 319 , 376 , 280 , 376 , 내원하여
324 , 389 , 381 , 389 , 381 , 377 , 324 , 377 , 위대장내시경
386 , 389 , 413 , 389 , 413 , 378 , 386 , 378 , 실시함
276 , 401 , 304 , 401 , 304 , 389 , 276 , 389 , 내원함
241 , 399 , 265 , 399 , 265 , 389 , 241 , 389 , 4일간
227 , 398 , 237 , 398 , 237 , 388 , 227 , 388 , 총
440 , 362 , 478 , 362 , 478 , 348 , 440 , 348 , 진료받은
483 , 362 , 512 , 362 , 512 , 349 , 483 , 349 , 사실이
517 , 363 , 535 , 363 , 535 , 350 , 517 , 350 , 있음
428 , 390 , 441 , 390 , 441 , 379 , 428 , 379 , 2월
449 , 390 , 466 , 390 , 466 , 380 , 449 , 380 , 16일
476 , 392 , 494 , 392 , 494 , 380 , 476 , 380 , 20일
504 , 392 , 524 , 392 , 524 , 380 , 504 , 380 , 27일
184 , 386 , 231 , 386 , 231 , 374 , 184 , 374 , 상기환자는
183 , 397 , 198 , 397 , 198 , 388 , 183 , 388 , 3월
205 , 398 , 223 , 398 , 223 , 387 , 205 , 387 , 13일
85 , 506 , 95 , 506 , 95 , 495 , 85 , 495 , 기
99 , 507 , 110 , 507 , 110 , 495 , 99 , 495 , 사
115 , 508 , 124 , 508 , 124 , 494 , 115 , 494 , 항
140 , 704 , 158 , 704 , 158 , 693 , 140 , 693 , 일자
142 , 728 , 159 , 728 , 159 , 718 , 142 , 718 , 기관
138 , 772 , 148 , 772 , 148 , 760 , 138 , 760 , 및
151 , 772 , 170 , 772 , 170 , 761 , 151 , 761 , FAX
138 , 795 , 158 , 795 , 158 , 783 , 138 , 783 , 의사
270 , 730 , 309 , 730 , 309 , 719 , 270 , 719 , PN780523
287 , 797 , 306 , 797 , 306 , 786 , 287 , 786 , 서명
311 , 798 , 329 , 798 , 329 , 786 , 311 , 786 , 또는
403 , 799 , 421 , 799 , 421 , 789 , 403 , 789 , 번호
89 , 355 , 99 , 355 , 99 , 342 , 89 , 342 , 료
103 , 354 , 112 , 354 , 112 , 344 , 103 , 344 , 기
117 , 354 , 128 , 354 , 128 , 344 , 117 , 344 , 간
