25 , 1304 , 170 , 1304 , 170 , 1279 , 25 , 1279 , 요양기관종류
24 , 1274 , 169 , 1274 , 169 , 1249 , 24 , 1249 , 사업장소재지
213 , 1274 , 305 , 1274 , 305 , 1249 , 213 , 1249 , 부산광역시
312 , 1275 , 351 , 1275 , 351 , 1253 , 312 , 1253 , 서구
357 , 1277 , 412 , 1277 , 412 , 1252 , 357 , 1252 , 김천로
418 , 1277 , 491 , 1277 , 491 , 1252 , 418 , 1252 , 장기려로
503 , 1278 , 536 , 1278 , 536 , 1255 , 503 , 1255 , 262
222 , 1306 , 356 , 1306 , 356 , 1283 , 222 , 1283 , 상급종합병원
417 , 1310 , 564 , 1310 , 564 , 1285 , 417 , 1285 , 사업자등록번호
861 , 1286 , 886 , 1286 , 886 , 1261 , 861 , 1261 , 상
910 , 1287 , 935 , 1287 , 935 , 1262 , 910 , 1262 , 호
974 , 1292 , 1074 , 1292 , 1074 , 1265 , 974 , 1265 , 고신대학교
867 , 1225 , 938 , 1225 , 938 , 1199 , 867 , 1199 , 선택진료
944 , 1227 , 982 , 1227 , 982 , 1203 , 944 , 1203 , 신청
1049 , 1230 , 1074 , 1230 , 1074 , 1205 , 1049 , 1205 , 유
1137 , 1232 , 1162 , 1232 , 1162 , 1207 , 1137 , 1207 , 무
754 , 1191 , 845 , 1191 , 845 , 1167 , 754 , 1167 , 913,040
719 , 1186 , 741 , 1186 , 741 , 1167 , 719 , 1167 , 5
582 , 1183 , 604 , 1183 , 604 , 1164 , 582 , 1164 , 4
443 , 1181 , 465 , 1181 , 465 , 1162 , 443 , 1162 , 3
549 , 1185 , 568 , 1185 , 568 , 1161 , 549 , 1161 , 0
690 , 1188 , 709 , 1188 , 709 , 1164 , 690 , 1164 , 0
691 , 1122 , 710 , 1122 , 710 , 1098 , 691 , 1098 , 0
691 , 990 , 710 , 990 , 710 , 966 , 691 , 966 , 0
691 , 958 , 712 , 958 , 712 , 932 , 691 , 932 , 0
827 , 1126 , 846 , 1126 , 846 , 1102 , 827 , 1102 , 0
825 , 1093 , 844 , 1093 , 844 , 1069 , 825 , 1069 , 0
825 , 1060 , 844 , 1060 , 844 , 1036 , 825 , 1036 , 0
825 , 1027 , 844 , 1027 , 844 , 1003 , 825 , 1003 , 0
825 , 993 , 844 , 993 , 844 , 969 , 825 , 969 , 0
825 , 961 , 844 , 961 , 844 , 937 , 825 , 937 , 0
825 , 929 , 844 , 929 , 844 , 905 , 825 , 905 , 0
550 , 1119 , 569 , 1119 , 569 , 1095 , 550 , 1095 , 0
550 , 988 , 569 , 988 , 569 , 964 , 550 , 964 , 0
552 , 955 , 571 , 955 , 571 , 931 , 552 , 931 , 0
552 , 891 , 571 , 891 , 571 , 867 , 552 , 867 , 0
418 , 952 , 437 , 952 , 437 , 928 , 418 , 928 , 0
419 , 888 , 438 , 888 , 438 , 866 , 419 , 866 , 0
418 , 1052 , 437 , 1052 , 437 , 1028 , 418 , 1028 , 0
418 , 1085 , 437 , 1085 , 437 , 1061 , 418 , 1061 , 0
417 , 1117 , 436 , 1117 , 436 , 1093 , 417 , 1093 , 0
418 , 984 , 437 , 984 , 437 , 960 , 418 , 960 , 0
691 , 894 , 712 , 894 , 712 , 868 , 691 , 868 , 0
690 , 862 , 711 , 862 , 711 , 836 , 690 , 836 , 0
691 , 830 , 712 , 830 , 712 , 804 , 691 , 804 , 0
692 , 797 , 714 , 797 , 714 , 772 , 692 , 772 , 0
690 , 766 , 712 , 766 , 712 , 741 , 690 , 741 , 0
692 , 734 , 714 , 734 , 714 , 709 , 692 , 709 , 0
825 , 736 , 847 , 736 , 847 , 711 , 825 , 711 , 0
826 , 769 , 848 , 769 , 848 , 744 , 826 , 744 , 0
825 , 799 , 847 , 799 , 847 , 774 , 825 , 774 , 0
825 , 832 , 847 , 832 , 847 , 807 , 825 , 807 , 0
824 , 864 , 846 , 864 , 846 , 839 , 824 , 839 , 0
825 , 896 , 847 , 896 , 847 , 871 , 825 , 871 , 0
552 , 858 , 571 , 858 , 571 , 834 , 552 , 834 , 0
553 , 828 , 572 , 828 , 572 , 804 , 553 , 804 , 0
553 , 797 , 571 , 797 , 571 , 772 , 553 , 772 , 0
553 , 762 , 572 , 762 , 572 , 740 , 553 , 740 , 0
554 , 733 , 570 , 733 , 570 , 706 , 554 , 706 , 0
555 , 699 , 572 , 699 , 572 , 677 , 555 , 677 , 0
554 , 667 , 573 , 667 , 573 , 643 , 554 , 643 , 0
420 , 855 , 439 , 855 , 439 , 833 , 420 , 833 , 0
420 , 824 , 439 , 824 , 439 , 802 , 420 , 802 , 0
420 , 793 , 439 , 793 , 439 , 771 , 420 , 771 , 0
420 , 761 , 439 , 761 , 439 , 739 , 420 , 739 , 0
421 , 729 , 440 , 729 , 440 , 707 , 421 , 707 , 0
420 , 697 , 439 , 697 , 439 , 675 , 420 , 675 , 0
419 , 665 , 438 , 665 , 438 , 643 , 419 , 643 , 0
420 , 633 , 439 , 633 , 439 , 611 , 420 , 611 , 0
420 , 601 , 439 , 601 , 439 , 579 , 420 , 579 , 0
554 , 634 , 571 , 634 , 571 , 612 , 554 , 612 , 0
554 , 603 , 571 , 603 , 571 , 581 , 554 , 581 , 0
554 , 571 , 571 , 571 , 571 , 549 , 554 , 549 , 0
692 , 702 , 714 , 702 , 714 , 677 , 692 , 677 , 0
692 , 671 , 714 , 671 , 714 , 646 , 692 , 646 , 0
691 , 637 , 713 , 637 , 713 , 612 , 691 , 612 , 0
692 , 606 , 714 , 606 , 714 , 581 , 692 , 581 , 0
692 , 574 , 714 , 574 , 714 , 549 , 692 , 549 , 0
825 , 703 , 847 , 703 , 847 , 678 , 825 , 678 , 0
826 , 640 , 848 , 640 , 848 , 615 , 826 , 615 , 0
826 , 607 , 848 , 607 , 848 , 582 , 826 , 582 , 0
781 , 671 , 846 , 671 , 846 , 648 , 781 , 648 , 4,600
769 , 575 , 847 , 575 , 847 , 551 , 769 , 551 , 28,440
827 , 545 , 849 , 545 , 849 , 520 , 827 , 520 , 0
827 , 513 , 849 , 513 , 849 , 488 , 827 , 488 , 0
757 , 478 , 849 , 478 , 849 , 456 , 757 , 456 , 730,000
760 , 448 , 852 , 448 , 852 , 426 , 760 , 426 , 150,000
827 , 418 , 849 , 418 , 849 , 393 , 827 , 393 , 0
828 , 384 , 850 , 384 , 850 , 359 , 828 , 359 , 0
694 , 383 , 716 , 383 , 716 , 358 , 694 , 358 , 0
693 , 447 , 715 , 447 , 715 , 422 , 693 , 422 , 0
692 , 511 , 714 , 511 , 714 , 486 , 692 , 486 , 0
692 , 542 , 714 , 542 , 714 , 517 , 692 , 517 , 0
551 , 540 , 573 , 540 , 573 , 515 , 551 , 515 , 0
551 , 508 , 574 , 508 , 574 , 483 , 551 , 483 , 0
552 , 477 , 575 , 477 , 575 , 452 , 552 , 452 , 0
551 , 445 , 574 , 445 , 574 , 420 , 551 , 420 , 0
552 , 414 , 575 , 414 , 575 , 389 , 552 , 389 , 0
553 , 380 , 576 , 380 , 576 , 355 , 553 , 355 , 0
419 , 379 , 442 , 379 , 442 , 354 , 419 , 354 , 0
416 , 507 , 439 , 507 , 439 , 482 , 416 , 482 , 0
417 , 540 , 440 , 540 , 440 , 515 , 417 , 515 , 0
863 , 992 , 965 , 992 , 965 , 967 , 863 , 967 , 할부기간
863 , 959 , 965 , 959 , 965 , 934 , 863 , 934 , 승인번호
863 , 927 , 965 , 927 , 965 , 902 , 863 , 902 , 가맹점번호
863 , 895 , 965 , 895 , 965 , 870 , 863 , 870 , 유효기간
863 , 863 , 965 , 863 , 965 , 838 , 863 , 838 , 회원번호
862 , 832 , 964 , 832 , 964 , 807 , 862 , 807 , 카드종류
1044 , 834 , 1146 , 834 , 1146 , 809 , 1044 , 809 , 우리카드
987 , 866 , 1097 , 866 , 1097 , 841 , 987 , 841 , 5387208212
1034 , 897 , 1058 , 897 , 1058 , 875 , 1034 , 875 , 12
1090 , 900 , 1117 , 900 , 1117 , 875 , 1090 , 875 , 21
1017 , 930 , 1130 , 930 , 1130 , 905 , 1017 , 905 , 722785777
1021 , 964 , 1127 , 964 , 1127 , 938 , 1021 , 938 , 75224875
1059 , 996 , 1088 , 996 , 1088 , 973 , 1059 , 973 , 02
1124 , 998 , 1164 , 998 , 1164 , 973 , 1124 , 973 , 개월
962 , 788 , 1024 , 788 , 1024 , 757 , 962 , 757 , 신용
1041 , 788 , 1103 , 788 , 1103 , 757 , 1041 , 757 , 카드
1153 , 676 , 1175 , 676 , 1175 , 651 , 1153 , 651 , 0
1103 , 642 , 1179 , 642 , 1179 , 618 , 1103 , 618 , 44,280
1087 , 609 , 1180 , 609 , 1180 , 584 , 1087 , 584 , 200,000
872 , 638 , 956 , 638 , 956 , 614 , 872 , 614 , 미납금액
967 , 636 , 1021 , 636 , 1021 , 616 , 967 , 616 , 10-11
931 , 605 , 956 , 605 , 956 , 584 , 931 , 584 , 합
1014 , 606 , 1039 , 606 , 1039 , 585 , 1014 , 585 , 계
1015 , 574 , 1040 , 574 , 1040 , 553 , 1015 , 553 , 금
930 , 573 , 955 , 573 , 955 , 552 , 930 , 552 , 현
931 , 509 , 956 , 509 , 956 , 488 , 931 , 488 , 카
1014 , 510 , 1039 , 510 , 1039 , 489 , 1014 , 489 , 드
931 , 542 , 1040 , 542 , 1040 , 519 , 931 , 519 , 현금영수증
867 , 555 , 913 , 555 , 913 , 530 , 867 , 530 , 납부
866 , 590 , 912 , 590 , 912 , 565 , 866 , 565 , 금액
879 , 521 , 901 , 521 , 901 , 501 , 879 , 501 , 11
866 , 447 , 888 , 447 , 888 , 427 , 866 , 427 , 10
866 , 394 , 888 , 394 , 888 , 374 , 866 , 374 , 9
866 , 316 , 888 , 316 , 888 , 296 , 866 , 296 , 8
868 , 250 , 890 , 250 , 890 , 230 , 868 , 230 , 7
876 , 275 , 1032 , 275 , 1032 , 256 , 876 , 256 , 1+2+3+4+5
881 , 343 , 921 , 343 , 921 , 322 , 881 , 322 , 1-6
944 , 343 , 1032 , 343 , 1032 , 323 , 944 , 323 , 3+4+5
892 , 318 , 1038 , 318 , 1038 , 297 , 892 , 297 , 환자부담총액
896 , 251 , 1042 , 251 , 1042 , 230 , 896 , 230 , 진료비총액
891 , 396 , 1037 , 396 , 1037 , 375 , 891 , 375 , 이미납부한금액
897 , 449 , 976 , 449 , 976 , 428 , 897 , 428 , 납부할
985 , 449 , 1035 , 449 , 1035 , 428 , 985 , 428 , 금액
927 , 473 , 975 , 473 , 975 , 452 , 927 , 452 , 8-9
1088 , 513 , 1181 , 513 , 1181 , 488 , 1088 , 488 , 200,000
1091 , 463 , 1184 , 463 , 1184 , 438 , 1091 , 438 , 155,716
1091 , 399 , 1184 , 399 , 1184 , 374 , 1091 , 374 , 900,000
1072 , 333 , 1184 , 333 , 1184 , 308 , 1072 , 308 , 1,055,716
1071 , 267 , 1183 , 267 , 1183 , 242 , 1071 , 242 , 1,552,741
927 , 217 , 1127 , 217 , 1127 , 193 , 927 , 193 , 금액산정내역
1035 , 185 , 1077 , 185 , 1077 , 165 , 1035 , 165 , 1703
1089 , 185 , 1123 , 185 , 1123 , 164 , 1089 , 164 , 100
870 , 185 , 937 , 185 , 937 , 164 , 870 , 164 , 가퇴원
865 , 151 , 964 , 151 , 964 , 127 , 865 , 127 , 수납구분
977 , 151 , 1065 , 151 , 1065 , 126 , 977 , 126 , 영수증번호
1072 , 150 , 1106 , 150 , 1106 , 127 , 1072 , 127 , 연월
1112 , 150 , 1183 , 150 , 1183 , 126 , 1112 , 126 , 일련번호
1027 , 117 , 1067 , 117 , 1067 , 93 , 1027 , 93 , 야간
1000 , 86 , 1042 , 86 , 1042 , 61 , 1000 , 61 , 야간
1125 , 86 , 1167 , 86 , 1167 , 61 , 1125 , 61 , 진료
1053 , 86 , 1116 , 86 , 1116 , 62 , 1053 , 62 , 공휴일
1120 , 117 , 1183 , 117 , 1183 , 93 , 1120 , 93 , 공휴일
848 , 117 , 893 , 117 , 893 , 94 , 848 , 94 , 까지
905 , 53 , 1005 , 53 , 1005 , 14 , 905 , 14 , 영수증
772 , 52 , 872 , 52 , 872 , 13 , 772 , 13 , 계산서
657 , 52 , 757 , 52 , 757 , 13 , 657 , 13 , 진료비
758 , 85 , 778 , 85 , 778 , 63 , 758 , 63 , 기
791 , 85 , 813 , 85 , 813 , 63 , 791 , 63 , 간
798 , 117 , 824 , 117 , 824 , 95 , 798 , 95 , 04
761 , 117 , 787 , 117 , 787 , 95 , 761 , 95 , 03
698 , 116 , 749 , 116 , 749 , 94 , 698 , 94 , 2017
708 , 85 , 731 , 85 , 731 , 63 , 708 , 63 , 자
668 , 85 , 691 , 85 , 691 , 63 , 668 , 63 , 일
629 , 85 , 652 , 85 , 652 , 63 , 629 , 63 , 료
716 , 151 , 828 , 151 , 828 , 126 , 716 , 126 , 환자구분
715 , 183 , 783 , 183 , 783 , 162 , 715 , 162 , 건강보험
794 , 182 , 828 , 182 , 828 , 164 , 794 , 164 , 직장
345 , 1183 , 436 , 1183 , 436 , 1159 , 345 , 1159 , 497,025
310 , 1178 , 332 , 1178 , 332 , 1159 , 310 , 1159 , 2
182 , 1176 , 204 , 1176 , 204 , 1157 , 182 , 1157 , 1
181 , 1209 , 203 , 1209 , 203 , 1190 , 181 , 1190 , 6
284 , 1147 , 303 , 1147 , 303 , 1123 , 284 , 1123 , 0
282 , 1213 , 301 , 1213 , 301 , 1189 , 282 , 1189 , 0
216 , 1180 , 301 , 1180 , 301 , 1156 , 216 , 1156 , 142,676
284 , 1116 , 303 , 1116 , 303 , 1092 , 284 , 1092 , 0
283 , 1083 , 302 , 1083 , 302 , 1059 , 283 , 1059 , 0
285 , 1049 , 304 , 1049 , 304 , 1025 , 285 , 1025 , 0
286 , 982 , 304 , 982 , 304 , 958 , 286 , 958 , 0
287 , 949 , 304 , 949 , 304 , 926 , 287 , 926 , 0
264 , 1016 , 305 , 1016 , 305 , 993 , 264 , 993 , 992
369 , 1017 , 435 , 1017 , 435 , 993 , 369 , 993 , 3,968
287 , 917 , 304 , 917 , 304 , 894 , 287 , 894 , 0
287 , 886 , 304 , 886 , 304 , 863 , 287 , 863 , 0
287 , 854 , 304 , 854 , 304 , 831 , 287 , 831 , 0
287 , 822 , 304 , 822 , 304 , 799 , 287 , 799 , 0
287 , 790 , 304 , 790 , 304 , 767 , 287 , 767 , 0
288 , 760 , 305 , 760 , 305 , 737 , 288 , 737 , 0
287 , 727 , 305 , 727 , 305 , 703 , 287 , 703 , 0
287 , 694 , 305 , 694 , 305 , 670 , 287 , 670 , 0
286 , 662 , 306 , 662 , 306 , 639 , 286 , 639 , 0
285 , 631 , 305 , 631 , 305 , 608 , 285 , 608 , 0
285 , 600 , 305 , 600 , 305 , 577 , 285 , 577 , 0
288 , 535 , 308 , 535 , 308 , 512 , 288 , 512 , 0
286 , 503 , 306 , 503 , 306 , 480 , 286 , 480 , 0
354 , 570 , 437 , 570 , 437 , 546 , 354 , 546 , 161,377
227 , 567 , 305 , 567 , 305 , 543 , 227 , 543 , 40,344
232 , 407 , 306 , 407 , 306 , 384 , 232 , 384 , 10,292
362 , 409 , 436 , 409 , 436 , 386 , 362 , 386 , 41,171
372 , 442 , 438 , 442 , 438 , 417 , 372 , 417 , 8,705
372 , 474 , 438 , 474 , 438 , 449 , 372 , 449 , 4,421
241 , 472 , 307 , 472 , 307 , 447 , 241 , 447 , 1,105
239 , 440 , 305 , 440 , 305 , 415 , 239 , 415 , 2,176
228 , 344 , 305 , 344 , 305 , 318 , 228 , 318 , 24,560
229 , 311 , 306 , 311 , 306 , 286 , 229 , 286 , 60,338
349 , 312 , 440 , 312 , 440 , 287 , 349 , 287 , 241,352
360 , 345 , 439 , 345 , 439 , 319 , 360 , 319 , 24,560
283 , 376 , 306 , 376 , 306 , 351 , 283 , 351 , 0
360 , 280 , 439 , 280 , 439 , 254 , 360 , 254 , 11,471
236 , 277 , 306 , 277 , 306 , 255 , 236 , 255 , 2,869
193 , 244 , 296 , 244 , 296 , 221 , 193 , 221 , 본인부담금
325 , 244 , 428 , 244 , 428 , 221 , 325 , 221 , 공단부담금
455 , 246 , 569 , 246 , 569 , 222 , 455 , 222 , 전액본인부담
602 , 246 , 705 , 246 , 705 , 223 , 602 , 223 , 선택진료료
728 , 247 , 849 , 247 , 849 , 224 , 728 , 224 , 선택진료료이외
695 , 350 , 717 , 350 , 717 , 325 , 695 , 325 , 0
697 , 316 , 718 , 316 , 718 , 292 , 697 , 292 , 0
695 , 282 , 716 , 282 , 716 , 258 , 695 , 258 , 0
552 , 282 , 573 , 282 , 573 , 258 , 552 , 258 , 0
553 , 314 , 574 , 314 , 574 , 290 , 553 , 290 , 0
553 , 347 , 574 , 347 , 574 , 323 , 553 , 323 , 0
831 , 284 , 852 , 284 , 852 , 260 , 831 , 260 , 0
829 , 319 , 850 , 319 , 850 , 295 , 829 , 295 , 0
828 , 350 , 849 , 350 , 849 , 326 , 828 , 326 , 0
661 , 214 , 682 , 214 , 682 , 191 , 661 , 191 , 비
710 , 215 , 731 , 215 , 731 , 192 , 710 , 192 , 급
759 , 215 , 780 , 215 , 780 , 192 , 759 , 192 , 여
757 , 213 , 778 , 213 , 778 , 190 , 757 , 190 , 여
451 , 213 , 472 , 213 , 472 , 190 , 451 , 190 , 여
289 , 212 , 310 , 212 , 310 , 189 , 289 , 189 , 급
251 , 181 , 378 , 181 , 378 , 158 , 251 , 158 , 알레르기내과
242 , 147 , 264 , 147 , 264 , 123 , 242 , 123 , 진
281 , 147 , 303 , 147 , 303 , 123 , 281 , 123 , 료
321 , 146 , 343 , 146 , 343 , 122 , 321 , 122 , 과
359 , 147 , 381 , 147 , 381 , 123 , 359 , 123 , 목
512 , 179 , 575 , 179 , 575 , 160 , 512 , 160 , 361병동
582 , 180 , 622 , 180 , 622 , 161 , 582 , 161 , 17호
585 , 147 , 610 , 147 , 610 , 124 , 585 , 124 , 실
517 , 146 , 540 , 146 , 540 , 123 , 517 , 123 , 병
590 , 84 , 613 , 84 , 613 , 62 , 590 , 62 , 진
617 , 114 , 660 , 114 , 660 , 92 , 617 , 92 , 부터
577 , 114 , 604 , 114 , 604 , 91 , 577 , 91 , 01
540 , 114 , 565 , 114 , 565 , 90 , 540 , 90 , 03
476 , 112 , 528 , 112 , 528 , 89 , 476 , 89 , 2017
242 , 83 , 263 , 83 , 263 , 62 , 242 , 62 , 환
281 , 83 , 302 , 83 , 302 , 62 , 281 , 62 , 자
321 , 82 , 342 , 82 , 342 , 61 , 321 , 61 , 성
359 , 83 , 380 , 83 , 380 , 62 , 359 , 62 , 명
259 , 48 , 320 , 48 , 320 , 15 , 259 , 15 , 외래
393 , 48 , 454 , 48 , 454 , 15 , 393 , 15 , 입원
596 , 49 , 639 , 49 , 639 , 24 , 596 , 24 , 중간
508 , 49 , 551 , 49 , 551 , 24 , 508 , 24 , 퇴원
34 , 84 , 164 , 84 , 164 , 60 , 34 , 60 , 환자등록번호
58 , 112 , 80 , 112 , 80 , 89 , 58 , 89 , 14
92 , 112 , 153 , 112 , 153 , 89 , 92 , 89 , 20906
37 , 146 , 57 , 146 , 57 , 123 , 37 , 123 , 발
71 , 146 , 91 , 146 , 91 , 123 , 71 , 123 , 행
105 , 146 , 125 , 146 , 125 , 123 , 105 , 123 , 일
139 , 145 , 161 , 145 , 161 , 124 , 139 , 124 , 자
49 , 176 , 92 , 176 , 92 , 157 , 49 , 157 , 2017
102 , 177 , 124 , 177 , 124 , 158 , 102 , 158 , 03
134 , 177 , 156 , 177 , 156 , 158 , 134 , 158 , 04
126 , 227 , 150 , 227 , 150 , 207 , 126 , 207 , 목
45 , 226 , 69 , 226 , 69 , 206 , 45 , 206 , 항
25 , 275 , 50 , 275 , 50 , 254 , 25 , 254 , 진
84 , 275 , 109 , 275 , 109 , 254 , 84 , 254 , 찰
143 , 276 , 168 , 276 , 168 , 255 , 143 , 255 , 료
144 , 308 , 169 , 308 , 169 , 287 , 144 , 287 , 료
85 , 308 , 110 , 308 , 110 , 287 , 85 , 287 , 원
24 , 307 , 49 , 307 , 49 , 286 , 24 , 286 , 입
25 , 338 , 50 , 338 , 50 , 317 , 25 , 317 , 식
146 , 340 , 171 , 340 , 171 , 319 , 146 , 319 , 대
103 , 373 , 173 , 373 , 173 , 352 , 103 , 352 , 행위료
103 , 404 , 173 , 404 , 173 , 383 , 103 , 383 , 약품비
103 , 470 , 173 , 470 , 173 , 449 , 103 , 449 , 약품비
103 , 437 , 173 , 437 , 173 , 416 , 103 , 416 , 행위료
20 , 452 , 90 , 452 , 90 , 431 , 20 , 431 , 주사료
25 , 400 , 86 , 400 , 86 , 379 , 25 , 379 , 조제료
25 , 375 , 86 , 375 , 86 , 354 , 25 , 354 , 투약및
27 , 500 , 52 , 500 , 52 , 479 , 27 , 479 , 마
85 , 500 , 110 , 500 , 110 , 479 , 85 , 479 , 취
148 , 501 , 173 , 501 , 173 , 480 , 148 , 480 , 취
145 , 566 , 170 , 566 , 170 , 545 , 145 , 545 , 취
27 , 533 , 171 , 533 , 171 , 510 , 27 , 510 , 처치및수술료
26 , 598 , 170 , 598 , 170 , 575 , 26 , 575 , 영상및진단료
27 , 628 , 171 , 628 , 171 , 605 , 27 , 605 , 방사선치료료
27 , 661 , 171 , 661 , 171 , 638 , 27 , 638 , 치료재료대
28 , 692 , 172 , 692 , 172 , 669 , 28 , 669 , 재활및물리치료료
28 , 725 , 172 , 725 , 172 , 702 , 28 , 702 , 정신요법료
28 , 757 , 172 , 757 , 172 , 734 , 28 , 734 , 전혈및혈액성분제제료
27 , 885 , 171 , 885 , 171 , 862 , 27 , 862 , 초음파진단료
25 , 981 , 169 , 981 , 169 , 958 , 25 , 958 , 읍급관리료
26 , 1014 , 170 , 1014 , 170 , 991 , 26 , 991 , 의료질평가료
26 , 1080 , 170 , 1080 , 170 , 1057 , 26 , 1057 , 교육상담료
24 , 1113 , 168 , 1113 , 168 , 1090 , 24 , 1090 , 제증명서료
25 , 1211 , 169 , 1211 , 169 , 1188 , 25 , 1188 , 상환액초과금
27 , 1178 , 48 , 1178 , 48 , 1155 , 27 , 1155 , 합
145 , 1180 , 169 , 1180 , 169 , 1155 , 145 , 1155 , 계
146 , 1049 , 170 , 1049 , 170 , 1024 , 146 , 1024 , 여
108 , 1049 , 132 , 1049 , 132 , 1024 , 108 , 1024 , 급
67 , 1048 , 91 , 1048 , 91 , 1023 , 67 , 1023 , 별
28 , 1047 , 52 , 1047 , 52 , 1022 , 28 , 1022 , 선
28 , 949 , 52 , 949 , 52 , 924 , 28 , 924 , 정
68 , 948 , 92 , 948 , 92 , 923 , 68 , 923 , 액
107 , 950 , 131 , 950 , 131 , 925 , 107 , 925 , 수
145 , 950 , 169 , 950 , 169 , 925 , 145 , 925 , 가
29 , 915 , 75 , 915 , 75 , 894 , 29 , 894 , 보철
100 , 917 , 170 , 917 , 170 , 895 , 100 , 895 , 교정료
90 , 852 , 170 , 852 , 170 , 830 , 90 , 830 , 진단료
90 , 819 , 170 , 819 , 170 , 797 , 90 , 797 , 진단료
81 , 788 , 169 , 788 , 169 , 767 , 81 , 767 , 진단료
28 , 786 , 70 , 786 , 70 , 767 , 28 , 767 , CT
27 , 817 , 82 , 817 , 82 , 798 , 27 , 798 , MRI
28 , 849 , 83 , 849 , 83 , 830 , 28 , 830 , PET
87 , 565 , 112 , 565 , 112 , 544 , 87 , 544 , 사
26 , 564 , 50 , 564 , 50 , 543 , 26 , 543 , 검
