18 , 778 , 25 , 778 , 25 , 769 , 18 , 769 , 3
155 , 712 , 197 , 712 , 197 , 699 , 155 , 699 , 104109
494 , 711 , 531 , 711 , 531 , 696 , 494 , 696 , 승희
403 , 712 , 439 , 712 , 439 , 696 , 403 , 696 , 정승희
75 , 712 , 126 , 712 , 126 , 701 , 75 , 701 , 면허번호
419 , 689 , 455 , 689 , 455 , 672 , 419 , 672 , 전화번호
221 , 664 , 276 , 664 , 276 , 651 , 221 , 651 , 서울특별시
216 , 693 , 321 , 693 , 321 , 676 , 216 , 676 , 건국대학병원
274 , 663 , 305 , 663 , 305 , 653 , 274 , 653 , 광진구
279 , 643 , 294 , 643 , 294 , 630 , 279 , 630 , 년
241 , 644 , 271 , 644 , 271 , 629 , 241 , 629 , 2013
97 , 644 , 111 , 644 , 111 , 630 , 97 , 630 , 행
32 , 625 , 61 , 625 , 61 , 610 , 32 , 610 , 위와
86 , 582 , 96 , 582 , 96 , 570 , 86 , 570 , 고
39 , 584 , 50 , 584 , 50 , 570 , 39 , 570 , 8
30 , 483 , 42 , 483 , 42 , 471 , 30 , 471 , 7
123 , 504 , 134 , 504 , 134 , 490 , 123 , 490 , 단
125 , 490 , 145 , 490 , 145 , 478 , 125 , 478 , 안정
479 , 463 , 510 , 463 , 510 , 450 , 479 , 450 , 관혈적
466 , 463 , 475 , 463 , 475 , 450 , 466 , 450 , 일
325 , 402 , 355 , 402 , 355 , 388 , 325 , 388 , 확인함
222 , 399 , 248 , 399 , 248 , 386 , 222 , 386 , 퇴원
260 , 400 , 302 , 400 , 302 , 383 , 260 , 383 , 하였음을
39 , 385 , 51 , 385 , 51 , 375 , 39 , 375 , 6
311 , 373 , 327 , 373 , 327 , 358 , 311 , 358 , 년
185 , 371 , 200 , 371 , 200 , 358 , 185 , 358 , 월
123 , 368 , 149 , 368 , 149 , 356 , 123 , 356 , 2013
123 , 348 , 169 , 348 , 169 , 335 , 123 , 335 , 정형외과
43 , 349 , 53 , 349 , 53 , 337 , 43 , 337 , 5
283 , 330 , 303 , 330 , 303 , 317 , 283 , 317 , 미상
44 , 329 , 53 , 329 , 53 , 317 , 44 , 317 , 4
62 , 263 , 84 , 263 , 84 , 252 , 62 , 252 , 최종
431 , 209 , 471 , 209 , 471 , 198 , 431 , 198 , S52120
464 , 179 , 500 , 179 , 500 , 168 , 464 , 168 , 국제질병
462 , 192 , 502 , 192 , 502 , 182 , 462 , 182 , 분류번호
234 , 191 , 253 , 191 , 253 , 176 , 234 , 176 , 골절
130 , 178 , 140 , 178 , 140 , 165 , 130 , 165 , 1
285 , 161 , 325 , 161 , 325 , 147 , 285 , 147 , 생년월일
437 , 159 , 460 , 159 , 460 , 148 , 437 , 148 , 현황
192 , 160 , 209 , 160 , 209 , 147 , 192 , 147 , 성별
123 , 161 , 155 , 161 , 155 , 145 , 123 , 145 , 정진연
43 , 160 , 49 , 160 , 49 , 148 , 43 , 148 , 2
43 , 140 , 49 , 140 , 49 , 129 , 43 , 129 , 1
93 , 111 , 119 , 111 , 119 , 99 , 93 , 99 , 2013
224 , 102 , 280 , 102 , 280 , 87 , 224 , 87 , 주민등록번호
273 , 62 , 347 , 62 , 347 , 36 , 273 , 36 , 확인서
214 , 62 , 264 , 62 , 264 , 36 , 214 , 36 , 퇴원
37 , 94 , 75 , 94 , 75 , 82 , 37 , 82 , 병록번호
37 , 110 , 48 , 110 , 48 , 99 , 37 , 99 , 연
54 , 110 , 76 , 110 , 76 , 101 , 54 , 101 , 번호
55 , 141 , 82 , 141 , 82 , 127 , 55 , 127 , 환자의
85 , 139 , 102 , 139 , 102 , 128 , 85 , 128 , 주소
126 , 140 , 143 , 140 , 143 , 128 , 126 , 128 , 서울
54 , 159 , 82 , 159 , 82 , 148 , 54 , 148 , 환자의
84 , 160 , 104 , 160 , 104 , 147 , 84 , 147 , 성명
220 , 159 , 230 , 159 , 230 , 148 , 220 , 148 , F
40 , 244 , 50 , 244 , 50 , 233 , 40 , 233 , 3
53 , 242 , 65 , 242 , 65 , 233 , 53 , 233 , 병
92 , 243 , 102 , 243 , 102 , 231 , 92 , 231 , 명
57 , 328 , 66 , 328 , 66 , 318 , 57 , 318 , 발
71 , 328 , 82 , 328 , 82 , 320 , 71 , 320 , 행
88 , 328 , 96 , 328 , 96 , 318 , 88 , 318 , 일
58 , 347 , 66 , 347 , 66 , 339 , 58 , 339 , 진
73 , 347 , 82 , 347 , 82 , 338 , 73 , 338 , 료
86 , 349 , 97 , 349 , 97 , 338 , 86 , 338 , 과
154 , 371 , 165 , 371 , 165 , 360 , 154 , 360 , 년
55 , 386 , 64 , 386 , 64 , 376 , 55 , 376 , 입
68 , 385 , 76 , 385 , 76 , 376 , 68 , 376 , 원
79 , 387 , 100 , 387 , 100 , 375 , 79 , 375 , 기간
221 , 372 , 232 , 372 , 232 , 360 , 221 , 360 , 일
236 , 373 , 277 , 373 , 277 , 360 , 236 , 360 , 입원하여
280 , 369 , 303 , 369 , 303 , 357 , 280 , 357 , 2013
342 , 371 , 361 , 371 , 361 , 357 , 342 , 357 , 월
379 , 372 , 389 , 372 , 389 , 358 , 379 , 358 , 일
393 , 370 , 413 , 370 , 413 , 361 , 393 , 361 , 까지
423 , 367 , 438 , 367 , 438 , 357 , 423 , 357 , 13
444 , 372 , 461 , 372 , 461 , 359 , 444 , 359 , 일간
469 , 371 , 509 , 371 , 509 , 360 , 469 , 360 , 본원에서
47 , 484 , 64 , 484 , 64 , 470 , 47 , 470 , 향후
68 , 482 , 85 , 482 , 85 , 473 , 68 , 473 , 치료
89 , 483 , 107 , 483 , 107 , 471 , 89 , 471 , 의견
126 , 463 , 143 , 463 , 143 , 452 , 126 , 452 , 상기
147 , 463 , 188 , 463 , 188 , 452 , 147 , 452 , 병명으로
190 , 465 , 213 , 465 , 213 , 450 , 190 , 450 , 2013
214 , 463 , 223 , 463 , 223 , 451 , 214 , 451 , 년
226 , 463 , 238 , 463 , 238 , 453 , 226 , 453 , 01
239 , 463 , 250 , 463 , 250 , 451 , 239 , 451 , 월
252 , 463 , 262 , 463 , 262 , 453 , 252 , 453 , 25
264 , 464 , 274 , 464 , 274 , 452 , 264 , 452 , 일
277 , 463 , 296 , 463 , 296 , 451 , 277 , 451 , 본원
301 , 464 , 348 , 464 , 348 , 451 , 301 , 451 , 정형외과에
353 , 463 , 391 , 463 , 391 , 452 , 353 , 452 , 입원하여
394 , 463 , 425 , 463 , 425 , 451 , 394 , 451 , 2013년
513 , 462 , 530 , 462 , 530 , 451 , 513 , 451 , 정복
123 , 478 , 135 , 478 , 135 , 466 , 123 , 466 , 술
137 , 475 , 148 , 475 , 148 , 466 , 137 , 466 , 및
148 , 476 , 191 , 476 , 191 , 466 , 148 , 466 , 내고정술
191 , 476 , 233 , 476 , 233 , 466 , 191 , 466 , 시행받은
234 , 475 , 267 , 475 , 267 , 466 , 234 , 466 , 환자로
270 , 477 , 297 , 477 , 297 , 467 , 270 , 467 , 합병증
305 , 477 , 334 , 477 , 334 , 466 , 305 , 466 , 후유증
335 , 475 , 349 , 475 , 349 , 466 , 335 , 466 , 및
351 , 478 , 399 , 478 , 399 , 465 , 351 , 465 , 미발견증이
404 , 476 , 424 , 476 , 424 , 466 , 404 , 466 , 없는
427 , 477 , 437 , 477 , 437 , 465 , 427 , 465 , 한
440 , 477 , 498 , 477 , 498 , 465 , 440 , 465 , 수술일로부터
502 , 477 , 528 , 477 , 528 , 465 , 502 , 465 , 7주의
176 , 490 , 225 , 490 , 225 , 479 , 176 , 479 , 요할것으로
229 , 488 , 260 , 488 , 260 , 479 , 229 , 479 , 사료됨
142 , 504 , 160 , 504 , 160 , 492 , 142 , 492 , 장기
164 , 503 , 193 , 503 , 193 , 491 , 164 , 491 , 예후는
197 , 503 , 226 , 503 , 226 , 490 , 197 , 490 , 추후에
229 , 504 , 269 , 504 , 269 , 490 , 229 , 490 , 재판정을
273 , 503 , 291 , 503 , 291 , 490 , 273 , 490 , 요함
52 , 584 , 65 , 584 , 65 , 569 , 52 , 569 , 비
66 , 627 , 92 , 627 , 92 , 612 , 66 , 612 , 같이
94 , 624 , 132 , 624 , 132 , 612 , 94 , 612 , 확인함
76 , 644 , 88 , 644 , 88 , 630 , 76 , 630 , 발
120 , 644 , 129 , 644 , 129 , 631 , 120 , 631 , 일
305 , 642 , 317 , 642 , 317 , 630 , 305 , 630 , 02
327 , 643 , 338 , 643 , 338 , 632 , 327 , 632 , 월
347 , 642 , 359 , 642 , 359 , 630 , 347 , 630 , 06
368 , 641 , 379 , 641 , 379 , 630 , 368 , 630 , 일
94 , 664 , 130 , 664 , 130 , 652 , 94 , 652 , 의원주소
106 , 687 , 115 , 687 , 115 , 676 , 106 , 676 , 원
118 , 688 , 127 , 688 , 127 , 676 , 118 , 676 , 명
465 , 685 , 489 , 685 , 489 , 675 , 465 , 675 , 1588
498 , 684 , 521 , 684 , 521 , 674 , 498 , 674 , 1533
471 , 712 , 485 , 712 , 485 , 698 , 471 , 698 , 정
23 , 736 , 27 , 736 , 27 , 728 , 23 , 728 , 1
33 , 734 , 49 , 734 , 49 , 726 , 33 , 726 , 본인
55 , 737 , 80 , 737 , 80 , 726 , 55 , 726 , 확인은
84 , 737 , 130 , 737 , 130 , 725 , 84 , 725 , 진단의사가
133 , 738 , 188 , 738 , 188 , 725 , 133 , 725 , 주민등록증과
190 , 737 , 207 , 737 , 207 , 726 , 190 , 726 , 대조
212 , 739 , 249 , 739 , 249 , 725 , 212 , 725 , 미성년자
252 , 739 , 281 , 739 , 281 , 725 , 252 , 725 , 일때는
282 , 736 , 301 , 736 , 301 , 726 , 282 , 726 , 기타
305 , 737 , 333 , 737 , 333 , 726 , 305 , 726 , 본인을
337 , 736 , 363 , 736 , 363 , 725 , 337 , 725 , 특정할
367 , 736 , 375 , 736 , 375 , 726 , 367 , 726 , 수
380 , 736 , 397 , 736 , 397 , 724 , 380 , 724 , 있는
399 , 736 , 438 , 736 , 438 , 725 , 399 , 725 , 방법으로
30 , 751 , 60 , 751 , 60 , 740 , 30 , 740 , 대체할
63 , 751 , 71 , 751 , 71 , 741 , 63 , 741 , 수
73 , 753 , 91 , 753 , 91 , 741 , 73 , 741 , 있다
101 , 751 , 138 , 751 , 138 , 742 , 101 , 742 , 확인하고
141 , 751 , 179 , 751 , 179 , 742 , 141 , 742 , 날인한다
19 , 764 , 27 , 764 , 27 , 754 , 19 , 754 , 2
32 , 764 , 59 , 764 , 59 , 753 , 32 , 753 , 병명은
61 , 763 , 89 , 763 , 89 , 754 , 61 , 754 , 임상적
93 , 766 , 130 , 766 , 130 , 754 , 93 , 754 , 인프렛슨
133 , 765 , 141 , 765 , 141 , 754 , 133 , 754 , 과
144 , 765 , 202 , 765 , 202 , 755 , 144 , 755 , 최종진단명을
203 , 766 , 222 , 766 , 222 , 753 , 203 , 753 , 택할
235 , 765 , 244 , 765 , 244 , 753 , 235 , 753 , 에
247 , 766 , 271 , 766 , 271 , 753 , 247 , 753 , X표로
275 , 766 , 302 , 766 , 302 , 753 , 275 , 753 , 표한다
32 , 779 , 57 , 779 , 57 , 769 , 32 , 769 , 병명과
62 , 779 , 99 , 779 , 99 , 767 , 62 , 767 , 국제질병
101 , 781 , 148 , 781 , 148 , 768 , 101 , 768 , 분류번호를
150 , 783 , 168 , 783 , 168 , 767 , 150 , 767 , 함께
171 , 781 , 208 , 781 , 208 , 768 , 171 , 768 , 기입한다
93 , 686 , 103 , 686 , 103 , 676 , 93 , 676 , 의
145 , 176 , 164 , 176 , 164 , 165 , 145 , 165 , 좌측
169 , 176 , 198 , 176 , 198 , 166 , 169 , 166 , 주관절
201 , 176 , 223 , 176 , 223 , 165 , 201 , 165 , 탐구
133 , 191 , 139 , 191 , 139 , 180 , 133 , 180 , 2
144 , 190 , 166 , 190 , 166 , 179 , 144 , 179 , 좌측
167 , 189 , 198 , 189 , 198 , 178 , 167 , 178 , 주관절
200 , 191 , 230 , 191 , 230 , 178 , 200 , 178 , 요골두
411 , 159 , 424 , 159 , 424 , 147 , 411 , 147 , 일
