249 , 778 , 262 , 778 , 262 , 766 , 249 , 766 , 작
354 , 754 , 377 , 754 , 377 , 739 , 354 , 739 , 성명
94 , 734 , 120 , 734 , 120 , 719 , 94 , 719 , 의사
416 , 731 , 457 , 731 , 457 , 717 , 416 , 717 , 30162
385 , 729 , 401 , 729 , 401 , 717 , 385 , 717 , 제
322 , 731 , 371 , 731 , 371 , 717 , 322 , 717 , 면허번호
112 , 709 , 126 , 709 , 126 , 693 , 112 , 693 , 주
65 , 686 , 115 , 686 , 115 , 671 , 65 , 671 , 의료기관
168 , 732 , 213 , 732 , 213 , 720 , 168 , 720 , 치과의사
407 , 660 , 449 , 660 , 449 , 643 , 407 , 643 , 2017년
73 , 599 , 86 , 599 , 86 , 584 , 73 , 584 , 고
71 , 566 , 87 , 566 , 87 , 552 , 71 , 552 , 도
44 , 566 , 59 , 566 , 59 , 552 , 44 , 552 , 용
54 , 499 , 78 , 499 , 78 , 486 , 54 , 486 , 소견
74 , 477 , 98 , 477 , 98 , 461 , 74 , 461 , 대한
52 , 454 , 78 , 454 , 78 , 439 , 52 , 439 , 향후
65 , 430 , 88 , 430 , 88 , 417 , 65 , 417 , 내용
407 , 371 , 447 , 371 , 447 , 357 , 407 , 357 , 2017년
312 , 372 , 338 , 372 , 338 , 357 , 312 , 357 , 진단
157 , 372 , 197 , 372 , 197 , 356 , 157 , 356 , 2017년
33 , 370 , 54 , 370 , 54 , 356 , 33 , 356 , 발병
84 , 343 , 97 , 343 , 97 , 332 , 84 , 332 , 단
76 , 314 , 100 , 314 , 100 , 299 , 76 , 299 , 추정
482 , 284 , 526 , 284 , 526 , 269 , 482 , 269 , J03.90
80 , 275 , 94 , 275 , 94 , 259 , 80 , 259 , 명
55 , 273 , 65 , 273 , 65 , 259 , 55 , 259 , 병
27 , 273 , 44 , 273 , 44 , 259 , 27 , 259 , 질
485 , 265 , 520 , 265 , 520 , 252 , 485 , 252 , K59.1
119 , 284 , 153 , 284 , 153 , 270 , 119 , 270 , 부상병
119 , 264 , 153 , 264 , 153 , 250 , 119 , 250 , 주상병
476 , 236 , 531 , 236 , 531 , 226 , 476 , 226 , 한국표준질병
372 , 221 , 423 , 221 , 423 , 207 , 372 , 207 , 전화번호
28 , 213 , 66 , 213 , 66 , 194 , 28 , 194 , 환자의
228 , 207 , 275 , 207 , 275 , 191 , 228 , 191 , 포천신문
159 , 181 , 197 , 181 , 197 , 165 , 159 , 165 , 최호열
26 , 180 , 66 , 180 , 66 , 163 , 26 , 163 , 환자의
264 , 184 , 340 , 184 , 340 , 165 , 264 , 165 , 주민등록번호
18 , 127 , 34 , 127 , 34 , 112 , 18 , 112 , 연
64 , 142 , 82 , 142 , 82 , 129 , 64 , 129 , 17
57 , 125 , 67 , 125 , 67 , 113 , 57 , 113 , 호
68 , 111 , 112 , 111 , 112 , 98 , 68 , 98 , 601120
21 , 94 , 71 , 94 , 71 , 80 , 21 , 80 , 등록번호
331 , 82 , 355 , 82 , 355 , 55 , 331 , 55 , 서
265 , 82 , 290 , 82 , 290 , 55 , 265 , 55 , 단
196 , 83 , 222 , 83 , 222 , 53 , 196 , 53 , 진
39 , 127 , 53 , 127 , 53 , 113 , 39 , 113 , 번
91 , 142 , 111 , 142 , 111 , 129 , 91 , 129 , 268
70 , 181 , 93 , 181 , 93 , 163 , 70 , 163 , 성명
448 , 181 , 454 , 181 , 454 , 167 , 448 , 167 , 1
70 , 209 , 92 , 209 , 92 , 197 , 70 , 197 , 주소
216 , 203 , 225 , 203 , 225 , 192 , 216 , 192 , 4
187 , 204 , 207 , 204 , 207 , 190 , 187 , 190 , 213
149 , 205 , 183 , 205 , 183 , 191 , 149 , 191 , 동교동
111 , 204 , 144 , 204 , 144 , 190 , 111 , 190 , 포천시
163 , 263 , 171 , 263 , 171 , 252 , 163 , 252 , 1
175 , 264 , 199 , 264 , 199 , 252 , 175 , 252 , 장염
164 , 284 , 172 , 284 , 172 , 271 , 164 , 271 , 2
177 , 286 , 244 , 286 , 244 , 271 , 177 , 271 , 급성편도선염
37 , 313 , 71 , 313 , 71 , 299 , 37 , 299 , 임상적
70 , 344 , 81 , 344 , 81 , 331 , 70 , 331 , 진
54 , 346 , 66 , 346 , 66 , 331 , 54 , 331 , 종
37 , 344 , 51 , 344 , 51 , 330 , 37 , 330 , 최
59 , 369 , 95 , 369 , 95 , 357 , 59 , 357 , 연월일
38 , 431 , 60 , 431 , 60 , 416 , 38 , 416 , 치료
35 , 476 , 69 , 476 , 69 , 463 , 35 , 463 , 치료에
46 , 599 , 59 , 599 , 59 , 584 , 46 , 584 , 비
452 , 660 , 474 , 660 , 474 , 643 , 452 , 643 , 04월
479 , 658 , 504 , 658 , 504 , 642 , 479 , 642 , 04일
333 , 625 , 384 , 625 , 384 , 612 , 333 , 612 , 진단합니다
306 , 627 , 326 , 627 , 326 , 613 , 306 , 613 , 같이
283 , 626 , 303 , 626 , 303 , 614 , 283 , 614 , 위와
259 , 628 , 280 , 628 , 280 , 614 , 259 , 614 , 따라
218 , 627 , 255 , 627 , 255 , 613 , 218 , 613 , 제9조에
175 , 628 , 216 , 628 , 216 , 614 , 175 , 614 , 시행규칙
159 , 627 , 172 , 627 , 172 , 616 , 159 , 616 , 법
137 , 629 , 157 , 629 , 157 , 615 , 137 , 615 , 같은
122 , 630 , 133 , 630 , 133 , 615 , 122 , 615 , 및
85 , 628 , 119 , 628 , 119 , 616 , 85 , 616 , 제17조
41 , 629 , 71 , 629 , 71 , 617 , 41 , 617 , 의료법
133 , 596 , 151 , 596 , 151 , 583 , 133 , 583 , 초진
157 , 596 , 176 , 596 , 176 , 583 , 157 , 583 , 소견
180 , 596 , 210 , 596 , 210 , 582 , 180 , 582 , 이므로
214 , 596 , 245 , 596 , 245 , 582 , 214 , 582 , 진단명
248 , 596 , 260 , 596 , 260 , 581 , 248 , 581 , 및
263 , 596 , 283 , 596 , 283 , 583 , 263 , 583 , 진단
287 , 594 , 316 , 594 , 316 , 583 , 287 , 583 , 기간이
132 , 563 , 172 , 563 , 172 , 552 , 132 , 552 , 선관위및
177 , 563 , 207 , 563 , 207 , 552 , 177 , 552 , 언론사
211 , 564 , 242 , 564 , 242 , 551 , 211 , 551 , 제출용
320 , 595 , 339 , 595 , 339 , 582 , 320 , 582 , 변경
343 , 595 , 353 , 595 , 353 , 583 , 343 , 583 , 및
358 , 595 , 377 , 595 , 377 , 582 , 358 , 582 , 추가
380 , 595 , 400 , 595 , 400 , 582 , 380 , 582 , 될수
403 , 596 , 423 , 596 , 423 , 582 , 403 , 582 , 있음
129 , 707 , 141 , 707 , 141 , 694 , 129 , 694 , 소
118 , 686 , 140 , 686 , 140 , 671 , 118 , 671 , 명칭
167 , 708 , 201 , 708 , 201 , 692 , 167 , 692 , 경기도
205 , 707 , 251 , 707 , 251 , 692 , 205 , 692 , 의정부서
273 , 731 , 306 , 731 , 306 , 716 , 273 , 716 , 한의사
268 , 778 , 277 , 778 , 277 , 766 , 268 , 766 , 성
284 , 778 , 296 , 778 , 296 , 765 , 284 , 765 , 방
301 , 779 , 311 , 779 , 311 , 765 , 301 , 765 , 법
22 , 793 , 30 , 793 , 30 , 785 , 22 , 785 , 1
37 , 794 , 64 , 794 , 64 , 783 , 37 , 783 , 환자의
68 , 793 , 114 , 793 , 114 , 782 , 68 , 782 , 인적사항은
118 , 793 , 146 , 793 , 146 , 782 , 118 , 782 , 진찰한
150 , 792 , 176 , 792 , 176 , 781 , 150 , 781 , 의사가
181 , 792 , 226 , 792 , 226 , 780 , 181 , 780 , 주민등록증
25 , 803 , 70 , 803 , 70 , 794 , 25 , 794 , 의료보홈증
79 , 803 , 142 , 803 , 142 , 794 , 79 , 794 , 외국인등록증등
147 , 802 , 182 , 802 , 182 , 793 , 147 , 793 , 국가공인
187 , 802 , 215 , 802 , 215 , 793 , 187 , 793 , 신분증
233 , 791 , 269 , 791 , 269 , 782 , 233 , 782 , 기간만료
219 , 802 , 245 , 802 , 245 , 792 , 219 , 792 , 환자가
29 , 813 , 38 , 813 , 38 , 804 , 29 , 804 , 과
40 , 813 , 78 , 813 , 78 , 803 , 40 , 803 , 대조하여
82 , 812 , 118 , 812 , 118 , 803 , 82 , 803 , 확인하고
123 , 813 , 138 , 813 , 138 , 803 , 123 , 803 , 서명
144 , 813 , 160 , 813 , 160 , 802 , 144 , 802 , 또는
166 , 812 , 212 , 812 , 212 , 801 , 166 , 801 , 날인합니다
24 , 828 , 30 , 828 , 30 , 820 , 24 , 820 , 2
42 , 829 , 67 , 829 , 67 , 819 , 42 , 819 , 질병명
76 , 829 , 103 , 829 , 103 , 818 , 76 , 818 , 란에는
112 , 828 , 139 , 828 , 139 , 817 , 112 , 817 , 임상적
142 , 828 , 160 , 828 , 160 , 816 , 142 , 816 , 추정
167 , 827 , 176 , 827 , 176 , 818 , 167 , 818 , 과
184 , 828 , 221 , 828 , 221 , 816 , 184 , 816 , 최종진단
228 , 826 , 236 , 826 , 236 , 814 , 228 , 814 , 중
240 , 826 , 277 , 826 , 277 , 815 , 240 , 815 , 택일하여
26 , 839 , 32 , 839 , 32 , 830 , 26 , 830 , 을
36 , 839 , 74 , 839 , 74 , 829 , 36 , 829 , 경우에는
79 , 841 , 105 , 841 , 105 , 829 , 79 , 829 , 한글을
109 , 839 , 127 , 839 , 127 , 828 , 109 , 828 , 함께
131 , 838 , 157 , 838 , 157 , 827 , 131 , 827 , 적으며
165 , 837 , 220 , 837 , 220 , 827 , 165 , 827 , 한국표준질병
224 , 836 , 271 , 836 , 271 , 827 , 224 , 827 , 분류번호를
274 , 836 , 319 , 836 , 319 , 827 , 274 , 827 , 기입합니다
290 , 827 , 300 , 827 , 300 , 815 , 290 , 815 , 에
303 , 826 , 321 , 826 , 321 , 815 , 303 , 815 , 체크
339 , 827 , 365 , 827 , 365 , 815 , 339 , 815 , 표시를
369 , 826 , 386 , 826 , 386 , 814 , 369 , 814 , 하고
394 , 827 , 429 , 827 , 429 , 812 , 394 , 812 , 질병명은
434 , 826 , 459 , 826 , 459 , 813 , 434 , 813 , 한글로
463 , 825 , 481 , 825 , 481 , 813 , 463 , 813 , 적되
487 , 824 , 515 , 824 , 515 , 812 , 487 , 812 , 영어로
518 , 825 , 527 , 825 , 527 , 813 , 518 , 813 , 적
402 , 800 , 420 , 800 , 420 , 788 , 402 , 788 , 초본
427 , 800 , 454 , 800 , 454 , 789 , 427 , 789 , 학생증
458 , 799 , 484 , 799 , 484 , 789 , 458 , 789 , 등으로
487 , 798 , 505 , 798 , 505 , 788 , 487 , 788 , 대체
510 , 800 , 527 , 800 , 527 , 788 , 510 , 788 , 가능
339 , 802 , 394 , 802 , 394 , 791 , 339 , 791 , 주민등록등본
359 , 789 , 395 , 789 , 395 , 779 , 359 , 779 , 공무원증
311 , 791 , 355 , 791 , 355 , 782 , 311 , 782 , 운전면허증
299 , 802 , 335 , 802 , 335 , 792 , 299 , 792 , 경우에는
285 , 791 , 303 , 791 , 303 , 782 , 285 , 782 , 여권
250 , 804 , 295 , 804 , 295 , 793 , 250 , 793 , 미성년자인
273 , 792 , 281 , 792 , 281 , 781 , 273 , 781 , 전
129 , 391 , 165 , 391 , 165 , 380 , 129 , 380 , 과로로
170 , 392 , 192 , 392 , 192 , 380 , 170 , 380 , 인한
196 , 392 , 230 , 392 , 230 , 381 , 196 , 381 , 면연력
234 , 393 , 268 , 393 , 268 , 381 , 234 , 381 , 저하로
272 , 393 , 293 , 393 , 293 , 379 , 272 , 379 , 탈수
131 , 405 , 155 , 405 , 155 , 393 , 131 , 393 , 요할
158 , 403 , 192 , 403 , 192 , 392 , 158 , 392 , 것으로
197 , 405 , 230 , 405 , 230 , 393 , 197 , 393 , 사료됨
299 , 394 , 307 , 394 , 307 , 380 , 299 , 380 , 및
313 , 394 , 335 , 394 , 335 , 381 , 313 , 381 , 장염
340 , 393 , 371 , 393 , 371 , 381 , 340 , 381 , 증세로
378 , 393 , 409 , 393 , 409 , 380 , 378 , 380 , 초진후
414 , 395 , 424 , 395 , 424 , 380 , 414 , 380 , 약
429 , 394 , 457 , 394 , 457 , 380 , 429 , 380 , 2주간
461 , 394 , 518 , 394 , 518 , 380 , 461 , 380 , 안정가료를
452 , 371 , 477 , 371 , 477 , 359 , 452 , 359 , 04월
480 , 370 , 505 , 370 , 505 , 358 , 480 , 358 , 03일
340 , 370 , 375 , 370 , 375 , 359 , 340 , 359 , 연월일
201 , 371 , 227 , 371 , 227 , 357 , 201 , 357 , 04월
230 , 371 , 256 , 371 , 256 , 358 , 230 , 358 , 03일
487 , 247 , 521 , 247 , 521 , 237 , 487 , 237 , 분류번호
435 , 221 , 457 , 221 , 457 , 207 , 435 , 207 , 010
466 , 220 , 493 , 220 , 493 , 208 , 466 , 208 , 8978
502 , 220 , 510 , 220 , 510 , 208 , 502 , 208 , 9
490 , 730 , 506 , 730 , 506 , 717 , 490 , 717 , 호
