605,204,1109,204,1109,276,605,276
189,388,381,394,380,440,188,434
388,398,439,398,439,437,388,437
189,457,378,457,378,500,189,500
383,462,509,468,508,506,382,500
191,526,230,526,230,567,191,567
309,526,477,526,477,569,309,569
996,534,1106,534,1106,575,996,575
861,536,930,536,930,572,861,572
189,590,378,590,378,633,189,633
388,595,536,595,536,636,388,636
631,595,682,595,682,636,631,636
697,600,741,600,741,636,697,636
746,598,799,598,799,638,746,638
858,598,1034,598,1034,641,858,641
1070,603,1121,603,1121,641,1070,641
1042,610,1058,610,1058,633,1042,633
189,656,230,656,230,697,189,697
311,661,452,661,452,702,311,702
452,659,574,659,574,702,452,702
577,661,672,661,672,702,577,702
672,664,776,664,776,705,672,705
189,719,287,723,285,765,187,761
314,725,380,725,380,764,314,764
388,723,462,723,462,820,388,820
506,728,569,728,569,764,506,764
500,723,682,723,682,822,500,822
651,723,874,723,874,822,651,822
191,1068,268,1068,268,1106,191,1106
273,1068,309,1068,309,1106,273,1106
311,1068,352,1068,352,1109,311,1109
385,1068,493,1068,493,1106,385,1106
485,1070,544,1070,544,1106,485,1106
564,1070,713,1070,713,1106,564,1106
360,1078,373,1078,373,1098,360,1098
191,1300,378,1300,378,1339,191,1339
429,1303,580,1303,580,1339,429,1339
710,1303,856,1303,856,1341,710,1341
189,1362,309,1362,309,1405,189,1405
309,1362,437,1362,437,1405,309,1405
483,1367,513,1367,513,1400,483,1400
554,1364,633,1364,633,1405,554,1405
552,1510,661,1510,661,1556,552,1556
669,1510,743,1510,743,1556,669,1556
751,1512,825,1512,825,1556,751,1556
833,1512,1042,1512,1042,1561,833,1561
1047,1512,1160,1512,1160,1561,1047,1561
186,1658,334,1658,334,1696,186,1696
431,1804,557,1804,557,1847,431,1847
183,1809,331,1806,332,1848,184,1852
334,1806,429,1806,429,1847,334,1847
687,1855,807,1855,807,1898,687,1898
843,1860,1022,1860,1022,1898,843,1898
406,1926,917,1926,917,2006,406,2006
963,1937,1017,1937,1017,1988,963,1988
1242,1937,1305,1937,1305,2006,1242,2006
506,2231,603,2231,603,2274,506,2274
603,2231,838,2231,838,2274,603,2274
840,2231,1047,2231,1047,2274,840,2274
1050,2231,1173,2231,1173,2271,1050,2271
406,2233,500,2233,500,2277,406,2277
1178,2233,1272,2233,1272,2277,1178,2277
1374,2233,1507,2233,1507,2277,1374,2277
163,2236,342,2236,342,2279,163,2279
1277,2236,1369,2236,1369,2277,1277,2277
