168,323,137,323,137,314,168,314,###
124,323,99,323,99,314,124,314,###
168,197,137,197,137,187,168,187,###
126,197,99,197,99,187,126,187,###
168,161,139,161,139,150,168,150,###
202,124,175,124,175,108,202,108,###
368,204,368,187,395,187,395,204,###
368,173,368,163,393,163,393,173,###
370,134,370,126,393,126,393,134,###
368,119,368,110,395,110,395,119,###
256,124,256,109,289,109,289,124,###
238,110,238,100,267,100,267,110,###
200,93,149,93,149,84,200,84,###
268,369,268,359,313,359,313,369,###
30,359,30,354,81,354,81,359,###
264,359,264,349,293,349,293,359,###
84,131,84,121,89,121,89,131,###
44,119,44,109,65,109,65,119,###
90,100,90,84,135,84,135,100,###
28,101,28,84,83,84,83,101,###
252,93,235,93,235,82,252,82,###
346,92,346,83,381,83,381,92,###
30,74,30,64,77,64,77,74,###
332,82,332,62,377,62,377,82,###
