710,1165,635,1165,635,1142,710,1142,###
630,1167,595,1167,595,1142,630,1142,###
432,1165,432,1142,462,1142,462,1165,###
170,1168,170,1141,277,1141,277,1168,###
464,1167,464,1140,584,1140,584,1167,###
720,1164,720,1145,748,1145,748,1164,###
752,1150,752,1139,879,1139,879,1150,###
688,1131,637,1131,637,1106,688,1106,###
718,1124,718,1107,849,1107,849,1124,###
12,1104,12,1085,140,1085,140,1104,###
92,1041,69,1041,69,1020,92,1020,###
506,1041,455,1041,455,1018,506,1018,###
386,1041,335,1041,335,1018,386,1018,###
368,1038,368,1021,383,1021,383,1038,###
338,1038,338,1021,361,1021,361,1038,###
126,1043,126,1018,147,1018,147,1043,###
32,1043,11,1043,11,1018,32,1018,###
269,1044,195,1041,196,1015,270,1018,###
283,1005,283,974,391,974,391,1005,###
147,1007,147,974,271,974,271,1007,###
78,931,78,908,102,908,102,931,###
24,931,24,908,46,908,46,931,###
239,921,239,898,296,898,296,921,###
153,923,153,898,234,898,234,923,###
86,789,86,766,110,766,110,789,###
32,789,32,766,56,766,56,789,###
228,707,163,707,163,686,228,686,###
314,707,314,684,354,684,354,707,###
308,707,235,707,235,684,308,684,###
542,702,541,684,672,682,673,700,###
118,659,40,659,40,636,118,636,###
592,653,552,653,552,632,592,632,###
43,621,43,598,120,598,120,621,###
171,616,171,595,269,595,269,616,###
398,615,303,615,303,594,398,594,###
493,612,493,591,554,591,554,612,###
120,581,46,581,46,562,120,562,###
102,439,102,416,124,416,124,439,###
70,439,51,439,51,416,70,416,###
674,344,672,322,718,319,719,341,###
438,319,369,319,369,302,438,302,###
698,314,698,291,809,291,809,314,###
124,283,51,283,51,262,124,262,###
398,279,381,279,381,260,398,260,###
434,279,413,279,413,258,434,258,###
492,277,471,277,471,256,492,256,###
520,277,519,255,570,252,571,274,###
590,277,589,253,663,250,664,274,###
102,231,102,210,122,210,122,231,###
48,229,48,210,72,210,72,229,###
70,179,51,179,51,158,70,158,###
102,177,102,156,122,156,122,177,###
426,170,426,147,536,147,536,170,###
76,123,54,123,54,106,76,106,###
50,125,30,125,30,104,50,104,###
202,123,109,123,109,102,202,102,###
102,123,83,123,83,102,102,102,###
828,67,807,67,807,50,828,50,###
802,69,709,69,709,48,802,48,###
