562,1311,414,1311,414,1284,562,1284,###
356,1308,220,1308,220,1282,356,1282,###
1154,1296,975,1292,976,1267,1155,1272,###
937,1288,913,1288,913,1264,937,1264,###
885,1288,863,1288,863,1262,885,1262,###
357,1277,357,1256,531,1256,531,1277,###
214,1273,214,1253,348,1253,348,1273,###
21,1306,21,1250,170,1250,170,1306,###
26,1302,26,1281,164,1281,164,1302,###
26,1273,26,1253,166,1253,166,1273,###
1007,1233,1007,1205,1075,1205,1075,1233,###
1164,1235,1093,1231,1095,1203,1166,1207,###
985,1228,943,1228,943,1202,985,1202,###
941,1226,867,1226,867,1200,941,1200,###
302,1213,284,1213,284,1191,302,1191,###
23,1213,23,1186,168,1186,168,1213,###
752,1194,752,1166,844,1166,844,1194,###
330,1181,307,1181,307,1161,330,1161,###
344,1185,344,1157,436,1157,436,1185,###
302,1183,214,1183,214,1156,302,1156,###
170,1181,142,1181,142,1156,170,1156,###
49,1180,23,1180,23,1154,49,1154,###
112,1115,112,1091,168,1091,168,1115,###
21,1114,21,1088,110,1088,110,1114,###
23,1083,23,1056,168,1056,168,1083,###
436,1051,421,1051,421,1029,436,1029,###
170,1051,142,1051,142,1024,170,1024,###
127,1050,62,1050,62,1024,127,1024,###
49,1050,23,1050,23,1024,49,1024,###
438,1019,371,1019,371,992,438,992,###
304,1017,260,1017,260,992,304,992,###
21,1017,21,990,170,990,170,1017,###
1123,1000,1123,972,1169,972,1169,1000,###
1059,998,1059,972,1093,972,1093,998,###
889,993,889,965,969,965,969,993,###
21,984,21,956,168,956,168,984,###
1129,968,1021,963,1022,934,1130,939,###
967,962,865,962,865,933,967,933,###
172,952,142,952,142,926,172,926,###
129,950,104,950,104,926,129,926,###
90,948,64,948,64,924,90,924,###
23,950,23,924,49,924,49,950,###
1017,932,1017,906,1133,906,1133,932,###
863,927,863,899,967,899,967,927,###
168,920,78,920,78,892,168,892,###
23,920,23,892,74,892,74,920,###
1125,901,1029,897,1031,869,1126,873,###
891,895,891,869,969,869,969,895,###
863,895,863,867,887,867,887,895,###
25,888,25,860,170,860,170,888,###
1162,868,985,863,986,836,1163,841,###
863,863,863,837,967,837,967,863,###
921,860,921,841,963,841,963,860,###
867,860,867,841,911,841,911,860,###
21,855,21,828,170,828,170,855,###
1145,838,1044,835,1045,806,1146,809,###
966,834,861,830,862,802,968,806,###
167,825,22,820,23,792,168,796,###
170,791,144,791,144,766,170,766,###
135,793,22,787,23,759,137,764,###
1107,793,1039,789,1041,753,1109,757,###
895,788,895,739,1027,739,1027,788,###
967,783,967,759,1023,759,1023,783,###
899,764,899,743,961,743,961,764,###
170,758,23,758,23,734,170,734,###
170,727,146,727,146,702,170,702,###
986,731,869,728,870,699,987,703,###
963,725,963,708,983,708,983,725,###
953,726,873,724,874,703,954,705,###
55,727,55,700,140,700,140,727,###
49,725,23,725,23,700,49,700,###
170,693,23,693,23,668,170,668,###
973,695,887,695,887,666,973,666,###
1175,674,1157,674,1157,652,1175,652,###
849,672,781,672,781,646,849,646,###
170,663,53,663,53,636,170,636,###
51,660,23,660,23,636,51,636,###
1101,642,1101,616,1181,616,1181,642,###
1035,638,871,638,871,611,1035,611,###
169,633,22,629,23,600,170,604,###
1040,606,1015,606,1015,582,1040,582,###
957,606,931,606,931,582,957,582,###
1180,613,1085,610,1086,580,1181,582,###
438,601,423,601,423,580,438,580,###
288,599,288,577,304,577,304,599,###
144,599,144,573,170,573,170,599,###
140,597,54,597,54,572,140,572,###
49,597,23,597,23,572,49,572,###
915,592,867,592,867,564,915,564,###
957,576,931,576,931,550,957,550,###
804,576,804,550,849,550,849,576,###
801,576,769,576,769,550,801,550,###
1039,576,1015,576,1015,548,1039,548,###
438,571,350,571,350,543,438,543,###
228,569,228,541,304,541,304,569,###
144,567,144,541,170,541,170,567,###
110,565,84,565,84,540,110,540,###
49,567,23,567,23,540,49,540,###
915,555,867,555,867,527,915,527,###
931,543,931,515,1040,515,1040,543,###
167,538,22,534,23,503,168,507,###
905,521,879,521,879,500,905,500,###
1091,514,1091,486,1183,486,1183,514,###
1040,505,1015,505,1015,486,1040,486,###
958,510,933,510,933,486,958,486,###
438,505,423,505,423,484,438,484,###
288,503,288,481,304,481,304,503,###
144,501,144,477,168,477,168,501,###
23,499,23,475,51,475,51,499,###
110,499,84,499,84,474,110,474,###
849,482,759,482,759,454,849,454,###
438,473,373,473,373,447,438,447,###
239,474,238,446,306,443,307,472,###
175,473,96,470,97,442,176,445,###
1185,464,1092,461,1093,433,1186,436,###
1039,449,1013,449,1013,426,1039,426,###
981,448,957,448,957,426,981,426,###
84,455,20,452,21,424,85,427,###
923,468,923,455,983,455,983,468,###
989,447,989,428,1006,428,1006,447,###
951,450,925,450,925,424,951,424,###
921,450,865,450,865,424,921,424,###
761,448,761,420,851,420,851,448,###
440,444,371,444,371,415,440,415,###
238,441,238,413,306,413,306,441,###
100,439,100,411,174,411,174,439,###
360,412,360,383,440,383,440,412,###
228,409,228,381,306,381,306,409,###
98,405,98,379,174,379,174,405,###
1185,400,1093,400,1093,372,1185,372,###
1040,398,869,398,869,372,1040,372,###
438,378,423,378,423,356,438,356,###
288,375,288,351,306,351,306,375,###
84,403,19,399,22,346,87,350,###
79,398,24,396,25,375,80,378,###
81,374,26,372,27,351,82,353,###
171,376,98,374,99,345,172,347,###
360,346,360,317,440,317,440,346,###
226,343,226,317,306,317,306,343,###
25,337,25,317,47,317,47,337,###
142,339,142,315,168,315,168,339,###
1187,336,1072,336,1072,306,1187,306,###
1040,341,869,341,869,292,1040,292,###
876,338,876,323,1031,323,1031,338,###
440,314,348,314,348,285,440,285,###
226,311,226,283,306,283,306,311,###
142,309,142,283,166,283,166,309,###
84,307,84,281,108,281,108,307,###
21,307,21,281,47,281,47,307,###
851,284,835,284,835,262,851,262,###
362,282,362,253,438,253,438,282,###
238,277,238,251,306,251,306,277,###
142,275,142,251,168,251,168,275,###
82,273,82,249,106,249,106,273,###
21,273,21,249,47,249,47,273,###
1187,268,1072,268,1072,240,1187,240,###
871,272,871,255,1039,255,1039,272,###
931,248,931,232,949,232,949,248,###
1021,246,1021,229,1039,229,1039,246,###
960,248,960,229,1009,229,1009,248,###
901,248,901,229,919,229,919,248,###
850,249,729,246,730,219,851,223,###
603,248,603,221,699,221,699,248,###
570,248,455,248,455,219,570,219,###
426,245,323,245,323,217,426,217,###
192,245,192,217,296,217,296,245,###
124,225,124,201,147,201,147,225,###
44,225,44,201,67,201,67,225,###
1067,216,1067,192,1095,192,1095,216,###
1131,216,1104,216,1104,189,1131,189,###
1059,216,1033,216,1033,189,1059,189,###
1023,213,997,213,997,189,1023,189,###
963,216,963,189,987,189,987,216,###
927,216,927,189,953,189,953,216,###
756,216,756,189,785,189,785,216,###
708,216,708,189,732,189,732,216,###
658,213,658,189,684,189,684,213,###
474,211,448,211,448,187,474,187,###
309,211,286,211,286,187,309,187,###
1032,185,1032,161,1126,161,1126,185,###
939,186,869,186,869,160,939,160,###
620,179,581,179,581,158,620,158,###
579,179,510,179,510,158,579,158,###
841,184,711,181,712,156,842,159,###
378,179,248,179,248,153,378,153,###
44,177,44,153,158,153,158,177,###
967,149,865,149,865,121,967,121,###
714,149,714,121,829,121,829,149,###
611,147,587,147,587,121,611,121,###
517,147,517,121,543,121,543,147,###
382,143,357,143,357,119,382,119,###
344,145,316,145,316,119,344,119,###
278,145,278,119,304,119,304,145,###
238,145,238,119,266,119,266,145,###
160,145,134,145,134,119,160,119,###
127,143,102,143,102,119,127,119,###
92,143,68,143,68,119,92,119,###
34,143,34,119,56,119,56,143,###
1099,111,1079,111,1079,94,1099,94,###
1105,115,1105,89,1181,89,1181,115,###
991,115,991,89,1071,89,1071,115,###
894,115,849,115,849,89,894,89,###
828,118,695,116,696,87,829,90,###
614,112,614,86,661,86,661,112,###
474,113,474,87,604,87,604,113,###
828,83,791,83,791,59,828,59,###
745,83,745,59,785,59,785,83,###
626,83,626,59,652,59,652,83,###
1171,86,999,86,999,57,1171,57,###
706,83,706,57,734,57,734,83,###
693,83,667,83,667,57,693,57,###
588,81,588,57,612,57,612,81,###
382,83,357,83,357,57,382,57,###
344,83,318,83,318,57,344,57,###
278,81,278,57,304,57,304,81,###
264,81,238,81,238,57,264,57,###
27,111,27,54,162,54,162,111,###
56,107,56,90,150,90,150,107,###
31,81,30,60,158,57,159,78,###
488,45,462,45,462,20,488,20,###
648,47,492,47,492,18,648,18,###
907,51,907,9,1007,9,1007,51,###
770,49,770,9,875,9,875,49,###
654,49,654,9,759,9,759,49,###
