1962.7821044921875,2642.448486328125,1882.315185546875,2642.448486328125,1882.315185546875,2627.17431640625,1962.7821044921875,2627.17431640625
2146.12451171875,2626.156005859375,2033.0633544921875,2626.156005859375,2033.0633544921875,2602.7353515625,2146.12451171875,2602.7353515625
2023.896240234375,2626.156005859375,1992.3206787109375,2626.156005859375,1992.3206787109375,2606.80859375,2023.896240234375,2606.80859375
1442.29345703125,2642.448486328125,1442.29345703125,2590.515869140625,1482.0177001953125,2590.515869140625,1482.0177001953125,2642.448486328125
1348.5850830078125,2642.448486328125,1348.5850830078125,2586.44287109375,1429.0521240234375,2586.44287109375,1429.0521240234375,2642.448486328125
1258.950927734375,2638.375,1258.950927734375,2590.515625,1302.7493896484375,2590.515625,1302.7493896484375,2638.375
1050.1444091796875,2638.375,1026.7174072265625,2638.375,1026.7174072265625,2590.515625,1050.1444091796875,2590.515625
957.4547119140625,2642.4482421875,957.4547119140625,2590.515625,980.8817749023438,2590.515625,980.8817749023438,2642.4482421875
904.4891357421875,2642.4482421875,904.4891357421875,2590.515625,927.9161987304688,2590.515625,927.9161987304688,2642.4482421875
1315.9908447265625,2638.375,1315.9908447265625,2590.515625,1339.4178466796875,2590.515625,1339.4178466796875,2638.375
1124.4998779296875,2638.375,1124.4998779296875,2590.515625,1131.6298828125,2590.515625,1131.6298828125,2638.375
1119.406982421875,2638.375,1108.2027587890625,2638.375,1108.2027587890625,2590.515625,1119.406982421875,2590.515625
1059.3115234375,2642.4482421875,1059.3115234375,2590.515625,1078.664306640625,2590.515625,1078.664306640625,2642.4482421875
1099.03564453125,2638.375,1087.8314208984375,2638.375,1087.8314208984375,2590.515625,1099.03564453125,2590.515625
1882.315185546875,2601.716796875,1882.315185546875,2578.29638671875,1954.633544921875,2578.29638671875,1954.633544921875,2601.716796875
2052.416259765625,2573.205078125,1882.315185546875,2573.205078125,1882.315185546875,2541.638427734375,2052.416259765625,2541.638427734375
1527.8531494140625,2528.400390625,1527.8531494140625,2500.90673828125,1653.1370849609375,2500.90673828125,1653.1370849609375,2528.400390625
855.5978393554688,2524.327392578125,855.5978393554688,2492.7607421875,984.9560546875,2492.7607421875,984.9560546875,2524.327392578125
312.70062255859375,2524.327392578125,183.34239196777344,2524.327392578125,183.34239196777344,2492.7607421875,312.70062255859375,2492.7607421875
1866.01806640625,2487.6689453125,1866.01806640625,2456.10205078125,1975.0050048828125,2456.10205078125,1975.0050048828125,2487.6689453125
1527.853271484375,2483.59619140625,1527.853271484375,2452.029296875,1653.13720703125,2452.029296875,1653.13720703125,2483.59619140625
1302.74951171875,2483.59619140625,1197.8369140625,2483.59619140625,1197.8369140625,2452.029296875,1302.74951171875,2452.029296875
855.5978393554688,2483.595947265625,855.5978393554688,2447.955810546875,980.8817749023438,2447.955810546875,980.8817749023438,2483.595947265625
521.5072631835938,2479.522705078125,521.5072631835938,2447.955810546875,630.4940795898438,2447.955810546875,630.4940795898438,2479.522705078125
183.3423614501953,2479.522705078125,183.3423614501953,2443.8828125,308.6263122558594,2443.8828125,308.6263122558594,2479.522705078125
1970.9306640625,2446.937744140625,1866.01806640625,2446.937744140625,1866.01806640625,2415.37109375,1970.9306640625,2415.37109375
1523.77880859375,2442.864501953125,1523.77880859375,2407.224609375,1657.21142578125,2407.224609375,1657.21142578125,2442.864501953125
1302.74951171875,2438.79150390625,1197.8369140625,2438.79150390625,1197.8369140625,2411.2978515625,1302.74951171875,2411.2978515625
851.5235595703125,2438.79150390625,851.5235595703125,2403.151611328125,984.9560546875,2403.151611328125,984.9560546875,2438.79150390625
630.4940795898438,2438.79150390625,525.58154296875,2438.79150390625,525.58154296875,2407.224853515625,630.4940795898438,2407.224853515625
312.70062255859375,2434.718505859375,179.2681121826172,2434.718505859375,179.2681121826172,2403.151611328125,312.70062255859375,2403.151611328125
1861.94384765625,2402.13330078125,1861.94384765625,2366.493408203125,1995.3763427734375,2366.493408203125,1995.3763427734375,2402.13330078125
1832.4052734375,2402.13330078125,1694.8985595703125,2402.13330078125,1694.8985595703125,2366.493408203125,1832.4052734375,2366.493408203125
1022.6431274414062,2398.060302734375,1022.6431274414062,2362.420166015625,1164.22412109375,2362.420166015625,1164.22412109375,2398.060302734375
1323.1209716796875,2398.060302734375,1189.6883544921875,2398.060302734375,1189.6883544921875,2362.420166015625,1323.1209716796875,2362.420166015625
615.215576171875,2393.987060546875,615.215576171875,2362.420166015625,650.865478515625,2362.420166015625,650.865478515625,2393.987060546875
487.89447021484375,2393.987060546875,354.4619445800781,2393.987060546875,354.4619445800781,2362.420166015625,487.89447021484375,2362.420166015625
801.6136474609375,2332.889892578125,794.4837036132812,2332.889892578125,794.4837036132812,2309.469482421875,801.6136474609375,2309.469482421875
1860.92529296875,2345.109375,1796.75537109375,2345.109375,1796.75537109375,2309.469482421875,1860.92529296875,2309.469482421875
1453.4976806640625,2345.109375,1421.922119140625,2345.109375,1421.922119140625,2309.469482421875,1453.4976806640625,2309.469482421875
1200.8927001953125,2341.0361328125,1104.128662109375,2341.0361328125,1104.128662109375,2309.469482421875,1200.8927001953125,2309.469482421875
990.0488891601562,2336.962890625,990.0488891601562,2309.46923828125,1050.1444091796875,2309.46923828125,1050.1444091796875,2336.962890625
1380.1607666015625,2341.0361328125,1348.5850830078125,2341.0361328125,1348.5850830078125,2309.469482421875,1380.1607666015625,2309.469482421875
1258.9510498046875,2341.0361328125,1258.9510498046875,2305.396240234375,1319.046630859375,2305.396240234375,1319.046630859375,2341.0361328125
851.5235595703125,2341.0361328125,851.5235595703125,2305.396240234375,972.7332153320312,2305.396240234375,972.7332153320312,2341.0361328125
737.4437866210938,2336.962890625,737.4437866210938,2305.39599609375,793.465087890625,2305.39599609375,793.465087890625,2336.962890625
724.2024536132812,2336.963134765625,627.4384155273438,2336.963134765625,627.4384155273438,2305.396240234375,724.2024536132812,2305.396240234375
614.197021484375,2341.0361328125,517.4329833984375,2341.0361328125,517.4329833984375,2305.396240234375,614.197021484375,2305.396240234375
459.3745422363281,2336.963134765625,382.98187255859375,2336.963134765625,382.98187255859375,2305.396240234375,459.3745422363281,2305.396240234375
373.81475830078125,2332.889892578125,342.2391357421875,2332.889892578125,342.2391357421875,2305.396240234375,373.81475830078125,2305.396240234375
308.6263427734375,2336.963134765625,272.9764404296875,2336.963134765625,272.9764404296875,2301.3232421875,308.6263427734375,2301.3232421875
1918.983642578125,2345.109375,1918.983642578125,2293.1767578125,2170.570068359375,2293.1767578125,2170.570068359375,2345.109375
1486.0919189453125,2296.231689453125,1373.03076171875,2296.231689453125,1373.03076171875,2264.664794921875,1486.0919189453125,2264.664794921875
1210.0596923828125,2296.2314453125,1210.0596923828125,2264.66455078125,1331.269287109375,2264.66455078125,1331.269287109375,2296.2314453125
1067.4600830078125,2296.231689453125,1067.4600830078125,2260.591796875,1176.447021484375,2260.591796875,1176.447021484375,2296.231689453125
790.7351684570312,2296.717529296875,788.455078125,2264.80419921875,854.543212890625,2260.085205078125,856.8233032226562,2291.99853515625
1054.21875,2292.15869140625,892.2662963867188,2292.15869140625,892.2662963867188,2260.591796875,1054.21875,2260.591796875
764.9451904296875,2292.15869140625,574.4728393554688,2292.15869140625,574.4728393554688,2260.591796875,764.9451904296875,2260.591796875
497.06158447265625,2292.15869140625,497.06158447265625,2260.591796875,573.4542236328125,2260.591796875,573.4542236328125,2292.15869140625
459.3745422363281,2292.15869140625,191.49093627929688,2292.15869140625,191.49093627929688,2256.5185546875,459.3745422363281,2256.5185546875
1971.94921875,2279.93896484375,1971.94921875,2248.3720703125,2101.3076171875,2248.3720703125,2101.3076171875,2279.93896484375
1702.028564453125,2275.865966796875,1666.378662109375,2275.865966796875,1666.378662109375,2240.22607421875,1702.028564453125,2240.22607421875
1856.8509521484375,2271.79296875,1825.275390625,2271.79296875,1825.275390625,2240.22607421875,1856.8509521484375,2240.22607421875
1803.8853759765625,2275.865966796875,1772.309814453125,2275.865966796875,1772.309814453125,2236.15283203125,1803.8853759765625,2236.15283203125
1750.9197998046875,2271.79296875,1719.34423828125,2271.79296875,1719.34423828125,2240.22607421875,1750.9197998046875,2240.22607421875
1547.2060546875,2251.42724609375,1373.03076171875,2251.42724609375,1373.03076171875,2219.8603515625,1547.2060546875,2219.8603515625
1253.8582763671875,2251.42724609375,1140.797119140625,2251.42724609375,1140.797119140625,2219.8603515625,1253.8582763671875,2219.8603515625
933.009033203125,2247.353759765625,933.009033203125,2215.787109375,1021.62451171875,2215.787109375,1021.62451171875,2247.353759765625
700.7753295898438,2247.35400390625,700.7753295898438,2215.787353515625,817.9107666015625,2215.787353515625,817.9107666015625,2247.35400390625
586.6956787109375,2247.35400390625,586.6956787109375,2211.714111328125,675.3111572265625,2211.714111328125,675.3111572265625,2247.35400390625
277.0506896972656,2243.28076171875,277.0506896972656,2211.7138671875,328.9977111816406,2211.7138671875,328.9977111816406,2243.28076171875
387.05615234375,2247.35400390625,387.05615234375,2211.714111328125,459.3745422363281,2211.714111328125,459.3745422363281,2247.35400390625
276.03216552734375,2235.134765625,256.6793518066406,2235.134765625,256.6793518066406,2211.714111328125,276.03216552734375,2211.714111328125
214.91802978515625,2243.281005859375,187.4166717529297,2243.281005859375,187.4166717529297,2211.714111328125,214.91802978515625,2211.714111328125
1971.94921875,2202.54931640625,1971.94921875,2166.909423828125,2113.5302734375,2166.909423828125,2113.5302734375,2202.54931640625
1902.6865234375,2198.47607421875,1902.6865234375,2166.909423828125,1958.7078857421875,2166.909423828125,1958.7078857421875,2198.47607421875
1885.3709716796875,2202.549560546875,1829.349609375,2202.549560546875,1829.349609375,2166.90966796875,1885.3709716796875,2166.90966796875
1674.5272216796875,2198.476318359375,1674.5272216796875,2162.83642578125,1816.1082763671875,2162.83642578125,1816.1082763671875,2198.476318359375
459.3745422363281,2202.549560546875,358.5362243652344,2202.549560546875,358.5362243652344,2166.90966796875,459.3745422363281,2166.90966796875
324.9234619140625,2202.549560546875,224.08514404296875,2202.549560546875,224.08514404296875,2166.90966796875,324.9234619140625,2166.90966796875
214.91802978515625,2202.549560546875,183.34239196777344,2202.549560546875,183.34239196777344,2166.90966796875,214.91802978515625,2166.90966796875
1571.6517333984375,2194.4033203125,1470.8133544921875,2194.4033203125,1470.8133544921875,2158.763427734375,1571.6517333984375,2158.763427734375
1347.5665283203125,2194.4033203125,1258.9510498046875,2194.4033203125,1258.9510498046875,2158.763427734375,1347.5665283203125,2158.763427734375
1123.4814453125,2190.330078125,1100.0543212890625,2190.330078125,1100.0543212890625,2158.763427734375,1123.4814453125,2158.763427734375
899.3963012695312,2190.330078125,806.70654296875,2190.330078125,806.70654296875,2158.763427734375,899.3963012695312,2158.763427734375
566.3242797851562,2190.330078125,566.3242797851562,2154.690185546875,675.3111572265625,2154.690185546875,675.3111572265625,2190.330078125
2057.509033203125,2157.7451171875,2057.509033203125,2118.031982421875,2170.570068359375,2118.031982421875,2170.570068359375,2157.7451171875
2052.416259765625,2153.671875,1927.1322021484375,2153.671875,1927.1322021484375,2122.10498046875,2052.416259765625,2122.10498046875
1917.965087890625,2153.671875,1829.349609375,2153.671875,1829.349609375,2122.10498046875,1917.965087890625,2122.10498046875
1816.1082763671875,2153.671875,1674.5272216796875,2153.671875,1674.5272216796875,2122.10498046875,1816.1082763671875,2122.10498046875
463.4488220214844,2157.7451171875,427.7989196777344,2157.7451171875,427.7989196777344,2126.17822265625,463.4488220214844,2126.17822265625
214.91802978515625,2157.7451171875,183.34239196777344,2157.7451171875,183.34239196777344,2122.10498046875,214.91802978515625,2122.10498046875
1657.2115478515625,2149.5986328125,1633.784423828125,2149.5986328125,1633.784423828125,2122.10498046875,1657.2115478515625,2122.10498046875
1575.7259521484375,2149.5986328125,1548.224609375,2149.5986328125,1548.224609375,2122.10498046875,1575.7259521484375,2122.10498046875
1347.5665283203125,2145.525634765625,1324.1395263671875,2145.525634765625,1324.1395263671875,2118.031982421875,1347.5665283203125,2118.031982421875
1100.0543212890625,2149.5986328125,1100.0543212890625,2118.031982421875,1123.4814453125,2118.031982421875,1123.4814453125,2149.5986328125
899.3963012695312,2145.525634765625,875.9691772460938,2145.525634765625,875.9691772460938,2118.031982421875,899.3963012695312,2118.031982421875
675.3111572265625,2145.525634765625,651.884033203125,2145.525634765625,651.884033203125,2113.958740234375,675.3111572265625,2113.958740234375
350.3876647949219,2112.9404296875,350.3876647949219,2081.373779296875,451.2259826660156,2081.373779296875,451.2259826660156,2112.9404296875
224.08514404296875,2112.9404296875,224.08514404296875,2081.373779296875,324.9234619140625,2081.373779296875,324.9234619140625,2112.9404296875
214.91802978515625,2112.9404296875,183.34239196777344,2112.9404296875,183.34239196777344,2081.373779296875,214.91802978515625,2081.373779296875
2012.6920166015625,2112.9404296875,2012.6920166015625,2073.227294921875,2133.901611328125,2073.227294921875,2133.901611328125,2112.9404296875
1999.45068359375,2112.9404296875,1849.720947265625,2112.9404296875,1849.720947265625,2077.300537109375,1999.45068359375,2077.300537109375
1836.4796142578125,2112.9404296875,1719.34423828125,2112.9404296875,1719.34423828125,2073.227294921875,1836.4796142578125,2073.227294921875
1706.102783203125,2108.867431640625,1674.5272216796875,2108.867431640625,1674.5272216796875,2073.227294921875,1706.102783203125,2073.227294921875
1629.7100830078125,2104.794189453125,1629.7100830078125,2077.300537109375,1657.2115478515625,2077.300537109375,1657.2115478515625,2104.794189453125
1470.8133544921875,2108.867431640625,1470.8133544921875,2073.227294921875,1571.6517333984375,2073.227294921875,1571.6517333984375,2108.867431640625
1324.1395263671875,2104.794189453125,1324.1395263671875,2073.227294921875,1343.4923095703125,2073.227294921875,1343.4923095703125,2104.794189453125
619.289794921875,2100.72119140625,619.289794921875,2073.227294921875,675.3110961914062,2073.227294921875,675.3110961914062,2100.72119140625
1123.4814453125,2104.794189453125,1100.0543212890625,2104.794189453125,1100.0543212890625,2073.227294921875,1123.4814453125,2073.227294921875
895.322021484375,2104.794189453125,859.672119140625,2104.794189453125,859.672119140625,2073.227294921875,895.322021484375,2073.227294921875
395.2047119140625,2072.209228515625,395.2047119140625,2040.642333984375,459.3745422363281,2040.642333984375,459.3745422363281,2072.209228515625
333.072021484375,2072.209228515625,248.53079223632812,2072.209228515625,248.53079223632812,2036.5692138671875,333.072021484375,2036.5692138671875
1939.3551025390625,2059.98974609375,1939.3551025390625,2024.3497314453125,2060.564697265625,2024.3497314453125,2060.564697265625,2059.98974609375
1776.384033203125,2059.98974609375,1776.384033203125,2028.4228515625,1922.0394287109375,2028.4228515625,1922.0394287109375,2059.98974609375
1575.7259521484375,2059.98974609375,1548.224609375,2059.98974609375,1548.224609375,2032.4959716796875,1575.7259521484375,2032.4959716796875
1763.1427001953125,2055.91650390625,1674.5272216796875,2055.91650390625,1674.5272216796875,2024.3497314453125,1763.1427001953125,2024.3497314453125
1347.5665283203125,2059.98974609375,1324.1395263671875,2059.98974609375,1324.1395263671875,2028.4228515625,1347.5665283203125,2028.4228515625
1123.4814453125,2059.98974609375,1100.0543212890625,2059.98974609375,1100.0543212890625,2028.4228515625,1123.4814453125,2028.4228515625
899.3963012695312,2059.98974609375,875.9691772460938,2059.98974609375,875.9691772460938,2028.4228515625,899.3963012695312,2028.4228515625
675.3111572265625,2059.98974609375,651.884033203125,2059.98974609375,651.884033203125,2028.4228515625,675.3111572265625,2028.4228515625
304.5520935058594,2027.404541015625,281.125,2027.404541015625,281.125,1995.8377685546875,304.5520935058594,1995.8377685546875
280.1064147949219,2027.404541015625,248.53079223632812,2027.404541015625,248.53079223632812,1995.8377685546875,280.1064147949219,1995.8377685546875
459.3745422363281,2023.3314208984375,427.7989196777344,2023.3314208984375,427.7989196777344,1995.8377685546875,459.3745422363281,1995.8377685546875
402.3346862792969,2027.404541015625,370.7590637207031,2027.404541015625,370.7590637207031,1991.7646484375,402.3346862792969,1991.7646484375
341.2205505371094,2027.404541015625,305.5706481933594,2027.404541015625,305.5706481933594,1991.7646484375,341.2205505371094,1991.7646484375
2117.6044921875,2019.25830078125,2028.9891357421875,2019.25830078125,2028.9891357421875,1983.618408203125,2117.6044921875,1983.618408203125
2011.6734619140625,2019.25830078125,1898.6123046875,2019.25830078125,1898.6123046875,1983.618408203125,2011.6734619140625,1983.618408203125
1776.384033203125,2019.25830078125,1776.384033203125,1983.618408203125,1836.4796142578125,1983.618408203125,1836.4796142578125,2019.25830078125
1674.5272216796875,2015.1851806640625,1674.5272216796875,1983.618408203125,1759.068359375,1983.618408203125,1759.068359375,2015.1851806640625
1548.224609375,2015.1851806640625,1548.224609375,1987.6915283203125,1571.6517333984375,1987.6915283203125,1571.6517333984375,2015.1851806640625
1877.222412109375,2019.25830078125,1849.720947265625,2019.25830078125,1849.720947265625,1983.618408203125,1877.222412109375,1983.618408203125
1657.2115478515625,2015.1851806640625,1629.7100830078125,2015.1851806640625,1629.7100830078125,1983.618408203125,1657.2115478515625,1983.618408203125
1347.5665283203125,2015.1851806640625,1324.1395263671875,2015.1851806640625,1324.1395263671875,1983.618408203125,1347.5665283203125,1983.618408203125
1123.4814453125,2015.1851806640625,1100.0543212890625,2015.1851806640625,1100.0543212890625,1983.618408203125,1123.4814453125,1983.618408203125
899.3963012695312,2015.1851806640625,875.9691772460938,2015.1851806640625,875.9691772460938,1983.618408203125,899.3963012695312,1983.618408203125
675.3111572265625,2015.1851806640625,651.884033203125,2015.1851806640625,651.884033203125,1983.618408203125,675.3111572265625,1983.618408203125
459.3745422363281,1982.60009765625,358.5362243652344,1982.60009765625,358.5362243652344,1951.033203125,459.3745422363281,1951.033203125
214.91802978515625,1990.746337890625,179.2681121826172,1990.746337890625,179.2681121826172,1955.1064453125,214.91802978515625,1955.1064453125
345.2948303222656,1982.60009765625,248.53079223632812,1982.60009765625,248.53079223632812,1951.033203125,345.2948303222656,1951.033203125
1548.224609375,1970.380615234375,1548.224609375,1942.886962890625,1575.7259521484375,1942.886962890625,1575.7259521484375,1970.380615234375
1347.5665283203125,1970.380615234375,1324.1395263671875,1970.380615234375,1324.1395263671875,1938.8138427734375,1347.5665283203125,1938.8138427734375
1123.4814453125,1970.380615234375,1100.0543212890625,1970.380615234375,1100.0543212890625,1938.8138427734375,1123.4814453125,1938.8138427734375
899.3963012695312,1970.380615234375,875.9691772460938,1970.380615234375,875.9691772460938,1938.8138427734375,899.3963012695312,1938.8138427734375
675.3111572265625,1970.380615234375,651.884033203125,1970.380615234375,651.884033203125,1938.8138427734375,675.3111572265625,1938.8138427734375
459.3745422363281,1937.7955322265625,366.6847839355469,1937.7955322265625,366.6847839355469,1906.228759765625,459.3745422363281,1906.228759765625
345.2948303222656,1941.86865234375,248.53079223632812,1941.86865234375,248.53079223632812,1906.228759765625,345.2948303222656,1906.228759765625
214.91802978515625,1933.722412109375,179.2681121826172,1933.722412109375,179.2681121826172,1894.00927734375,214.91802978515625,1894.00927734375
1571.6517333984375,1925.576171875,1548.224609375,1925.576171875,1548.224609375,1894.00927734375,1571.6517333984375,1894.00927734375
1347.5665283203125,1925.576171875,1324.1395263671875,1925.576171875,1324.1395263671875,1894.00927734375,1347.5665283203125,1894.00927734375
1123.4814453125,1925.576171875,1100.0543212890625,1925.576171875,1100.0543212890625,1889.9361572265625,1123.4814453125,1889.9361572265625
899.3963012695312,1925.576171875,875.9691772460938,1925.576171875,875.9691772460938,1889.9361572265625,899.3963012695312,1889.9361572265625
675.3111572265625,1925.576171875,651.884033203125,1925.576171875,651.884033203125,1889.9361572265625,675.3111572265625,1889.9361572265625
459.3745422363281,1892.9910888671875,423.7246398925781,1892.9910888671875,423.7246398925781,1865.497314453125,459.3745422363281,1865.497314453125
418.6318054199219,1892.9910888671875,382.98187255859375,1892.9910888671875,382.98187255859375,1861.4241943359375,418.6318054199219,1861.4241943359375
381.96331787109375,1892.9910888671875,342.2391357421875,1892.9910888671875,342.2391357421875,1861.4241943359375,381.96331787109375,1861.4241943359375
316.77490234375,1892.9910888671875,248.53079223632812,1892.9910888671875,248.53079223632812,1861.4241943359375,316.77490234375,1861.4241943359375
1571.6517333984375,1880.7716064453125,1548.224609375,1880.7716064453125,1548.224609375,1849.204833984375,1571.6517333984375,1849.204833984375
1343.4923095703125,1880.7716064453125,1324.1395263671875,1880.7716064453125,1324.1395263671875,1845.1317138671875,1343.4923095703125,1845.1317138671875
1123.4814453125,1876.698486328125,1100.0543212890625,1876.698486328125,1100.0543212890625,1845.1317138671875,1123.4814453125,1845.1317138671875
899.3963012695312,1876.698486328125,875.9691772460938,1876.698486328125,875.9691772460938,1845.1317138671875,899.3963012695312,1845.1317138671875
675.3111572265625,1876.698486328125,651.884033203125,1876.698486328125,651.884033203125,1845.1317138671875,675.3111572265625,1845.1317138671875
214.91802978515625,1872.6253662109375,179.2681121826172,1872.6253662109375,179.2681121826172,1836.9853515625,214.91802978515625,1836.9853515625
459.3745422363281,1852.2596435546875,382.98187255859375,1852.2596435546875,382.98187255859375,1816.61962890625,459.3745422363281,1816.61962890625
312.70062255859375,1852.2596435546875,248.53079223632812,1852.2596435546875,248.53079223632812,1816.61962890625,312.70062255859375,1816.61962890625
1571.6517333984375,1835.967041015625,1548.224609375,1835.967041015625,1548.224609375,1800.3271484375,1571.6517333984375,1800.3271484375
1347.5665283203125,1831.8939208984375,1324.1395263671875,1831.8939208984375,1324.1395263671875,1800.3271484375,1347.5665283203125,1800.3271484375
1123.4814453125,1831.8939208984375,1100.0543212890625,1831.8939208984375,1100.0543212890625,1800.3271484375,1123.4814453125,1800.3271484375
899.3963012695312,1831.8939208984375,875.9691772460938,1831.8939208984375,875.9691772460938,1800.3271484375,899.3963012695312,1800.3271484375
675.3111572265625,1831.8939208984375,651.884033203125,1831.8939208984375,651.884033203125,1800.3271484375,675.3111572265625,1800.3271484375
179.2681121826172,1815.6014404296875,179.2681121826172,1779.96142578125,214.91802978515625,1779.96142578125,214.91802978515625,1815.6014404296875
459.3745422363281,1807.455078125,330.01629638671875,1807.455078125,330.01629638671875,1771.815185546875,459.3745422363281,1771.815185546875
1571.6517333984375,1787.0894775390625,1548.224609375,1787.0894775390625,1548.224609375,1755.5225830078125,1571.6517333984375,1755.5225830078125
1347.5665283203125,1787.0894775390625,1320.065185546875,1787.0894775390625,1320.065185546875,1751.449462890625,1347.5665283203125,1751.449462890625
1123.4814453125,1787.0894775390625,1100.0543212890625,1787.0894775390625,1100.0543212890625,1755.5225830078125,1123.4814453125,1755.5225830078125
899.3963012695312,1787.0894775390625,875.9691772460938,1787.0894775390625,875.9691772460938,1755.5225830078125,899.3963012695312,1755.5225830078125
647.8097534179688,1787.0894775390625,647.8097534179688,1751.449462890625,675.3111572265625,1751.449462890625,675.3111572265625,1787.0894775390625
244.45654296875,1762.650634765625,244.45654296875,1727.0106201171875,459.3745422363281,1727.0106201171875,459.3745422363281,1762.650634765625
1571.6517333984375,1742.284912109375,1548.224609375,1742.284912109375,1548.224609375,1710.7181396484375,1571.6517333984375,1710.7181396484375
1343.4923095703125,1742.284912109375,1320.065185546875,1742.284912109375,1320.065185546875,1706.6448974609375,1343.4923095703125,1706.6448974609375
1123.4814453125,1742.284912109375,1100.0543212890625,1742.284912109375,1100.0543212890625,1706.6448974609375,1123.4814453125,1706.6448974609375
899.3963012695312,1742.284912109375,871.8948974609375,1742.284912109375,871.8948974609375,1706.6448974609375,899.3963012695312,1706.6448974609375
675.3111572265625,1742.284912109375,647.8097534179688,1742.284912109375,647.8097534179688,1706.6448974609375,675.3111572265625,1706.6448974609375
455.3002624511719,1717.8460693359375,427.7989196777344,1717.8460693359375,427.7989196777344,1686.279296875,455.3002624511719,1686.279296875
414.5575256347656,1721.919189453125,248.53079223632812,1721.919189453125,248.53079223632812,1686.279296875,414.5575256347656,1686.279296875
1123.4814453125,1693.4072265625,1100.0543212890625,1693.4072265625,1100.0543212890625,1665.91357421875,1123.4814453125,1665.91357421875
1571.6517333984375,1697.4803466796875,1548.224609375,1697.4803466796875,1548.224609375,1665.91357421875,1571.6517333984375,1665.91357421875
1343.4923095703125,1697.4803466796875,1320.065185546875,1697.4803466796875,1320.065185546875,1661.8404541015625,1343.4923095703125,1661.8404541015625
871.8948974609375,1693.4072265625,871.8948974609375,1665.91357421875,899.3963012695312,1665.91357421875,899.3963012695312,1693.4072265625
675.3111572265625,1693.4072265625,651.884033203125,1693.4072265625,651.884033203125,1661.8404541015625,675.3111572265625,1661.8404541015625
459.3745422363281,1673.04150390625,248.53079223632812,1673.04150390625,248.53079223632812,1641.4747314453125,459.3745422363281,1641.4747314453125
2162.421630859375,1660.8221435546875,1976.0235595703125,1660.8221435546875,1976.0235595703125,1621.1090087890625,2162.421630859375,1621.1090087890625
1575.7259521484375,1652.6759033203125,1548.224609375,1652.6759033203125,1548.224609375,1621.1090087890625,1575.7259521484375,1621.1090087890625
1347.5665283203125,1652.6759033203125,1320.065185546875,1652.6759033203125,1320.065185546875,1617.035888671875,1347.5665283203125,1617.035888671875
1123.4814453125,1652.6759033203125,1100.0543212890625,1652.6759033203125,1100.0543212890625,1617.035888671875,1123.4814453125,1617.035888671875
899.3963012695312,1652.6759033203125,871.8948974609375,1652.6759033203125,871.8948974609375,1617.035888671875,899.3963012695312,1617.035888671875
675.3111572265625,1648.602783203125,647.8097534179688,1648.602783203125,647.8097534179688,1617.035888671875,675.3111572265625,1617.035888671875
1666.378662109375,1636.38330078125,1666.378662109375,1600.743408203125,1860.92529296875,1600.743408203125,1860.92529296875,1636.38330078125
455.3002624511719,1632.3101806640625,427.7989196777344,1632.3101806640625,427.7989196777344,1600.743408203125,455.3002624511719,1600.743408203125
414.5575256347656,1632.3101806640625,382.98187255859375,1632.3101806640625,382.98187255859375,1596.670166015625,414.5575256347656,1596.670166015625
369.740478515625,1632.3101806640625,338.16485595703125,1632.3101806640625,338.16485595703125,1596.670166015625,369.740478515625,1596.670166015625
324.9234619140625,1632.3101806640625,293.34783935546875,1632.3101806640625,293.34783935546875,1596.670166015625,324.9234619140625,1596.670166015625
280.1064147949219,1632.3101806640625,248.53079223632812,1632.3101806640625,248.53079223632812,1596.670166015625,280.1064147949219,1596.670166015625
2154.273193359375,1607.871337890625,1910.8350830078125,1607.871337890625,1910.8350830078125,1572.2314453125,2154.273193359375,1572.2314453125
1575.7259521484375,1607.871337890625,1548.224609375,1607.871337890625,1548.224609375,1576.3045654296875,1575.7259521484375,1576.3045654296875
1347.5665283203125,1607.871337890625,1320.065185546875,1607.871337890625,1320.065185546875,1572.2314453125,1347.5665283203125,1572.2314453125
1123.4814453125,1607.871337890625,1100.0543212890625,1607.871337890625,1100.0543212890625,1572.2314453125,1123.4814453125,1572.2314453125
899.3963012695312,1607.871337890625,871.8948974609375,1607.871337890625,871.8948974609375,1572.2314453125,899.3963012695312,1572.2314453125
675.3111572265625,1603.7982177734375,651.884033203125,1603.7982177734375,651.884033203125,1572.2314453125,675.3111572265625,1572.2314453125
1670.452880859375,1591.578857421875,1670.452880859375,1555.9388427734375,1852.7767333984375,1555.9388427734375,1852.7767333984375,1591.578857421875
342.2391052246094,1583.432373046875,342.2391052246094,1551.8656005859375,459.37451171875,1551.8656005859375,459.37451171875,1583.432373046875
248.53079223632812,1587.5054931640625,248.53079223632812,1555.938720703125,300.4778137207031,1555.938720703125,300.4778137207031,1587.5054931640625
301.4963684082031,1587.505615234375,301.4963684082031,1551.86572265625,333.072021484375,1551.86572265625,333.072021484375,1587.505615234375
1100.0543212890625,1563.0667724609375,1100.0543212890625,1527.4268798828125,1123.4814453125,1527.4268798828125,1123.4814453125,1563.0667724609375
1571.6517333984375,1563.0667724609375,1548.224609375,1563.0667724609375,1548.224609375,1531.5,1571.6517333984375,1531.5
1347.5665283203125,1563.0667724609375,1320.065185546875,1563.0667724609375,1320.065185546875,1527.4268798828125,1347.5665283203125,1527.4268798828125
899.3963012695312,1563.0667724609375,871.8948974609375,1563.0667724609375,871.8948974609375,1527.4268798828125,899.3963012695312,1527.4268798828125
675.3111572265625,1563.0667724609375,651.884033203125,1563.0667724609375,651.884033203125,1527.4268798828125,675.3111572265625,1527.4268798828125
1905.7423095703125,1550.847412109375,1747.8641357421875,1550.847412109375,1747.8641357421875,1515.2073974609375,1905.7423095703125,1515.2073974609375
324.9234619140625,1542.701171875,285.19927978515625,1542.701171875,285.19927978515625,1511.13427734375,324.9234619140625,1511.13427734375
459.3745422363281,1542.701171875,427.7989196777344,1542.701171875,427.7989196777344,1511.13427734375,459.3745422363281,1511.13427734375
374.8333435058594,1538.6280517578125,374.8333435058594,1507.0611572265625,414.5575256347656,1507.0611572265625,414.5575256347656,1538.6280517578125
369.740478515625,1542.701171875,338.16485595703125,1542.701171875,338.16485595703125,1507.0611572265625,369.740478515625,1507.0611572265625
280.1064147949219,1542.701171875,248.53079223632812,1542.701171875,248.53079223632812,1507.0611572265625,280.1064147949219,1507.0611572265625
2130.845947265625,1514.189208984375,2130.845947265625,1486.6954345703125,2162.421630859375,1486.6954345703125,2162.421630859375,1514.189208984375
1571.6517333984375,1514.189208984375,1552.2989501953125,1514.189208984375,1552.2989501953125,1486.6954345703125,1571.6517333984375,1486.6954345703125
1123.4814453125,1518.2623291015625,1100.0543212890625,1518.2623291015625,1100.0543212890625,1482.622314453125,1123.4814453125,1482.622314453125
899.3963012695312,1518.2623291015625,871.8948974609375,1518.2623291015625,871.8948974609375,1482.622314453125,899.3963012695312,1482.622314453125
1347.5665283203125,1518.2623291015625,1320.065185546875,1518.2623291015625,1320.065185546875,1482.622314453125,1347.5665283203125,1482.622314453125
675.3111572265625,1514.189208984375,651.884033203125,1514.189208984375,651.884033203125,1482.622314453125,675.3111572265625,1482.622314453125
1897.59375,1501.9697265625,1866.01806640625,1501.9697265625,1866.01806640625,1474.47607421875,1897.59375,1474.47607421875
1723.41845703125,1501.9696044921875,1723.41845703125,1470.40283203125,1771.291259765625,1470.40283203125,1771.291259765625,1501.9696044921875
1710.1771240234375,1501.9697265625,1617.4873046875,1501.9697265625,1617.4873046875,1470.4029541015625,1710.1771240234375,1470.4029541015625
459.22064208984375,1503.5892333984375,247.78802490234375,1497.8765869140625,248.7471160888672,1462.4002685546875,460.17974853515625,1468.1129150390625
210.84375,1481.60400390625,179.2681121826172,1481.60400390625,179.2681121826172,1445.964111328125,210.84375,1445.964111328125
2033.0633544921875,1477.53076171875,2033.0633544921875,1437.8177490234375,2162.421630859375,1437.8177490234375,2162.421630859375,1477.53076171875
1571.6517333984375,1473.457763671875,1548.224609375,1473.457763671875,1548.224609375,1441.8909912109375,1571.6517333984375,1441.8909912109375
1123.4814453125,1473.457763671875,1100.0543212890625,1473.457763671875,1100.0543212890625,1437.81787109375,1123.4814453125,1437.81787109375
899.3963012695312,1473.457763671875,871.8948974609375,1473.457763671875,871.8948974609375,1437.81787109375,899.3963012695312,1437.81787109375
675.3111572265625,1469.3846435546875,647.8097534179688,1469.3846435546875,647.8097534179688,1437.81787109375,675.3111572265625,1437.81787109375
1347.5665283203125,1473.457763671875,1320.065185546875,1473.457763671875,1320.065185546875,1437.81787109375,1347.5665283203125,1437.81787109375
1901.66796875,1461.2384033203125,1870.0924072265625,1461.2384033203125,1870.0924072265625,1429.6715087890625,1901.66796875,1429.6715087890625
1751.9383544921875,1461.2384033203125,1751.9383544921875,1429.6715087890625,1783.5140380859375,1429.6715087890625,1783.5140380859375,1461.2384033203125
370.7590637207031,1449.0189208984375,370.7590637207031,1425.598388671875,386.03759765625,1425.598388671875,386.03759765625,1449.0189208984375
459.3745422363281,1453.092041015625,427.7989196777344,1453.092041015625,427.7989196777344,1421.5252685546875,459.3745422363281,1421.5252685546875
324.9234619140625,1453.092041015625,293.34783935546875,1453.092041015625,293.34783935546875,1421.5252685546875,324.9234619140625,1421.5252685546875
280.1064147949219,1453.092041015625,248.53079223632812,1453.092041015625,248.53079223632812,1421.5252685546875,280.1064147949219,1421.5252685546875
2130.845947265625,1432.7264404296875,2130.845947265625,1401.1595458984375,2162.421630859375,1401.1595458984375,2162.421630859375,1432.7264404296875
1571.6517333984375,1428.6533203125,1548.224609375,1428.6533203125,1548.224609375,1397.08642578125,1571.6517333984375,1397.08642578125
1347.5665283203125,1428.6533203125,1320.065185546875,1428.6533203125,1320.065185546875,1393.0133056640625,1347.5665283203125,1393.0133056640625
1123.4814453125,1428.6533203125,1100.0543212890625,1428.6533203125,1100.0543212890625,1393.0133056640625,1123.4814453125,1393.0133056640625
899.3963012695312,1428.6533203125,871.8948974609375,1428.6533203125,871.8948974609375,1393.0133056640625,899.3963012695312,1393.0133056640625
675.3111572265625,1428.6533203125,647.8097534179688,1428.6533203125,647.8097534179688,1393.0133056640625,675.3111572265625,1393.0133056640625
1730.5484619140625,1424.580078125,1670.452880859375,1424.580078125,1670.452880859375,1388.940185546875,1730.5484619140625,1388.940185546875
1653.13720703125,1420.5069580078125,1621.5616455078125,1420.5069580078125,1621.5616455078125,1388.940185546875,1653.13720703125,1388.940185546875
1756.0126953125,1416.433837890625,1756.0126953125,1380.7939453125,1783.5140380859375,1380.7939453125,1783.5140380859375,1416.433837890625
1901.66796875,1416.433837890625,1870.0924072265625,1416.433837890625,1870.0924072265625,1380.7939453125,1901.66796875,1380.7939453125
459.3745422363281,1408.28759765625,427.7989196777344,1408.28759765625,427.7989196777344,1376.720703125,459.3745422363281,1376.720703125
369.740478515625,1408.28759765625,338.16485595703125,1408.28759765625,338.16485595703125,1376.720703125,369.740478515625,1376.720703125
280.1064147949219,1408.28759765625,248.53079223632812,1408.28759765625,248.53079223632812,1376.720703125,280.1064147949219,1376.720703125
2045.2862548828125,1391.9949951171875,2045.2862548828125,1352.281982421875,2158.347412109375,1352.281982421875,2158.347412109375,1391.9949951171875
210.84375,1396.068115234375,183.34239196777344,1396.068115234375,183.34239196777344,1360.42822265625,210.84375,1360.42822265625
1127.5556640625,1383.8487548828125,1100.0543212890625,1383.8487548828125,1100.0543212890625,1352.281982421875,1127.5556640625,1352.281982421875
1571.6517333984375,1383.8487548828125,1548.224609375,1383.8487548828125,1548.224609375,1352.281982421875,1571.6517333984375,1352.281982421875
1347.5665283203125,1383.8487548828125,1320.065185546875,1383.8487548828125,1320.065185546875,1352.281982421875,1347.5665283203125,1352.281982421875
871.8948974609375,1383.8487548828125,871.8948974609375,1352.281982421875,899.3963012695312,1352.281982421875,899.3963012695312,1383.8487548828125
647.8097534179688,1383.8487548828125,647.8097534179688,1352.281982421875,675.3111572265625,1352.281982421875,675.3111572265625,1383.8487548828125
1756.0126953125,1367.55615234375,1756.0126953125,1335.9893798828125,1897.59375,1335.9893798828125,1897.59375,1367.55615234375
459.3745422363281,1367.55615234375,370.7590637207031,1367.55615234375,370.7590637207031,1331.916259765625,459.3745422363281,1331.916259765625
1730.5484619140625,1363.4830322265625,1666.378662109375,1363.4830322265625,1666.378662109375,1331.916259765625,1730.5484619140625,1331.916259765625
1649.06298828125,1363.4830322265625,1617.4873046875,1363.4830322265625,1617.4873046875,1331.916259765625,1649.06298828125,1331.916259765625
313.7192077636719,1367.55615234375,313.7192077636719,1331.916259765625,357.5176696777344,1331.916259765625,357.5176696777344,1367.55615234375
312.70062255859375,1363.4830322265625,248.53079223632812,1363.4830322265625,248.53079223632812,1331.916259765625,312.70062255859375,1331.916259765625
1100.0543212890625,1343.1173095703125,1100.0543212890625,1327.8431396484375,1123.4814453125,1327.8431396484375,1123.4814453125,1343.1173095703125
2158.347412109375,1347.1905517578125,2130.845947265625,1347.1905517578125,2130.845947265625,1311.550537109375,2158.347412109375,1311.550537109375
1347.5665283203125,1343.1173095703125,1320.065185546875,1343.1173095703125,1320.065185546875,1307.4774169921875,1347.5665283203125,1307.4774169921875
1123.4814453125,1330.89794921875,1100.0543212890625,1330.89794921875,1100.0543212890625,1307.4774169921875,1123.4814453125,1307.4774169921875
899.3963012695312,1343.1173095703125,871.8948974609375,1343.1173095703125,871.8948974609375,1307.4774169921875,899.3963012695312,1307.4774169921875
679.3854370117188,1339.044189453125,647.8097534179688,1339.044189453125,647.8097534179688,1307.4774169921875,679.3854370117188,1307.4774169921875
382.98187255859375,1314.6053466796875,382.98187255859375,1299.3311767578125,414.5575256347656,1299.3311767578125,414.5575256347656,1314.6053466796875
1901.66796875,1322.751708984375,1870.0924072265625,1322.751708984375,1870.0924072265625,1295.2579345703125,1901.66796875,1295.2579345703125
1783.5140380859375,1318.6785888671875,1751.9383544921875,1318.6785888671875,1751.9383544921875,1291.184814453125,1783.5140380859375,1291.184814453125
293.34783935546875,1318.6785888671875,293.34783935546875,1291.184814453125,333.072021484375,1291.184814453125,333.072021484375,1318.6785888671875
423.7246398925781,1318.6785888671875,423.7246398925781,1287.1116943359375,455.3002624511719,1287.1116943359375,455.3002624511719,1318.6785888671875
365.66619873046875,1322.751708984375,334.090576171875,1322.751708984375,334.090576171875,1287.1116943359375,365.66619873046875,1287.1116943359375
280.1064147949219,1318.6785888671875,244.45652770996094,1318.6785888671875,244.45652770996094,1287.1116943359375,280.1064147949219,1287.1116943359375
210.84375,1310.5322265625,179.2681121826172,1310.5322265625,179.2681121826172,1274.892333984375,210.84375,1274.892333984375
1571.6517333984375,1298.3128662109375,1548.224609375,1298.3128662109375,1548.224609375,1266.7459716796875,1571.6517333984375,1266.7459716796875
1100.0543212890625,1298.3128662109375,1100.0543212890625,1262.6728515625,1127.5556640625,1262.6728515625,1127.5556640625,1298.3128662109375
1347.5665283203125,1298.3128662109375,1320.065185546875,1298.3128662109375,1320.065185546875,1262.6728515625,1347.5665283203125,1262.6728515625
875.9691772460938,1298.3128662109375,875.9691772460938,1262.6728515625,899.3963012695312,1262.6728515625,899.3963012695312,1298.3128662109375
679.3854370117188,1298.3128662109375,647.8097534179688,1298.3128662109375,647.8097534179688,1262.6728515625,679.3854370117188,1262.6728515625
1817.1268310546875,1277.9471435546875,1817.1268310546875,1250.4534912109375,1869.0738525390625,1250.4534912109375,1869.0738525390625,1277.9471435546875
1650.08154296875,1277.947021484375,1650.08154296875,1250.453369140625,1697.9542236328125,1250.453369140625,1697.9542236328125,1277.947021484375
455.3002624511719,1282.020263671875,366.6847839355469,1282.020263671875,366.6847839355469,1250.4534912109375,455.3002624511719,1250.4534912109375
2158.347412109375,1282.020263671875,2045.2862548828125,1282.020263671875,2045.2862548828125,1242.30712890625,2158.347412109375,1242.30712890625
337.1462707519531,1257.5814208984375,244.45652770996094,1257.5814208984375,244.45652770996094,1226.0146484375,337.1462707519531,1226.0146484375
1571.6517333984375,1253.50830078125,1548.224609375,1253.50830078125,1548.224609375,1226.0146484375,1571.6517333984375,1226.0146484375
1347.5665283203125,1253.50830078125,1320.065185546875,1253.50830078125,1320.065185546875,1221.9415283203125,1347.5665283203125,1221.9415283203125
1123.4814453125,1253.50830078125,1100.0543212890625,1253.50830078125,1100.0543212890625,1221.9415283203125,1123.4814453125,1221.9415283203125
871.8948974609375,1253.50830078125,871.8948974609375,1221.9415283203125,899.3963012695312,1221.9415283203125,899.3963012695312,1253.50830078125
675.3111572265625,1253.50830078125,647.8097534179688,1253.50830078125,647.8097534179688,1221.9415283203125,675.3111572265625,1221.9415283203125
1685.7314453125,1241.2889404296875,1650.08154296875,1241.2889404296875,1650.08154296875,1213.795166015625,1685.7314453125,1213.795166015625
1800.8297119140625,1245.3619384765625,1800.8297119140625,1209.721923828125,1873.1480712890625,1209.721923828125,1873.1480712890625,1245.3619384765625
1698.9727783203125,1241.288818359375,1698.9727783203125,1209.721923828125,1795.73681640625,1209.721923828125,1795.73681640625,1241.288818359375
370.759033203125,1237.2156982421875,370.759033203125,1205.6488037109375,455.30023193359375,1205.6488037109375,455.30023193359375,1237.2156982421875
210.84375,1220.9232177734375,179.2681121826172,1220.9232177734375,179.2681121826172,1185.283203125,210.84375,1185.283203125
2158.347412109375,1212.7769775390625,2130.845947265625,1212.7769775390625,2130.845947265625,1181.2100830078125,2158.347412109375,1181.2100830078125
1571.6517333984375,1212.7769775390625,1548.224609375,1212.7769775390625,1548.224609375,1181.2100830078125,1571.6517333984375,1181.2100830078125
1347.5665283203125,1212.7769775390625,1320.065185546875,1212.7769775390625,1320.065185546875,1177.136962890625,1347.5665283203125,1177.136962890625
1123.4814453125,1212.7769775390625,1100.0543212890625,1212.7769775390625,1100.0543212890625,1181.2100830078125,1123.4814453125,1181.2100830078125
871.8948974609375,1208.7037353515625,871.8948974609375,1177.136962890625,899.3963012695312,1177.136962890625,899.3963012695312,1208.7037353515625
675.3111572265625,1208.7037353515625,647.8097534179688,1208.7037353515625,647.8097534179688,1177.136962890625,675.3111572265625,1177.136962890625
1873.1480712890625,1192.4112548828125,1841.572509765625,1192.4112548828125,1841.572509765625,1160.8443603515625,1873.1480712890625,1160.8443603515625
1799.8111572265625,1196.484375,1768.2354736328125,1196.484375,1768.2354736328125,1164.9176025390625,1799.8111572265625,1164.9176025390625
1726.47412109375,1196.484375,1650.08154296875,1196.484375,1650.08154296875,1160.8443603515625,1726.47412109375,1160.8443603515625
455.3002624511719,1192.4112548828125,366.6847839355469,1192.4112548828125,366.6847839355469,1160.8443603515625,455.3002624511719,1160.8443603515625
333.072021484375,1184.2650146484375,244.45652770996094,1184.2650146484375,244.45652770996094,1160.8443603515625,333.072021484375,1160.8443603515625
2158.347412109375,1167.972412109375,2130.845947265625,1167.972412109375,2130.845947265625,1136.4056396484375,2158.347412109375,1136.4056396484375
1571.6517333984375,1167.972412109375,1548.224609375,1167.972412109375,1548.224609375,1136.4056396484375,1571.6517333984375,1136.4056396484375
1347.5665283203125,1167.972412109375,1320.065185546875,1167.972412109375,1320.065185546875,1132.3323974609375,1347.5665283203125,1132.3323974609375
1123.4814453125,1167.972412109375,1100.0543212890625,1167.972412109375,1100.0543212890625,1132.3323974609375,1123.4814453125,1132.3323974609375
899.3963012695312,1167.972412109375,871.8948974609375,1167.972412109375,871.8948974609375,1132.3323974609375,899.3963012695312,1132.3323974609375
675.3111572265625,1167.972412109375,651.884033203125,1167.972412109375,651.884033203125,1132.3323974609375,675.3111572265625,1132.3323974609375
1869.0738525390625,1151.6798095703125,1841.572509765625,1151.6798095703125,1841.572509765625,1120.113037109375,1869.0738525390625,1120.113037109375
1807.959716796875,1151.6798095703125,1764.1612548828125,1151.6798095703125,1764.1612548828125,1116.0399169921875,1807.959716796875,1116.0399169921875
1726.47412109375,1151.6798095703125,1650.08154296875,1151.6798095703125,1650.08154296875,1116.0399169921875,1726.47412109375,1116.0399169921875
455.3002624511719,1147.606689453125,366.6847839355469,1147.606689453125,366.6847839355469,1116.0399169921875,455.3002624511719,1116.0399169921875
297.4220886230469,1147.606689453125,297.4220886230469,1116.0399169921875,337.1462707519531,1116.0399169921875,337.1462707519531,1147.606689453125
2037.1376953125,1131.3140869140625,2037.1376953125,1091.6009521484375,2158.347412109375,1091.6009521484375,2158.347412109375,1131.3140869140625
1571.6517333984375,1123.1678466796875,1548.224609375,1123.1678466796875,1548.224609375,1091.60107421875,1571.6517333984375,1091.60107421875
1347.5665283203125,1123.1678466796875,1320.065185546875,1123.1678466796875,1320.065185546875,1091.60107421875,1347.5665283203125,1091.60107421875
1123.4814453125,1123.1678466796875,1100.0543212890625,1123.1678466796875,1100.0543212890625,1091.60107421875,1123.4814453125,1091.60107421875
899.3963012695312,1123.1678466796875,871.8948974609375,1123.1678466796875,871.8948974609375,1091.60107421875,899.3963012695312,1091.60107421875
679.3854370117188,1123.1678466796875,647.8097534179688,1123.1678466796875,647.8097534179688,1087.5279541015625,679.3854370117188,1087.5279541015625
1873.1480712890625,1110.948486328125,1739.715576171875,1110.948486328125,1739.715576171875,1071.2353515625,1873.1480712890625,1071.2353515625
1654.15576171875,1106.8753662109375,1654.15576171875,1071.2353515625,1734.6226806640625,1071.2353515625,1734.6226806640625,1106.8753662109375
459.3745422363281,1102.80224609375,423.7246398925781,1102.80224609375,423.7246398925781,1067.1622314453125,459.3745422363281,1067.1622314453125
280.1064147949219,1098.72900390625,244.45652770996094,1098.72900390625,244.45652770996094,1067.1622314453125,280.1064147949219,1067.1622314453125
1571.6517333984375,1078.3634033203125,1548.224609375,1078.3634033203125,1548.224609375,1046.7965087890625,1571.6517333984375,1046.7965087890625
1347.5665283203125,1078.3634033203125,1324.1395263671875,1078.3634033203125,1324.1395263671875,1046.7965087890625,1347.5665283203125,1046.7965087890625
1123.4814453125,1078.3634033203125,1100.0543212890625,1078.3634033203125,1100.0543212890625,1046.7965087890625,1123.4814453125,1046.7965087890625
899.3963012695312,1078.3634033203125,875.9691772460938,1078.3634033203125,875.9691772460938,1046.7965087890625,899.3963012695312,1046.7965087890625
675.3111572265625,1074.290283203125,651.884033203125,1074.290283203125,651.884033203125,1046.7965087890625,675.3111572265625,1046.7965087890625
1869.0738525390625,1057.9976806640625,1711.1956787109375,1057.9976806640625,1711.1956787109375,1026.430908203125,1869.0738525390625,1026.430908203125
2041.2119140625,1066.1439208984375,2041.2119140625,1022.3577270507812,2158.347412109375,1022.3577270507812,2158.347412109375,1066.1439208984375
1650.08154296875,1057.9976806640625,1650.08154296875,1026.430908203125,1685.7314453125,1026.430908203125,1685.7314453125,1057.9976806640625
459.3745422363281,1057.9976806640625,423.7246398925781,1057.9976806640625,423.7246398925781,1026.430908203125,459.3745422363281,1026.430908203125
369.740478515625,1053.924560546875,338.16485595703125,1053.924560546875,338.16485595703125,1022.3577270507812,369.740478515625,1022.3577270507812
276.03216552734375,1057.9976806640625,244.45652770996094,1057.9976806640625,244.45652770996094,1022.3577270507812,276.03216552734375,1022.3577270507812
1104.128662109375,1033.558837890625,1104.128662109375,1001.9920043945312,1123.4814453125,1001.9920043945312,1123.4814453125,1033.558837890625
1575.7259521484375,1037.6319580078125,1548.224609375,1037.6319580078125,1548.224609375,1006.065185546875,1575.7259521484375,1006.065185546875
1347.5665283203125,1037.6319580078125,1258.9510498046875,1037.6319580078125,1258.9510498046875,997.9188842773438,1347.5665283203125,997.9188842773438
802.6322631835938,1037.6319580078125,802.6322631835938,997.9188842773438,899.3963012695312,997.9188842773438,899.3963012695312,1037.6319580078125
675.3111572265625,1037.6319580078125,566.3242797851562,1037.6319580078125,566.3242797851562,997.9188842773438,675.3111572265625,997.9188842773438
1673.508544921875,1009.1199951171875,1662.3043212890625,1009.1199951171875,1662.3043212890625,993.8457641601562,1673.508544921875,993.8457641601562
1869.0738525390625,1025.41259765625,1694.8985595703125,1025.41259765625,1694.8985595703125,985.699462890625,1869.0738525390625,985.699462890625
423.7246398925781,1013.1931762695312,423.7246398925781,981.6263427734375,459.3745422363281,981.6263427734375,459.3745422363281,1013.1931762695312
369.740478515625,1013.1931762695312,338.16485595703125,1013.1931762695312,338.16485595703125,981.6263427734375,369.740478515625,981.6263427734375
280.1064147949219,1013.1931762695312,244.45652770996094,1013.1931762695312,244.45652770996094,977.55322265625,280.1064147949219,977.55322265625
1650.08154296875,968.3886108398438,1650.08154296875,932.7486572265625,1873.1480712890625,932.7486572265625,1873.1480712890625,968.3886108398438
765.9636840820312,968.3886108398438,765.9636840820312,932.7486572265625,907.5447998046875,932.7486572265625,907.5447998046875,968.3886108398438
537.8043212890625,968.3886108398438,537.8043212890625,932.7486572265625,687.533935546875,932.7486572265625,687.533935546875,968.3886108398438
492.9873046875,964.3154907226562,492.9873046875,936.8218383789062,528.63720703125,936.8218383789062,528.63720703125,964.3154907226562
2037.1376953125,972.4617919921875,2037.1376953125,928.675537109375,2162.421630859375,928.675537109375,2162.421630859375,972.4617919921875
1592.0230712890625,964.3154907226562,1560.447509765625,964.3154907226562,1560.447509765625,932.7486572265625,1592.0230712890625,932.7486572265625
1477.943359375,964.3154907226562,1446.3677978515625,964.3154907226562,1446.3677978515625,932.7486572265625,1477.943359375,932.7486572265625
981.9003295898438,964.3154907226562,981.9003295898438,928.675537109375,1103.110107421875,928.675537109375,1103.110107421875,964.3154907226562
752.7223510742188,968.3886108398438,717.0724487304688,968.3886108398438,717.0724487304688,932.7486572265625,752.7223510742188,932.7486572265625
1363.8636474609375,948.02294921875,1218.2083740234375,948.02294921875,1218.2083740234375,908.309814453125,1363.8636474609375,908.309814453125
1204.9669189453125,943.9498291015625,1173.391357421875,943.9498291015625,1173.391357421875,912.3829956054688,1204.9669189453125,912.3829956054688
1703.047119140625,927.6572265625,1703.047119140625,896.0904541015625,1869.0738525390625,896.0904541015625,1869.0738525390625,927.6572265625
1681.6571044921875,927.6572265625,1650.08154296875,927.6572265625,1650.08154296875,896.0904541015625,1681.6571044921875,896.0904541015625
1587.9488525390625,927.6572265625,1446.3677978515625,927.6572265625,1446.3677978515625,896.0904541015625,1587.9488525390625,896.0904541015625
1433.1263427734375,927.6572265625,1397.4764404296875,927.6572265625,1397.4764404296875,892.0172729492188,1433.1263427734375,892.0172729492188
1099.0357666015625,923.5841064453125,1071.534423828125,923.5841064453125,1071.534423828125,896.0904541015625,1099.0357666015625,896.0904541015625
1058.29296875,923.5841064453125,1026.7174072265625,923.5841064453125,1026.7174072265625,892.0172729492188,1058.29296875,892.0172729492188
1017.55029296875,923.5841064453125,981.9003295898438,923.5841064453125,981.9003295898438,892.0172729492188,1017.55029296875,892.0172729492188
607.0670166015625,919.510986328125,607.0670166015625,883.8710327148438,801.6136474609375,883.8710327148438,801.6136474609375,919.510986328125
398.2604064941406,923.5841064453125,358.5362243652344,923.5841064453125,358.5362243652344,879.7978515625,398.2604064941406,879.7978515625
288.2549743652344,923.5841064453125,244.45652770996094,923.5841064453125,244.45652770996094,879.7978515625,288.2549743652344,879.7978515625
2008.6177978515625,874.7064819335938,2008.6177978515625,855.3590698242188,2032.0447998046875,855.3590698242188,2032.0447998046875,874.7064819335938
1906.7608642578125,878.7796020507812,1906.7608642578125,847.2127685546875,1934.26220703125,847.2127685546875,1934.26220703125,878.7796020507812
1291.5452880859375,870.63330078125,1291.5452880859375,843.1396484375,1323.1209716796875,843.1396484375,1323.1209716796875,870.63330078125
1743.9893798828125,879.094482421875,1742.5423583984375,847.2694091796875,1864.749755859375,841.716064453125,1866.19677734375,873.5411987304688
1473.869140625,874.7064819335938,1446.3677978515625,874.7064819335938,1446.3677978515625,843.1396484375,1473.869140625,843.1396484375
717.0724487304688,874.7064819335938,717.0724487304688,839.0664672851562,748.6480712890625,839.0664672851562,748.6480712890625,874.7064819335938
1934.26220703125,850.2676391601562,1747.8641357421875,850.2676391601562,1747.8641357421875,810.5545043945312,1934.26220703125,810.5545043945312
297.42205810546875,842.121337890625,297.42205810546875,806.4813842773438,418.63177490234375,806.4813842773438,418.63177490234375,842.121337890625
1307.84228515625,842.121337890625,1307.84228515625,806.4813842773438,1396.457763671875,806.4813842773438,1396.457763671875,842.121337890625
183.3423614501953,842.121337890625,183.3423614501953,806.4813842773438,300.477783203125,806.4813842773438,300.477783203125,842.121337890625
1943.4293212890625,776.9510498046875,1943.4293212890625,745.38427734375,2060.564697265625,745.38427734375,2060.564697265625,776.9510498046875
1866.01806640625,776.9511108398438,1866.01806640625,745.3843383789062,1930.18798828125,745.3843383789062,1930.18798828125,776.9511108398438
1864.99951171875,781.0242919921875,1727.4927978515625,781.0242919921875,1727.4927978515625,741.3111572265625,1864.99951171875,741.3111572265625
1477.943359375,776.9511108398438,1446.3677978515625,776.9511108398438,1446.3677978515625,745.3843383789062,1477.943359375,745.3843383789062
1424.977783203125,772.8779907226562,1393.4022216796875,772.8779907226562,1393.4022216796875,745.3843383789062,1424.977783203125,745.3843383789062
1090.88720703125,772.8779907226562,1059.3116455078125,772.8779907226562,1059.3116455078125,745.3843383789062,1090.88720703125,745.3843383789062
1025.6988525390625,772.8779907226562,994.1231689453125,772.8779907226562,994.1231689453125,745.3843383789062,1025.6988525390625,745.3843383789062
729.2952880859375,772.8779907226562,729.2952880859375,737.238037109375,809.76220703125,737.238037109375,809.76220703125,772.8779907226562
684.478271484375,768.8048706054688,684.478271484375,741.3111572265625,728.2767333984375,741.3111572265625,728.2767333984375,768.8048706054688
594.8441162109375,772.8779296875,594.8441162109375,737.2379760742188,679.3853759765625,737.2379760742188,679.3853759765625,772.8779296875
357.5176696777344,768.8048706054688,330.01629638671875,768.8048706054688,330.01629638671875,741.3111572265625,357.5176696777344,741.3111572265625
312.70062255859375,768.8048706054688,285.19927978515625,768.8048706054688,285.19927978515625,741.3111572265625,312.70062255859375,741.3111572265625
1376.0865478515625,772.8779907226562,1340.4366455078125,772.8779907226562,1340.4366455078125,741.3111572265625,1376.0865478515625,741.3111572265625
1323.1209716796875,772.8779907226562,1291.5452880859375,772.8779907226562,1291.5452880859375,741.3111572265625,1323.1209716796875,741.3111572265625
398.2604064941406,768.8048706054688,370.7590637207031,768.8048706054688,370.7590637207031,741.3111572265625,398.2604064941406,741.3111572265625
276.03216552734375,768.8048706054688,248.53079223632812,768.8048706054688,248.53079223632812,741.3111572265625,276.03216552734375,741.3111572265625
1640.9144287109375,748.4391479492188,1597.115966796875,748.4391479492188,1597.115966796875,708.72607421875,1640.9144287109375,708.72607421875
1523.77880859375,744.365966796875,1523.77880859375,708.7260131835938,1571.651611328125,708.7260131835938,1571.651611328125,744.365966796875
1486.0919189453125,740.2929077148438,1393.4022216796875,740.2929077148438,1393.4022216796875,704.6529541015625,1486.0919189453125,704.6529541015625
1351.640869140625,728.073486328125,1320.065185546875,728.073486328125,1320.065185546875,716.872314453125,1351.640869140625,716.872314453125
1136.7227783203125,732.1466064453125,1136.7227783203125,712.7991943359375,1176.447021484375,712.7991943359375,1176.447021484375,732.1466064453125
1099.0357666015625,744.3660278320312,1010.4202880859375,744.3660278320312,1010.4202880859375,704.6529541015625,1099.0357666015625,704.6529541015625
1218.2083740234375,740.2929077148438,1218.2083740234375,704.6529541015625,1270.1553955078125,704.6529541015625,1270.1553955078125,740.2929077148438
2040.193359375,658.8301391601562,1984.172119140625,658.8301391601562,1984.172119140625,631.33642578125,2040.193359375,631.33642578125
1975.0050048828125,662.9032592773438,1829.349609375,662.9032592773438,1829.349609375,627.2633056640625,1975.0050048828125,627.2633056640625
1429.0521240234375,658.8301391601562,1393.4022216796875,658.8301391601562,1393.4022216796875,627.2633056640625,1429.0521240234375,627.2633056640625
1324.1395263671875,658.8301391601562,1324.1395263671875,623.190185546875,1363.8636474609375,623.190185546875,1363.8636474609375,658.8301391601562
1294.6009521484375,658.8301391601562,1263.025390625,658.8301391601562,1263.025390625,627.2633056640625,1294.6009521484375,627.2633056640625
1197.8369140625,658.8301391601562,1197.8369140625,623.190185546875,1233.48681640625,623.190185546875,1233.48681640625,658.8301391601562
797.5393676757812,658.8301391601562,765.9637451171875,658.8301391601562,765.9637451171875,623.190185546875,797.5393676757812,623.190185546875
642.7169189453125,654.7569580078125,611.1412963867188,654.7569580078125,611.1412963867188,623.190185546875,642.7169189453125,623.190185546875
236.3079833984375,654.7568969726562,236.3079833984375,619.116943359375,402.3346862792969,619.116943359375,402.3346862792969,654.7568969726562
1735.6412353515625,609.9524536132812,1735.6412353515625,578.3856201171875,1767.2169189453125,578.3856201171875,1767.2169189453125,609.9524536132812
586.6956787109375,589.5867919921875,586.6956787109375,574.3125,614.197021484375,574.3125,614.197021484375,589.5867919921875
1161.1683349609375,605.8792724609375,1161.1683349609375,553.94677734375,1241.63525390625,553.94677734375,1241.63525390625,605.8792724609375
1022.6431274414062,605.8792724609375,1022.6431274414062,553.94677734375,1099.0357666015625,553.94677734375,1099.0357666015625,605.8792724609375
1633.784423828125,609.952392578125,1633.784423828125,549.8735961914062,1767.2169189453125,549.8735961914062,1767.2169189453125,609.952392578125
1287.4708251953125,605.8792724609375,1287.4708251953125,545.8004760742188,1424.9776611328125,545.8004760742188,1424.9776611328125,605.8792724609375
651.8839721679688,605.8792724609375,651.8839721679688,545.8004760742188,740.4994506835938,545.8004760742188,740.4994506835938,605.8792724609375
1446.36767578125,609.952392578125,1446.36767578125,545.8004760742188,1583.8743896484375,545.8004760742188,1583.8743896484375,609.952392578125
827.077880859375,605.8792724609375,827.077880859375,545.8004760742188,919.7676391601562,545.8004760742188,919.7676391601562,605.8792724609375
