367.7537536621094,1051.96435546875,340.9900207519531,1051.96435546875,340.9900207519531,1037.2857666015625,367.7537536621094,1037.2857666015625
336.03375244140625,1051.96435546875,313.2350158691406,1051.96435546875,313.2350158691406,1037.2857666015625,336.03375244140625,1037.2857666015625
308.27874755859375,1051.96435546875,285.4800109863281,1051.96435546875,285.4800109863281,1037.2857666015625,308.27874755859375,1037.2857666015625
209.1537628173828,1051.96435546875,182.38999938964844,1051.96435546875,182.38999938964844,1037.2857666015625,209.1537628173828,1037.2857666015625
177.4337615966797,1051.96435546875,154.635009765625,1051.96435546875,154.635009765625,1037.2857666015625,177.4337615966797,1037.2857666015625
149.6787567138672,1051.96435546875,130.84500122070312,1051.96435546875,130.84500122070312,1037.2857666015625,149.6787567138672,1037.2857666015625
106.06375122070312,1051.96435546875,79.30000305175781,1051.96435546875,79.30000305175781,1037.2857666015625,106.06375122070312,1037.2857666015625
522.3887939453125,1051.96435546875,471.83502197265625,1051.96435546875,471.83502197265625,1033.3714599609375,522.3887939453125,1033.3714599609375
248.8037567138672,1051.96435546875,226.0050048828125,1051.96435546875,226.0050048828125,1033.3714599609375,248.8037567138672,1033.3714599609375
391.54376220703125,997.164306640625,348.9200134277344,997.164306640625,348.9200134277344,982.4857177734375,391.54376220703125,982.4857177734375
232.94375610351562,1001.07861328125,190.32000732421875,1001.07861328125,190.32000732421875,986.4000244140625,232.94375610351562,986.4000244140625
181.3987579345703,1001.07861328125,130.84500122070312,1001.07861328125,130.84500122070312,986.4000244140625,181.3987579345703,986.4000244140625
106.06375122070312,1001.07861328125,79.30000305175781,1001.07861328125,79.30000305175781,986.4000244140625,106.06375122070312,986.4000244140625
637.373779296875,997.164306640625,598.7150268554688,997.164306640625,598.7150268554688,982.4857177734375,637.373779296875,982.4857177734375
577.8987426757812,997.164306640625,563.030029296875,997.164306640625,563.030029296875,982.4857177734375,577.8987426757812,982.4857177734375
522.3887939453125,1001.07861328125,471.83502197265625,1001.07861328125,471.83502197265625,982.4857177734375,522.3887939453125,982.4857177734375
280.5237731933594,997.164306640625,237.90000915527344,997.164306640625,237.90000915527344,986.4000244140625,280.5237731933594,986.4000244140625
669.09375,997.164306640625,654.2250366210938,997.164306640625,654.2250366210938,982.4857177734375,669.09375,982.4857177734375
526.353759765625,946.278564453125,511.4850158691406,946.278564453125,511.4850158691406,927.6857299804688,526.353759765625,927.6857299804688
506.5287780761719,946.278564453125,491.6600036621094,946.278564453125,491.6600036621094,927.6857299804688,506.5287780761719,927.6857299804688
332.0687561035156,828.8500366210938,293.4100036621094,828.8500366210938,293.4100036621094,806.3428955078125,332.0687561035156,806.3428955078125
490.66876220703125,824.9357299804688,432.18499755859375,824.9357299804688,432.18499755859375,806.3428955078125,490.66876220703125,806.3428955078125
427.228759765625,828.8500366210938,388.57000732421875,828.8500366210938,388.57000732421875,806.3428955078125,427.228759765625,806.3428955078125
375.6837463378906,828.8500366210938,340.9900207519531,828.8500366210938,340.9900207519531,806.3428955078125,375.6837463378906,806.3428955078125
324.1387634277344,770.1357421875,285.4800109863281,770.1357421875,285.4800109863281,755.4571533203125,324.1387634277344,755.4571533203125
237.90000915527344,766.221435546875,237.90000915527344,755.4571533203125,276.5587463378906,755.4571533203125,276.5587463378906,766.221435546875
228.978759765625,770.1357421875,218.07501220703125,770.1357421875,218.07501220703125,755.4571533203125,228.978759765625,755.4571533203125
383.61376953125,766.221435546875,380.6400146484375,766.221435546875,380.6400146484375,751.5428466796875,383.61376953125,751.5428466796875
161.57376098632812,758.3928833007812,146.7050018310547,758.3928833007812,146.7050018310547,743.7142944335938,161.57376098632812,743.7142944335938
102.0987548828125,762.30712890625,83.26499938964844,762.30712890625,83.26499938964844,743.7142944335938,102.0987548828125,743.7142944335938
74.34375,762.30712890625,59.47500228881836,762.30712890625,59.47500228881836,743.7142944335938,74.34375,743.7142944335938
106.06375122070312,664.4500122070312,91.19499969482422,664.4500122070312,91.19499969482422,649.7714233398438,106.06375122070312,649.7714233398438
153.6437530517578,664.4500122070312,138.77500915527344,664.4500122070312,138.77500915527344,645.857177734375,153.6437530517578,645.857177734375
153.6437530517578,637.0499877929688,138.77500915527344,637.0499877929688,138.77500915527344,618.4571533203125,153.6437530517578,618.4571533203125
106.06375122070312,637.0499877929688,91.19499969482422,637.0499877929688,91.19499969482422,622.3714599609375,106.06375122070312,622.3714599609375
153.6437530517578,609.6500244140625,138.77500915527344,609.6500244140625,138.77500915527344,591.05712890625,153.6437530517578,591.05712890625
106.06375122070312,605.7357177734375,91.19499969482422,605.7357177734375,91.19499969482422,591.05712890625,106.06375122070312,591.05712890625
82.27375030517578,609.6500244140625,67.40499877929688,609.6500244140625,67.40499877929688,591.05712890625,82.27375030517578,591.05712890625
355.8587646484375,601.8214111328125,305.3050231933594,601.8214111328125,305.3050231933594,587.1428833007812,355.8587646484375,587.1428833007812
296.3837585449219,601.8214111328125,285.4800109863281,601.8214111328125,285.4800109863281,587.1428833007812,296.3837585449219,587.1428833007812
276.5587463378906,601.8214111328125,237.90000915527344,601.8214111328125,237.90000915527344,587.1428833007812,276.5587463378906,587.1428833007812
304.3137512207031,590.0785522460938,237.90000915527344,590.0785522460938,237.90000915527344,571.4857177734375,304.3137512207031,571.4857177734375
225.01376342773438,590.0785522460938,182.38999938964844,590.0785522460938,182.38999938964844,571.4857177734375,225.01376342773438,571.4857177734375
451.0187683105469,558.7642822265625,372.71002197265625,558.7642822265625,372.71002197265625,540.1714477539062,451.0187683105469,540.1714477539062
256.7337646484375,558.7642822265625,241.86500549316406,558.7642822265625,241.86500549316406,544.085693359375,256.7337646484375,544.085693359375
182.38998413085938,558.7642211914062,182.38998413085938,544.085693359375,236.9087371826172,544.085693359375,236.9087371826172,558.7642211914062
498.5987548828125,558.7642822265625,455.9750061035156,558.7642822265625,455.9750061035156,540.1714477539062,498.5987548828125,540.1714477539062
363.78875732421875,558.7642822265625,337.0250244140625,558.7642822265625,337.0250244140625,540.1714477539062,363.78875732421875,540.1714477539062
236.90875244140625,527.4500122070312,206.1800079345703,527.4500122070312,206.1800079345703,512.7714233398438,236.90875244140625,512.7714233398438
74.34375,527.4500122070312,63.44000244140625,527.4500122070312,63.44000244140625,512.7714233398438,74.34375,512.7714233398438
423.2637634277344,523.5357055664062,392.5350036621094,523.5357055664062,392.5350036621094,508.8571472167969,423.2637634277344,508.8571472167969
347.92877197265625,527.4500122070312,317.20001220703125,527.4500122070312,317.20001220703125,508.8571472167969,347.92877197265625,508.8571472167969
273.58502197265625,527.4500122070312,273.58502197265625,508.8571472167969,292.41876220703125,508.8571472167969,292.41876220703125,527.4500122070312
264.66375732421875,527.4500122070312,249.79501342773438,527.4500122070312,249.79501342773438,508.8571472167969,264.66375732421875,508.8571472167969
161.57376098632812,527.4500122070312,146.7050018310547,527.4500122070312,146.7050018310547,508.8571472167969,161.57376098632812,508.8571472167969
141.74874877929688,527.4500122070312,126.8800048828125,527.4500122070312,126.8800048828125,508.8571472167969,141.74874877929688,508.8571472167969
117.95875549316406,527.4500122070312,103.09000396728516,527.4500122070312,103.09000396728516,512.7714233398438,117.95875549316406,512.7714233398438
98.13375091552734,527.4500122070312,83.26499938964844,527.4500122070312,83.26499938964844,508.8571472167969,98.13375091552734,508.8571472167969
530.3187866210938,523.5357055664062,499.59002685546875,523.5357055664062,499.59002685546875,504.94287109375,530.3187866210938,504.94287109375
633.4087524414062,460.90716552734375,618.5400390625,460.90716552734375,618.5400390625,450.1428527832031,633.4087524414062,450.1428527832031
145.71376037597656,453.0785827636719,103.09000396728516,453.0785827636719,103.09000396728516,434.4857177734375,145.71376037597656,434.4857177734375
103.09000396728516,413.93572998046875,103.09000396728516,395.3428649902344,149.6787567138672,395.3428649902344,149.6787567138672,413.93572998046875
633.4087524414062,402.19287109375,618.5400390625,402.19287109375,618.5400390625,391.4285888671875,633.4087524414062,391.4285888671875
161.57376098632812,370.8785705566406,146.7050018310547,370.8785705566406,146.7050018310547,352.28570556640625,161.57376098632812,352.28570556640625
102.0987548828125,370.8785705566406,83.26499938964844,370.8785705566406,83.26499938964844,356.20001220703125,102.0987548828125,356.20001220703125
74.34375,370.8785705566406,59.47500228881836,370.8785705566406,59.47500228881836,356.20001220703125,74.34375,356.20001220703125
633.4087524414062,359.1357116699219,618.5400390625,359.1357116699219,618.5400390625,340.5428771972656,633.4087524414062,340.5428771972656
276.5587463378906,335.6499938964844,249.79501342773438,335.6499938964844,249.79501342773438,317.0571594238281,276.5587463378906,317.0571594238281
209.1537628173828,335.6499938964844,182.38999938964844,335.6499938964844,182.38999938964844,317.0571594238281,209.1537628173828,317.0571594238281
692.8837890625,327.8214416503906,650.260009765625,327.8214416503906,650.260009765625,313.1428527832031,692.8837890625,313.1428527832031
157.60874938964844,300.42144775390625,130.84500122070312,300.42144775390625,130.84500122070312,281.8285827636719,157.60874938964844,281.8285827636719
125.88875579833984,300.42144775390625,83.26499938964844,300.42144775390625,83.26499938964844,281.8285827636719,125.88875579833984,281.8285827636719
74.34375,300.42144775390625,63.44000244140625,300.42144775390625,63.44000244140625,281.8285827636719,74.34375,281.8285827636719
506.5287780761719,261.278564453125,452.010009765625,261.278564453125,452.010009765625,238.7714385986328,506.5287780761719,238.7714385986328
351.8937683105469,261.278564453125,321.1650085449219,261.278564453125,321.1650085449219,242.6857147216797,351.8937683105469,242.6857147216797
157.60874938964844,257.3642883300781,130.84500122070312,257.3642883300781,130.84500122070312,242.6857147216797,157.60874938964844,242.6857147216797
121.92375183105469,257.3642883300781,83.26499938964844,257.3642883300781,83.26499938964844,242.6857147216797,121.92375183105469,242.6857147216797
74.34375,257.3642883300781,63.44000244140625,257.3642883300781,63.44000244140625,242.6857147216797,74.34375,242.6857147216797
669.09375,257.3642883300781,638.364990234375,257.3642883300781,638.364990234375,238.7714385986328,669.09375,238.7714385986328
439.1237487792969,257.3642883300781,424.2550048828125,257.3642883300781,424.2550048828125,238.7714385986328,439.1237487792969,238.7714385986328
399.4737548828125,261.278564453125,384.6050109863281,261.278564453125,384.6050109863281,242.6857147216797,399.4737548828125,242.6857147216797
609.6187744140625,222.13571166992188,527.3450317382812,222.13571166992188,527.3450317382812,199.62857055664062,609.6187744140625,199.62857055664062
66.41374969482422,218.221435546875,51.54500198364258,218.221435546875,51.54500198364258,203.54286193847656,66.41374969482422,203.54286193847656
51.545005798339844,190.8214111328125,51.545005798339844,176.14285278320312,106.06375122070312,176.14285278320312,106.06375122070312,190.8214111328125
712.708740234375,116.45000457763672,662.155029296875,116.45000457763672,662.155029296875,97.85714721679688,712.708740234375,97.85714721679688
347.92877197265625,116.45000457763672,321.1650085449219,116.45000457763672,321.1650085449219,86.11428833007812,347.92877197265625,86.11428833007812
