1010.0778198242188,2079.383544921875,912.7091064453125,2079.383544921875,912.7091064453125,2052.430419921875,1010.0778198242188,2052.430419921875
907.79150390625,2075.390625,881.2363891601562,2075.390625,881.2363891601562,2052.430419921875,907.79150390625,2052.430419921875
872.3846435546875,2075.390625,806.4886474609375,2075.390625,806.4886474609375,2048.4375,872.3846435546875,2048.4375
797.636962890625,2075.390625,751.411376953125,2075.390625,751.411376953125,2048.4375,797.636962890625,2048.4375
696.3340454101562,2071.397216796875,696.3340454101562,2048.437255859375,742.5596313476562,2048.437255859375,742.5596313476562,2071.397216796875
641.2567749023438,2071.397216796875,641.2567749023438,2048.437255859375,687.4822998046875,2048.437255859375,687.4822998046875,2071.397216796875
632.4050903320312,2071.3974609375,562.5750122070312,2071.3974609375,562.5750122070312,2044.4444580078125,632.4050903320312,2044.4444580078125
553.7233276367188,2067.404541015625,511.43182373046875,2067.404541015625,511.43182373046875,2044.4444580078125,553.7233276367188,2044.4444580078125
502.5801086425781,2067.404541015625,444.5522766113281,2067.404541015625,444.5522766113281,2044.4444580078125,502.5801086425781,2044.4444580078125
431.7664794921875,2067.404541015625,322.595458984375,2067.404541015625,322.595458984375,2040.451416015625,431.7664794921875,2040.451416015625
309.8096618652344,2067.404541015625,291.12274169921875,2067.404541015625,291.12274169921875,2040.451416015625,309.8096618652344,2040.451416015625
192.7704620361328,2063.411376953125,192.7704620361328,2036.458251953125,278.3369445800781,2036.458251953125,278.3369445800781,2063.411376953125
168.18238830566406,2063.411376953125,110.15454864501953,2063.411376953125,110.15454864501953,2036.458251953125,168.18238830566406,2036.458251953125
1458.564208984375,2015.4947509765625,1219.5682373046875,2015.4947509765625,1219.5682373046875,1992.53466796875,1458.564208984375,1992.53466796875
1210.7164306640625,2011.501708984375,1168.425048828125,2011.501708984375,1168.425048828125,1992.53466796875,1210.7164306640625,1992.53466796875
1093.67724609375,2011.501708984375,1093.67724609375,1988.5416259765625,1159.5732421875,1988.5416259765625,1159.5732421875,2011.501708984375
1084.8255615234375,2007.5086669921875,1046.4681396484375,2007.5086669921875,1046.4681396484375,1988.5416259765625,1084.8255615234375,1988.5416259765625
428.81591796875,1999.5225830078125,428.81591796875,1976.5625,522.2505493164062,1976.5625,522.2505493164062,1999.5225830078125
354.06817626953125,1999.5225830078125,354.06817626953125,1976.5625,419.9642028808594,1976.5625,419.9642028808594,1999.5225830078125
345.21649169921875,1995.529541015625,255.71591186523438,1995.529541015625,255.71591186523438,1976.5625,345.21649169921875,1976.5625
1549.04833984375,1991.536376953125,1498.888671875,1991.536376953125,1498.888671875,1972.5694580078125,1549.04833984375,1972.5694580078125
204.57272338867188,1995.529541015625,204.57272338867188,1976.5625,246.8642120361328,1976.5625,246.8642120361328,1995.529541015625
195.7210235595703,1995.529541015625,121.95681762695312,1995.529541015625,121.95681762695312,1976.5625,195.7210235595703,1976.5625
1365.1295166015625,1991.536376953125,1365.1295166015625,1968.576416015625,1490.0369873046875,1968.576416015625,1490.0369873046875,1991.536376953125
1352.34375,1987.5433349609375,1254.9749755859375,1987.5433349609375,1254.9749755859375,1968.576416015625,1352.34375,1968.576416015625
1223.5023193359375,1987.5433349609375,1223.5023193359375,1968.576416015625,1246.123291015625,1968.576416015625,1246.123291015625,1987.5433349609375
1148.75439453125,1987.5433349609375,1148.75439453125,1964.583251953125,1214.6505126953125,1964.583251953125,1214.6505126953125,1987.5433349609375
1135.96875,1987.5433349609375,1046.4681396484375,1987.5433349609375,1046.4681396484375,1964.583251953125,1135.96875,1964.583251953125
939.2642211914062,1983.55029296875,814.3568115234375,1983.55029296875,814.3568115234375,1960.5902099609375,939.2642211914062,1960.5902099609375
805.505126953125,1983.55029296875,739.6090698242188,1983.55029296875,739.6090698242188,1960.5902099609375,805.505126953125,1960.5902099609375
730.7573852539062,1979.5572509765625,688.4659423828125,1979.5572509765625,688.4659423828125,1956.59716796875,730.7573852539062,1956.59716796875
679.6141967773438,1979.5572509765625,609.7841186523438,1979.5572509765625,609.7841186523438,1956.59716796875,679.6141967773438,1956.59716796875
604.866455078125,1975.564208984375,468.1568298339844,1975.564208984375,468.1568298339844,1956.59716796875,604.866455078125,1956.59716796875
409.14544677734375,1975.564208984375,409.14544677734375,1956.59716796875,455.37103271484375,1956.59716796875,455.37103271484375,1975.564208984375
404.22784423828125,1975.564208984375,354.06817626953125,1975.564208984375,354.06817626953125,1956.59716796875,404.22784423828125,1956.59716796875
345.21649169921875,1975.564208984375,322.595458984375,1975.564208984375,322.595458984375,1952.6041259765625,345.21649169921875,1952.6041259765625
313.7437438964844,1971.5711669921875,271.4522705078125,1971.5711669921875,271.4522705078125,1952.6041259765625,313.7437438964844,1952.6041259765625
216.375,1971.5711669921875,216.375,1952.6041259765625,262.6005554199219,1952.6041259765625,262.6005554199219,1971.5711669921875
1552.982421875,1967.578125,1534.29541015625,1967.578125,1534.29541015625,1948.611083984375,1552.982421875,1948.611083984375
207.52330017089844,1971.5711669921875,121.95681762695312,1971.5711669921875,121.95681762695312,1952.6041259765625,207.52330017089844,1952.6041259765625
1415.2891845703125,1967.578125,1251.0408935546875,1967.578125,1251.0408935546875,1944.6180419921875,1415.2891845703125,1944.6180419921875
1172.359130859375,1963.5850830078125,1172.359130859375,1940.625,1242.189208984375,1940.625,1242.189208984375,1963.5850830078125
1163.5074462890625,1959.592041015625,1046.4681396484375,1959.592041015625,1046.4681396484375,1940.625,1163.5074462890625,1940.625
947.1323852539062,1959.592041015625,806.4886474609375,1959.592041015625,806.4886474609375,1936.6319580078125,947.1323852539062,1936.6319580078125
797.636962890625,1955.598876953125,755.345458984375,1955.598876953125,755.345458984375,1936.6319580078125,797.636962890625,1936.6319580078125
746.4937744140625,1955.598876953125,609.7841186523438,1955.598876953125,609.7841186523438,1932.638916015625,746.4937744140625,1932.638916015625
554.706787109375,1951.6058349609375,554.706787109375,1932.638916015625,600.9323120117188,1932.638916015625,600.9323120117188,1951.6058349609375
545.8551025390625,1951.6058349609375,503.5636291503906,1951.6058349609375,503.5636291503906,1932.638916015625,545.8551025390625,1932.638916015625
494.7119445800781,1951.6058349609375,401.27728271484375,1951.6058349609375,401.27728271484375,1932.638916015625,494.7119445800781,1932.638916015625
279.3204650878906,1951.6058349609375,279.3204650878906,1928.645751953125,396.3596496582031,1928.645751953125,396.3596496582031,1951.6058349609375
258.6664733886719,1947.61279296875,192.7704620361328,1947.61279296875,192.7704620361328,1928.645751953125,258.6664733886719,1928.645751953125
183.9187469482422,1947.61279296875,118.0227279663086,1947.61279296875,118.0227279663086,1928.645751953125,183.9187469482422,1928.645751953125
1509.7073974609375,1943.6197509765625,1459.5477294921875,1943.6197509765625,1459.5477294921875,1924.6527099609375,1509.7073974609375,1924.6527099609375
1446.761962890625,1943.6197509765625,1349.3931884765625,1943.6197509765625,1349.3931884765625,1920.65966796875,1446.761962890625,1920.65966796875
105.23693084716797,1947.61279296875,90.48409271240234,1947.61279296875,90.48409271240234,1924.6527099609375,105.23693084716797,1924.6527099609375
1317.92041015625,1939.626708984375,1317.92041015625,1920.65966796875,1344.4755859375,1920.65966796875,1344.4755859375,1939.626708984375
1313.0028076171875,1939.626708984375,1243.1727294921875,1939.626708984375,1243.1727294921875,1920.65966796875,1313.0028076171875,1920.65966796875
1156.62255859375,1935.6336669921875,1156.62255859375,1916.6666259765625,1202.84814453125,1916.6666259765625,1202.84814453125,1935.6336669921875
1155.63916015625,1939.626708984375,1077.94091796875,1939.626708984375,1077.94091796875,1916.6666259765625,1155.63916015625,1916.6666259765625
1234.321044921875,1939.626708984375,1211.699951171875,1939.626708984375,1211.699951171875,1916.6666259765625,1234.321044921875,1916.6666259765625
1069.0892333984375,1935.6336669921875,1046.4681396484375,1935.6336669921875,1046.4681396484375,1916.6666259765625,1069.0892333984375,1916.6666259765625
616.6687622070312,1927.6475830078125,499.6295471191406,1927.6475830078125,499.6295471191406,1908.6805419921875,616.6687622070312,1908.6805419921875
490.77783203125,1927.6475830078125,424.8818054199219,1927.6475830078125,424.8818054199219,1908.6805419921875,490.77783203125,1908.6805419921875
416.0301208496094,1927.6475830078125,373.7386474609375,1927.6475830078125,373.7386474609375,1908.6805419921875,416.0301208496094,1908.6805419921875
295.05682373046875,1927.6475830078125,295.05682373046875,1900.6944580078125,364.8869323730469,1900.6944580078125,364.8869323730469,1927.6475830078125
282.2710266113281,1923.654541015625,220.30909729003906,1923.654541015625,220.30909729003906,1904.6875,282.2710266113281,1904.6875
1510.6907958984375,1919.661376953125,1510.6907958984375,1900.6944580078125,1556.9163818359375,1900.6944580078125,1556.9163818359375,1919.661376953125
1497.9051513671875,1919.661376953125,1455.6136474609375,1919.661376953125,1455.6136474609375,1900.6944580078125,1497.9051513671875,1900.6944580078125
1442.827880859375,1915.6683349609375,1325.7886962890625,1915.6683349609375,1325.7886962890625,1896.701416015625,1442.827880859375,1896.701416015625
1266.777099609375,1915.6683349609375,1266.777099609375,1896.701416015625,1316.936767578125,1896.701416015625,1316.936767578125,1915.6683349609375
1199.897705078125,1915.6683349609375,1199.897705078125,1892.708251953125,1265.793701171875,1892.708251953125,1265.793701171875,1915.6683349609375
1187.1119384765625,1911.67529296875,1046.4681396484375,1911.67529296875,1046.4681396484375,1892.708251953125,1187.1119384765625,1892.708251953125
877.3023071289062,1911.67529296875,877.3023071289062,1888.7152099609375,923.52783203125,1888.7152099609375,923.52783203125,1911.67529296875
648.1414794921875,1907.6822509765625,633.3886108398438,1907.6822509765625,633.3886108398438,1884.72216796875,648.1414794921875,1884.72216796875
789.7687377929688,1907.6822509765625,739.6090698242188,1907.6822509765625,739.6090698242188,1888.7152099609375,789.7687377929688,1888.7152099609375
632.4050903320312,1903.689208984375,542.904541015625,1903.689208984375,542.904541015625,1884.72216796875,632.4050903320312,1884.72216796875
435.7005615234375,1907.6822509765625,342.2658996582031,1907.6822509765625,342.2658996582031,1884.72216796875,435.7005615234375,1884.72216796875
287.1886291503906,1907.6822509765625,287.1886291503906,1880.7291259765625,333.4142150878906,1880.7291259765625,333.4142150878906,1907.6822509765625
282.2710266113281,1899.6961669921875,243.91363525390625,1899.6961669921875,243.91363525390625,1880.7291259765625,282.2710266113281,1880.7291259765625
238.9960174560547,1899.6961669921875,161.2977294921875,1899.6961669921875,161.2977294921875,1880.7291259765625,238.9960174560547,1880.7291259765625
1383.8165283203125,1891.7100830078125,1380.865966796875,1891.7100830078125,1380.865966796875,1884.72216796875,1383.8165283203125,1884.72216796875
132.77557373046875,1899.6961669921875,110.15454864501953,1899.6961669921875,110.15454864501953,1880.7291259765625,132.77557373046875,1880.7291259765625
1556.91650390625,1895.703125,1483.1522216796875,1895.703125,1483.1522216796875,1872.7430419921875,1556.91650390625,1872.7430419921875
1428.0748291015625,1895.703125,1428.0748291015625,1872.7430419921875,1474.3004150390625,1872.7430419921875,1474.3004150390625,1895.703125
1419.2232666015625,1891.7100830078125,1396.602294921875,1891.7100830078125,1396.602294921875,1872.7430419921875,1419.2232666015625,1872.7430419921875
1203.8316650390625,1891.7100830078125,1203.8316650390625,1868.75,1372.0140380859375,1868.75,1372.0140380859375,1891.7100830078125
1125.14990234375,1887.717041015625,1125.14990234375,1868.75,1171.37548828125,1868.75,1171.37548828125,1887.717041015625
1116.29833984375,1887.717041015625,1050.4022216796875,1887.717041015625,1050.4022216796875,1868.75,1116.29833984375,1868.75
1198.9141845703125,1883.723876953125,1192.029541015625,1883.723876953125,1192.029541015625,1864.7569580078125,1198.9141845703125,1864.7569580078125
931.3960571289062,1891.7100830078125,743.543212890625,1891.7100830078125,743.543212890625,1864.7569580078125,931.3960571289062,1864.7569580078125
594.0476684570312,1883.723876953125,594.0476684570312,1860.763916015625,711.0868530273438,1860.763916015625,711.0868530273438,1883.723876953125
727.8068237304688,1883.723876953125,727.8068237304688,1860.763916015625,738.6255493164062,1860.763916015625,738.6255493164062,1883.723876953125
561.5914916992188,1879.7308349609375,472.0909118652344,1879.7308349609375,472.0909118652344,1860.763916015625,561.5914916992188,1860.763916015625
459.2057800292969,1882.7554931640625,290.5877990722656,1877.0506591796875,291.3093566894531,1855.080078125,459.92730712890625,1860.784912109375
254.73239135742188,1875.73779296875,161.2977294921875,1875.73779296875,161.2977294921875,1856.770751953125,254.73239135742188,1856.770751953125
97.3687515258789,1875.73779296875,78.68181610107422,1875.73779296875,78.68181610107422,1856.770751953125,97.3687515258789,1856.770751953125
1568.71875,1871.7447509765625,1546.0977783203125,1871.7447509765625,1546.0977783203125,1852.7777099609375,1568.71875,1852.7777099609375
1533.3118896484375,1871.7447509765625,1463.4818115234375,1871.7447509765625,1463.4818115234375,1848.78466796875,1533.3118896484375,1848.78466796875
1408.4044189453125,1867.751708984375,1408.4044189453125,1848.78466796875,1454.6300048828125,1848.78466796875,1454.6300048828125,1867.751708984375
1399.5528564453125,1867.751708984375,1376.931884765625,1867.751708984375,1376.931884765625,1848.78466796875,1399.5528564453125,1848.78466796875
1348.40966796875,1867.751708984375,1254.9749755859375,1867.751708984375,1254.9749755859375,1844.7916259765625,1348.40966796875,1844.7916259765625
1125.1500244140625,1863.7586669921875,1125.1500244140625,1840.798583984375,1222.518798828125,1840.798583984375,1222.518798828125,1863.7586669921875
1116.29833984375,1863.7586669921875,1050.4022216796875,1863.7586669921875,1050.4022216796875,1844.7916259765625,1116.29833984375,1844.7916259765625
1250.057373046875,1855.7725830078125,1243.1727294921875,1855.7725830078125,1243.1727294921875,1844.7916259765625,1250.057373046875,1844.7916259765625
802.5545654296875,1863.7586669921875,802.5545654296875,1840.798583984375,852.7142333984375,1840.798583984375,852.7142333984375,1863.7586669921875
797.636962890625,1859.765625,656.9931640625,1859.765625,656.9931640625,1836.8055419921875,797.636962890625,1836.8055419921875
644.2073974609375,1855.7725830078125,601.9158935546875,1855.7725830078125,601.9158935546875,1836.8055419921875,644.2073974609375,1836.8055419921875
593.064208984375,1855.7725830078125,476.0249938964844,1855.7725830078125,476.0249938964844,1836.8055419921875,593.064208984375,1836.8055419921875
467.1733093261719,1855.7725830078125,401.27728271484375,1855.7725830078125,401.27728271484375,1836.8055419921875,467.1733093261719,1836.8055419921875
400.29376220703125,1855.7725830078125,306.8591003417969,1855.7725830078125,306.8591003417969,1832.8125,400.29376220703125,1832.8125
278.3369445800781,1855.7725830078125,232.11135864257812,1855.7725830078125,232.11135864257812,1832.8125,278.3369445800781,1832.8125
169.1658935546875,1851.779541015625,169.1658935546875,1832.8125,215.39146423339844,1832.8125,215.39146423339844,1851.779541015625
152.44602966308594,1851.779541015625,118.0227279663086,1851.779541015625,118.0227279663086,1832.8125,152.44602966308594,1832.8125
1454.630126953125,1843.7933349609375,1435.9432373046875,1843.7933349609375,1435.9432373046875,1824.826416015625,1454.630126953125,1824.826416015625
1427.0914306640625,1843.7933349609375,1329.7227783203125,1843.7933349609375,1329.7227783203125,1820.833251953125,1427.0914306640625,1820.833251953125
1274.6453857421875,1839.80029296875,1274.6453857421875,1820.833251953125,1320.870849609375,1820.833251953125,1320.870849609375,1839.80029296875
1265.793701171875,1839.80029296875,1243.1727294921875,1839.80029296875,1243.1727294921875,1820.833251953125,1265.793701171875,1820.833251953125
1242.189208984375,1839.80029296875,1215.6341552734375,1839.80029296875,1215.6341552734375,1820.833251953125,1242.189208984375,1820.833251953125
1214.650634765625,1839.80029296875,1188.095458984375,1839.80029296875,1188.095458984375,1820.833251953125,1214.650634765625,1820.833251953125
1159.5732421875,1843.7933349609375,1117.2818603515625,1843.7933349609375,1117.2818603515625,1820.833251953125,1159.5732421875,1820.833251953125
412.0960388183594,1831.814208984375,361.9363708496094,1831.814208984375,361.9363708496094,1812.84716796875,412.0960388183594,1812.84716796875
232.11135864257812,1831.814208984375,232.11135864257812,1812.84716796875,353.08465576171875,1812.84716796875,353.08465576171875,1831.814208984375
227.19375610351562,1827.8211669921875,177.03408813476562,1827.8211669921875,177.03408813476562,1808.8541259765625,227.19375610351562,1808.8541259765625
114.08863830566406,1827.8211669921875,114.08863830566406,1808.8541259765625,160.314208984375,1808.8541259765625,160.314208984375,1827.8211669921875
1404.4703369140625,1819.8350830078125,1404.4703369140625,1796.875,1509.707275390625,1796.875,1509.707275390625,1819.8350830078125
1337.5908203125,1815.842041015625,1337.5908203125,1796.875,1395.61865234375,1796.875,1395.61865234375,1815.842041015625
1328.7392578125,1815.842041015625,1251.0408935546875,1815.842041015625,1251.0408935546875,1796.875,1328.7392578125,1796.875
1242.189208984375,1815.842041015625,1239.2386474609375,1815.842041015625,1239.2386474609375,1796.875,1242.189208984375,1796.875
1184.1612548828125,1815.842041015625,1184.1612548828125,1796.875,1230.3868408203125,1796.875,1230.3868408203125,1815.842041015625
1133.0181884765625,1815.842041015625,1133.0181884765625,1792.8819580078125,1179.2437744140625,1792.8819580078125,1179.2437744140625,1815.842041015625
1062.2044677734375,1811.848876953125,1062.2044677734375,1792.8819580078125,1108.4300537109375,1792.8819580078125,1108.4300537109375,1811.848876953125
305.8755798339844,1807.8558349609375,287.1886291503906,1807.8558349609375,287.1886291503906,1788.888916015625,305.8755798339844,1788.888916015625
278.3369445800781,1807.8558349609375,224.24317932128906,1807.8558349609375,224.24317932128906,1784.895751953125,278.3369445800781,1784.895751953125
219.32557678222656,1803.86279296875,208.50682067871094,1803.86279296875,208.50682067871094,1788.888916015625,219.32557678222656,1788.888916015625
199.65512084960938,1803.86279296875,161.2977294921875,1803.86279296875,161.2977294921875,1784.895751953125,199.65512084960938,1784.895751953125
128.8414764404297,1803.86279296875,106.22045135498047,1803.86279296875,106.22045135498047,1784.895751953125,128.8414764404297,1784.895751953125
1568.71875,1795.876708984375,1518.55908203125,1795.876708984375,1518.55908203125,1776.90966796875,1568.71875,1776.90966796875
1435.9432373046875,1795.876708984375,1435.9432373046875,1772.9166259765625,1509.7073974609375,1772.9166259765625,1509.7073974609375,1795.876708984375
1427.0914306640625,1791.8836669921875,1357.2613525390625,1791.8836669921875,1357.2613525390625,1772.9166259765625,1427.0914306640625,1772.9166259765625
1274.6455078125,1791.8836669921875,1274.6455078125,1768.923583984375,1348.40966796875,1768.923583984375,1348.40966796875,1791.8836669921875
1265.491943359375,1794.947509765625,1194.113525390625,1787.7027587890625,1196.6160888671875,1762.3013916015625,1267.994384765625,1769.546142578125
1187.1119384765625,1791.8836669921875,1117.2818603515625,1791.8836669921875,1117.2818603515625,1768.923583984375,1187.1119384765625,1768.923583984375
924.5113525390625,1787.890625,924.5113525390625,1764.9305419921875,947.1323852539062,1764.9305419921875,947.1323852539062,1787.890625
919.59375,1787.890625,869.43408203125,1787.890625,869.43408203125,1764.9305419921875,919.59375,1764.9305419921875
860.5823974609375,1791.8836669921875,818.2908935546875,1791.8836669921875,818.2908935546875,1760.9375,860.5823974609375,1760.9375
809.439208984375,1787.890625,664.8613891601562,1787.890625,664.8613891601562,1764.9305419921875,809.439208984375,1764.9305419921875
656.0096435546875,1783.8975830078125,637.32275390625,1783.8975830078125,637.32275390625,1764.9305419921875,656.0096435546875,1764.9305419921875
578.311279296875,1783.8975830078125,578.311279296875,1764.9305419921875,624.536865234375,1764.9305419921875,624.536865234375,1783.8975830078125
573.3937377929688,1783.8975830078125,479.9591064453125,1783.8975830078125,479.9591064453125,1760.9375,573.3937377929688,1760.9375
471.1073913574219,1779.904541015625,424.8818054199219,1779.904541015625,424.8818054199219,1764.9305419921875,471.1073913574219,1764.9305419921875
419.5394287109375,1786.802978515625,349.7973327636719,1782.3787841796875,351.1405944824219,1760.564697265625,420.8827209472656,1764.9888916015625
349.15057373046875,1779.904541015625,298.99090576171875,1779.904541015625,298.99090576171875,1760.9375,349.15057373046875,1760.9375
161.29769897460938,1779.904541015625,161.29769897460938,1760.9375,274.4028015136719,1760.9375,274.4028015136719,1779.904541015625
106.22045135498047,1779.904541015625,106.22045135498047,1760.9375,152.44602966308594,1760.9375,152.44602966308594,1779.904541015625
1542.1636962890625,1771.9183349609375,1542.1636962890625,1752.951416015625,1588.38916015625,1752.951416015625,1588.38916015625,1771.9183349609375
1533.3118896484375,1771.9183349609375,1463.4818115234375,1771.9183349609375,1463.4818115234375,1748.958251953125,1533.3118896484375,1748.958251953125
1404.4703369140625,1767.92529296875,1404.4703369140625,1748.958251953125,1450.6959228515625,1748.958251953125,1450.6959228515625,1767.92529296875
1349.39306640625,1767.92529296875,1349.39306640625,1748.958251953125,1395.61865234375,1748.958251953125,1395.61865234375,1767.92529296875
1344.4755859375,1767.92529296875,1321.8544921875,1767.92529296875,1321.8544921875,1744.9652099609375,1344.4755859375,1744.9652099609375
1316.9368896484375,1767.92529296875,1266.7772216796875,1767.92529296875,1266.7772216796875,1744.9652099609375,1316.9368896484375,1744.9652099609375
1257.925537109375,1763.9322509765625,1219.5682373046875,1763.9322509765625,1219.5682373046875,1744.9652099609375,1257.925537109375,1744.9652099609375
1214.650634765625,1763.9322509765625,1168.425048828125,1763.9322509765625,1168.425048828125,1744.9652099609375,1214.650634765625,1744.9652099609375
1117.28173828125,1763.9322509765625,1117.28173828125,1740.97216796875,1167.44140625,1740.97216796875,1167.44140625,1763.9322509765625
1084.8255615234375,1763.9322509765625,1062.20458984375,1763.9322509765625,1062.20458984375,1740.97216796875,1084.8255615234375,1740.97216796875
754.3619384765625,1759.939208984375,716.0045776367188,1759.939208984375,716.0045776367188,1740.97216796875,754.3619384765625,1740.97216796875
715.0210571289062,1759.939208984375,664.8613891601562,1759.939208984375,664.8613891601562,1736.9791259765625,715.0210571289062,1736.9791259765625
601.9158935546875,1759.939208984375,601.9158935546875,1736.9791259765625,640.2733154296875,1736.9791259765625,640.2733154296875,1759.939208984375
589.130126953125,1755.9461669921875,515.3659057617188,1755.9461669921875,515.3659057617188,1740.97216796875,589.130126953125,1740.97216796875
506.51422119140625,1755.9461669921875,495.6954650878906,1755.9461669921875,495.6954650878906,1740.97216796875,506.51422119140625,1740.97216796875
439.6346740722656,1755.9461669921875,397.3431701660156,1755.9461669921875,397.3431701660156,1736.9791259765625,439.6346740722656,1736.9791259765625
342.265869140625,1755.9461669921875,342.265869140625,1736.9791259765625,388.491455078125,1736.9791259765625,388.491455078125,1755.9461669921875
486.84375,1755.9461669921875,448.4863586425781,1755.9461669921875,448.4863586425781,1736.9791259765625,486.84375,1736.9791259765625
333.4142150878906,1755.9461669921875,291.12274169921875,1755.9461669921875,291.12274169921875,1736.9791259765625,333.4142150878906,1736.9791259765625
278.3369445800781,1755.9461669921875,137.69317626953125,1755.9461669921875,137.69317626953125,1736.9791259765625,278.3369445800781,1736.9791259765625
124.90738677978516,1755.9461669921875,102.28636169433594,1755.9461669921875,102.28636169433594,1736.9791259765625,124.90738677978516,1736.9791259765625
1576.5869140625,1747.9600830078125,1479.2181396484375,1747.9600830078125,1479.2181396484375,1725.0,1576.5869140625,1725.0
1446.761962890625,1743.967041015625,1380.865966796875,1743.967041015625,1380.865966796875,1725.0,1446.761962890625,1725.0
1375.9483642578125,1739.973876953125,1274.6455078125,1739.973876953125,1274.6455078125,1721.0069580078125,1375.9483642578125,1721.0069580078125
1250.057373046875,1739.973876953125,1081.875,1739.973876953125,1081.875,1717.013916015625,1250.057373046875,1717.013916015625
1076.9573974609375,1731.98779296875,1062.20458984375,1731.98779296875,1062.20458984375,1717.013916015625,1076.9573974609375,1717.013916015625
1037.616455078125,1739.973876953125,1018.9295654296875,1739.973876953125,1018.9295654296875,1717.013916015625,1037.616455078125,1717.013916015625
889.1045532226562,1739.973876953125,889.1045532226562,1713.020751953125,935.3301391601562,1713.020751953125,935.3301391601562,1739.973876953125
880.2528686523438,1739.973876953125,786.8181762695312,1739.973876953125,786.8181762695312,1709.0277099609375,880.2528686523438,1709.0277099609375
601.9158325195312,1735.9808349609375,601.9158325195312,1713.020751953125,777.9664306640625,1713.020751953125,777.9664306640625,1735.9808349609375
577.3278198242188,1731.98779296875,527.168212890625,1731.98779296875,527.168212890625,1713.020751953125,577.3278198242188,1713.020751953125
518.3164672851562,1731.98779296875,476.0249938964844,1731.98779296875,476.0249938964844,1713.020751953125,518.3164672851562,1713.020751953125
467.1733093261719,1731.98779296875,397.3431701660156,1731.98779296875,397.3431701660156,1713.020751953125,467.1733093261719,1713.020751953125
388.4914855957031,1731.98779296875,295.05682373046875,1731.98779296875,295.05682373046875,1713.020751953125,388.4914855957031,1713.020751953125
274.40283203125,1731.98779296875,157.36363220214844,1731.98779296875,157.36363220214844,1713.020751953125,274.40283203125,1713.020751953125
144.5778350830078,1731.98779296875,102.28636169433594,1731.98779296875,102.28636169433594,1709.0277099609375,144.5778350830078,1709.0277099609375
1399.5528564453125,1716.015625,1298.25,1716.015625,1298.25,1697.048583984375,1399.5528564453125,1697.048583984375
1289.3983154296875,1716.015625,1266.7772216796875,1716.015625,1266.7772216796875,1697.048583984375,1289.3983154296875,1697.048583984375
1160.556884765625,1716.015625,1160.556884765625,1693.0555419921875,1253.991455078125,1693.0555419921875,1253.991455078125,1716.015625
1050.402099609375,1712.0225830078125,1050.402099609375,1693.0555419921875,1096.627685546875,1693.0555419921875,1096.627685546875,1712.0225830078125
1105.4794921875,1712.0225830078125,1105.4794921875,1693.0555419921875,1151.7049560546875,1693.0555419921875,1151.7049560546875,1712.0225830078125
715.0210571289062,1708.029541015625,617.6522827148438,1708.029541015625,617.6522827148438,1689.0625,715.0210571289062,1689.0625
608.8005981445312,1708.029541015625,590.1136474609375,1708.029541015625,590.1136474609375,1689.0625,608.8005981445312,1689.0625
511.4317626953125,1708.029541015625,511.4317626953125,1685.0694580078125,581.2619018554688,1685.0694580078125,581.2619018554688,1708.029541015625
502.5801086425781,1708.029541015625,456.35455322265625,1708.029541015625,456.35455322265625,1689.0625,502.5801086425781,1689.0625
443.5687561035156,1708.029541015625,401.27728271484375,1708.029541015625,401.27728271484375,1689.0625,443.5687561035156,1689.0625
346.1999816894531,1708.029541015625,346.1999816894531,1685.0694580078125,392.425537109375,1685.0694580078125,392.425537109375,1708.029541015625
291.1227111816406,1708.029541015625,291.1227111816406,1685.0694580078125,337.3482666015625,1685.0694580078125,337.3482666015625,1708.029541015625
274.40283203125,1708.029541015625,228.17727661132812,1708.029541015625,228.17727661132812,1689.0625,274.40283203125,1689.0625
219.32557678222656,1708.029541015625,106.22045135498047,1708.029541015625,106.22045135498047,1685.0694580078125,219.32557678222656,1685.0694580078125
1580.52099609375,1696.05029296875,1455.6136474609375,1696.05029296875,1455.6136474609375,1669.09716796875,1580.52099609375,1669.09716796875
1270.71142578125,1688.064208984375,1270.71142578125,1665.1041259765625,1320.8709716796875,1665.1041259765625,1320.8709716796875,1688.064208984375
1184.161376953125,1688.064208984375,1184.161376953125,1665.1041259765625,1253.991455078125,1665.1041259765625,1253.991455078125,1688.064208984375
1081.875,1688.064208984375,1081.875,1665.1041259765625,1151.705078125,1665.1041259765625,1151.705078125,1688.064208984375
1325.78857421875,1692.0572509765625,1325.78857421875,1665.1041259765625,1407.4208984375,1665.1041259765625,1407.4208984375,1692.0572509765625
1050.4022216796875,1684.0711669921875,1050.4022216796875,1665.1041259765625,1073.0233154296875,1665.1041259765625,1073.0233154296875,1684.0711669921875
880.2528686523438,1688.064208984375,786.8181762695312,1688.064208984375,786.8181762695312,1661.111083984375,880.2528686523438,1661.111083984375
774.0324096679688,1688.064208984375,680.5977172851562,1688.064208984375,680.5977172851562,1661.111083984375,774.0324096679688,1661.111083984375
675.6801147460938,1680.078125,668.7954711914062,1680.078125,668.7954711914062,1665.1041259765625,675.6801147460938,1665.1041259765625
667.8119506835938,1684.0711669921875,527.168212890625,1684.0711669921875,527.168212890625,1661.111083984375,667.8119506835938,1661.111083984375
472.0909118652344,1680.078125,472.0909118652344,1661.111083984375,518.3164672851562,1661.111083984375,518.3164672851562,1680.078125
463.23919677734375,1680.078125,393.4090881347656,1680.078125,393.4090881347656,1661.111083984375,463.23919677734375,1661.111083984375
267.5181579589844,1680.078125,267.5181579589844,1661.111083984375,380.6232604980469,1661.111083984375,380.6232604980469,1680.078125
235.0619354248047,1680.078125,145.56137084960938,1680.078125,145.56137084960938,1661.111083984375,235.0619354248047,1661.111083984375
136.70965576171875,1680.078125,90.48409271240234,1680.078125,90.48409271240234,1661.111083984375,136.70965576171875,1661.111083984375
77.69829559326172,1684.0711669921875,62.94545364379883,1684.0711669921875,62.94545364379883,1661.111083984375,77.69829559326172,1661.111083984375
1428.33984375,1677.736083984375,1371.2198486328125,1666.1407470703125,1377.9532470703125,1631.969482421875,1435.0732421875,1643.5648193359375
1230.386962890625,1668.098876953125,1199.897705078125,1668.098876953125,1199.897705078125,1637.1527099609375,1230.386962890625,1637.1527099609375
1128.1005859375,1656.1197509765625,1101.54541015625,1656.1197509765625,1101.54541015625,1633.15966796875,1128.1005859375,1633.15966796875
554.706787109375,1652.126708984375,554.706787109375,1625.173583984375,600.9323120117188,1625.173583984375,600.9323120117188,1652.126708984375
545.8551025390625,1652.126708984375,476.0249938964844,1652.126708984375,476.0249938964844,1625.173583984375,545.8551025390625,1625.173583984375
1313.986328125,1632.161376953125,1313.986328125,1601.2152099609375,1379.8824462890625,1601.2152099609375,1379.8824462890625,1632.161376953125
1187.1119384765625,1616.189208984375,1148.7545166015625,1616.189208984375,1148.7545166015625,1593.2291259765625,1187.1119384765625,1593.2291259765625
766.1641845703125,1608.203125,735.6749877929688,1608.203125,735.6749877929688,1581.25,766.1641845703125,1581.25
718.9551391601562,1608.203125,656.9931640625,1608.203125,656.9931640625,1581.25,718.9551391601562,1581.25
640.2733154296875,1608.203125,554.7068481445312,1608.203125,554.7068481445312,1581.25,640.2733154296875,1581.25
797.636962890625,1608.203125,771.0818481445312,1608.203125,771.0818481445312,1581.25,797.636962890625,1581.25
1423.0458984375,1602.707275390625,1270.42333984375,1595.666015625,1271.9178466796875,1562.293212890625,1424.5404052734375,1569.33447265625
1105.4794921875,1584.2447509765625,1105.4794921875,1549.3055419921875,1261.8594970703125,1549.3055419921875,1261.8594970703125,1584.2447509765625
1529.3778076171875,1568.2725830078125,1522.4931640625,1568.2725830078125,1522.4931640625,1557.2916259765625,1529.3778076171875,1557.2916259765625
1462.498291015625,1572.265625,1439.8773193359375,1572.265625,1439.8773193359375,1549.3055419921875,1462.498291015625,1549.3055419921875
959.918212890625,1568.2725830078125,959.918212890625,1541.3194580078125,1014.011962890625,1541.3194580078125,1014.011962890625,1568.2725830078125
947.1323852539062,1568.2725830078125,877.3023071289062,1568.2725830078125,877.3023071289062,1545.3125,947.1323852539062,1545.3125
864.5164794921875,1564.279541015625,837.9613647460938,1564.279541015625,837.9613647460938,1545.3125,864.5164794921875,1545.3125
825.1755981445312,1568.2725830078125,688.4659423828125,1568.2725830078125,688.4659423828125,1541.3194580078125,825.1755981445312,1541.3194580078125
609.7841186523438,1564.279541015625,609.7841186523438,1541.3194580078125,679.6141967773438,1541.3194580078125,679.6141967773438,1564.279541015625
600.932373046875,1564.279541015625,483.8931884765625,1564.279541015625,483.8931884765625,1541.3194580078125,600.932373046875,1541.3194580078125
325.5460205078125,1568.2725830078125,255.71591186523438,1568.2725830078125,255.71591186523438,1541.3194580078125,325.5460205078125,1541.3194580078125
180.96815490722656,1568.2725830078125,180.96815490722656,1541.3194580078125,246.8641815185547,1541.3194580078125,246.8641815185547,1568.2725830078125
1297.2664794921875,1556.2933349609375,1274.6455078125,1556.2933349609375,1274.6455078125,1533.333251953125,1297.2664794921875,1533.333251953125
1147.77099609375,1544.314208984375,1109.4136962890625,1544.314208984375,1109.4136962890625,1525.34716796875,1147.77099609375,1525.34716796875
1493.9710693359375,1532.3350830078125,1455.6136474609375,1532.3350830078125,1455.6136474609375,1509.375,1493.9710693359375,1509.375
1208.9473876953125,1553.52685546875,1206.8780517578125,1509.41796875,1297.2509765625,1505.050048828125,1299.3203125,1549.158935546875
1454.630126953125,1532.3350830078125,1420.206787109375,1532.3350830078125,1420.206787109375,1509.375,1454.630126953125,1509.375
173.09999084472656,1528.3419189453125,173.09999084472656,1501.3887939453125,337.3482360839844,1501.3887939453125,337.3482360839844,1528.3419189453125
889.1045532226562,1528.3419189453125,889.1045532226562,1501.3887939453125,1100.5618896484375,1501.3887939453125,1100.5618896484375,1528.3419189453125
743.5431518554688,1528.3419189453125,743.5431518554688,1505.3818359375,789.7686767578125,1505.3818359375,789.7686767578125,1528.3419189453125
648.1414794921875,1524.348876953125,499.6295471191406,1524.348876953125,499.6295471191406,1501.388916015625,648.1414794921875,1501.388916015625
1135.96875,1512.3697509765625,1105.4794921875,1512.3697509765625,1105.4794921875,1489.40966796875,1135.96875,1489.40966796875
1211.699951171875,1496.3975830078125,1211.699951171875,1461.4583740234375,1320.8709716796875,1461.4583740234375,1320.8709716796875,1496.3975830078125
1100.5618896484375,1492.404541015625,1007.1272583007812,1492.404541015625,1007.1272583007812,1465.451416015625,1100.5618896484375,1465.451416015625
777.9664916992188,1484.4183349609375,763.213623046875,1484.4183349609375,763.213623046875,1469.4444580078125,777.9664916992188,1469.4444580078125
333.4142150878906,1492.404541015625,291.12274169921875,1492.404541015625,291.12274169921875,1465.451416015625,333.4142150878906,1465.451416015625
282.2710266113281,1492.404541015625,188.83636474609375,1492.404541015625,188.83636474609375,1465.451416015625,282.2710266113281,1465.451416015625
1427.0914306640625,1496.3975830078125,1325.7886962890625,1496.3975830078125,1325.7886962890625,1461.4583740234375,1427.0914306640625,1461.4583740234375
608.8005981445312,1484.4183349609375,542.904541015625,1484.4183349609375,542.904541015625,1461.4583740234375,608.8005981445312,1461.4583740234375
1592.3233642578125,1456.467041015625,1569.7022705078125,1456.467041015625,1569.7022705078125,1433.5069580078125,1592.3233642578125,1433.5069580078125
1353.3272705078125,1456.467041015625,1353.3272705078125,1429.513916015625,1379.8824462890625,1429.513916015625,1379.8824462890625,1456.467041015625
1109.41357421875,1476.43212890625,1109.41357421875,1425.520751953125,1194.97998046875,1425.520751953125,1194.97998046875,1476.43212890625
1411.3551025390625,1456.467041015625,1384.800048828125,1456.467041015625,1384.800048828125,1429.513916015625,1411.3551025390625,1429.513916015625
1261.859619140625,1468.4461669921875,1207.765869140625,1468.4461669921875,1207.765869140625,1425.5208740234375,1261.859619140625,1425.5208740234375
353.08465576171875,1452.4739990234375,263.5841064453125,1452.4739990234375,263.5841064453125,1425.5208740234375,353.08465576171875,1425.5208740234375
258.6664733886719,1452.4739990234375,184.9022674560547,1452.4739990234375,184.9022674560547,1425.5208740234375,258.6664733886719,1425.5208740234375
301.94146728515625,1416.5364990234375,251.7818145751953,1416.5364990234375,251.7818145751953,1389.5833740234375,301.94146728515625,1389.5833740234375
1073.0233154296875,1412.5433349609375,999.2590942382812,1412.5433349609375,999.2590942382812,1389.5833740234375,1073.0233154296875,1389.5833740234375
691.41650390625,1412.5433349609375,621.5863647460938,1412.5433349609375,621.5863647460938,1389.5833740234375,691.41650390625,1389.5833740234375
569.4596557617188,1412.5433349609375,507.49774169921875,1412.5433349609375,507.49774169921875,1389.5833740234375,569.4596557617188,1389.5833740234375
204.57273864746094,1380.598876953125,204.57273864746094,1353.645751953125,360.9528503417969,1353.645751953125,360.9528503417969,1380.598876953125
380.623291015625,1344.6614990234375,192.7704620361328,1344.6614990234375,192.7704620361328,1321.701416015625,380.623291015625,1321.701416015625
341.2823791503906,1304.7308349609375,334.3977355957031,1304.7308349609375,334.3977355957031,1289.7569580078125,341.2823791503906,1289.7569580078125
310.7931823730469,1308.7239990234375,310.7931823730469,1285.763916015625,333.4142150878906,1285.763916015625,333.4142150878906,1308.7239990234375
254.73239135742188,1308.7239990234375,208.50682067871094,1308.7239990234375,208.50682067871094,1285.763916015625,254.73239135742188,1285.763916015625
384.5574035644531,1308.7239990234375,338.3318176269531,1308.7239990234375,338.3318176269531,1285.763916015625,384.5574035644531,1285.763916015625
357.01873779296875,1276.779541015625,306.8591003417969,1276.779541015625,306.8591003417969,1253.8194580078125,357.01873779296875,1253.8194580078125
400.29376220703125,1244.8350830078125,334.3977355957031,1244.8350830078125,334.3977355957031,1225.8680419921875,400.29376220703125,1225.8680419921875
271.4522399902344,1248.8280029296875,271.4522399902344,1225.867919921875,329.4800720214844,1225.867919921875,329.4800720214844,1248.8280029296875
191.78692626953125,1232.8558349609375,169.16590881347656,1232.8558349609375,169.16590881347656,1213.888916015625,191.78692626953125,1213.888916015625
408.16192626953125,1216.8836669921875,279.3204650878906,1216.8836669921875,279.3204650878906,1193.923583984375,408.16192626953125,1193.923583984375
1065.1551513671875,1208.8975830078125,995.3250122070312,1208.8975830078125,995.3250122070312,1189.9305419921875,1065.1551513671875,1189.9305419921875
195.7210235595703,1208.8975830078125,177.03408813476562,1208.8975830078125,177.03408813476562,1189.9305419921875,195.7210235595703,1189.9305419921875
404.22784423828125,1180.9461669921875,342.2658996582031,1180.9461669921875,342.2658996582031,1161.9791259765625,404.22784423828125,1161.9791259765625
291.1227111816406,1180.946044921875,291.1227111816406,1161.97900390625,337.3482666015625,1161.97900390625,337.3482666015625,1180.946044921875
211.45738220214844,1164.9739990234375,188.83636474609375,1164.9739990234375,188.83636474609375,1146.0069580078125,211.45738220214844,1146.0069580078125
408.16192626953125,1152.9947509765625,346.20001220703125,1152.9947509765625,346.20001220703125,1134.0277099609375,408.16192626953125,1134.0277099609375
345.21649169921875,1152.9947509765625,298.99090576171875,1152.9947509765625,298.99090576171875,1134.0277099609375,345.21649169921875,1134.0277099609375
342.2658996582031,1121.05029296875,342.2658996582031,1098.0902099609375,404.22784423828125,1098.0902099609375,404.22784423828125,1121.05029296875
337.3482971191406,1121.05029296875,306.8591003417969,1121.05029296875,306.8591003417969,1098.0902099609375,337.3482971191406,1098.0902099609375
467.1733093261719,1089.1058349609375,326.529541015625,1089.1058349609375,326.529541015625,1066.1458740234375,467.1733093261719,1066.1458740234375
317.6778564453125,1089.1058349609375,298.99090576171875,1089.1058349609375,298.99090576171875,1066.1458740234375,317.6778564453125,1066.1458740234375
290.13922119140625,1089.1058349609375,247.8477325439453,1089.1058349609375,247.8477325439453,1066.1458740234375,290.13922119140625,1066.1458740234375
1210.7164306640625,1069.140625,1148.7545166015625,1069.140625,1148.7545166015625,1046.1805419921875,1210.7164306640625,1046.1805419921875
1066.138671875,1069.140625,1066.138671875,1042.1875,1128.1005859375,1042.1875,1128.1005859375,1069.140625
306.85906982421875,1053.168212890625,306.85906982421875,1030.208251953125,412.09600830078125,1030.208251953125,412.09600830078125,1053.168212890625
1163.5074462890625,1045.1822509765625,1081.875,1045.1822509765625,1081.875,1022.2222290039062,1163.5074462890625,1022.2222290039062
1073.0233154296875,1033.203125,1066.138671875,1033.203125,1066.138671875,1026.2152099609375,1073.0233154296875,1026.2152099609375
1261.859619140625,1017.2308959960938,1136.9522705078125,1017.2308959960938,1136.9522705078125,994.2708129882812,1261.859619140625,994.2708129882812
443.5687561035156,1017.2308959960938,279.3204650878906,1017.2308959960938,279.3204650878906,994.2708129882812,443.5687561035156,994.2708129882812
310.79315185546875,985.2864379882812,310.79315185546875,962.3263549804688,416.03009033203125,962.3263549804688,416.03009033203125,985.2864379882812
1261.859619140625,985.2864379882812,1136.9522705078125,985.2864379882812,1136.9522705078125,958.3333129882812,1261.859619140625,958.3333129882812
302.9249572753906,949.3489379882812,302.9249572753906,926.3888549804688,427.8323669433594,926.3888549804688,427.8323669433594,949.3489379882812
1302.1839599609375,945.3558959960938,1302.1839599609375,922.3958129882812,1427.09130859375,922.3958129882812,1427.09130859375,945.3558959960938
1285.4642333984375,945.3558959960938,1180.227294921875,945.3558959960938,1180.227294921875,922.3958129882812,1285.4642333984375,922.3958129882812
419.9642028808594,917.4044799804688,318.661376953125,917.4044799804688,318.661376953125,894.4444580078125,419.9642028808594,894.4444580078125
1215.634033203125,913.4114379882812,1215.634033203125,890.4513549804688,1320.870849609375,890.4513549804688,1320.870849609375,913.4114379882812
1206.7823486328125,913.4114379882812,1164.490966796875,913.4114379882812,1164.490966796875,894.4444580078125,1206.7823486328125,894.4444580078125
1074.0067138671875,917.4044799804688,1074.0067138671875,890.4513549804688,1155.6390380859375,890.4513549804688,1155.6390380859375,917.4044799804688
423.8982849121094,885.4600830078125,401.27728271484375,885.4600830078125,401.27728271484375,866.4930419921875,423.8982849121094,866.4930419921875
358.0022888183594,885.4600830078125,358.0022888183594,862.5,384.5574035644531,862.5,384.5574035644531,885.4600830078125
318.661376953125,885.4600830078125,318.661376953125,862.5,341.2823791503906,862.5,341.2823791503906,885.4600830078125
1261.859619140625,881.4669799804688,1215.6341552734375,881.4669799804688,1215.6341552734375,858.5069580078125,1261.859619140625,858.5069580078125
1007.1272583007812,881.4669799804688,1007.1272583007812,858.5069580078125,1057.2869873046875,858.5069580078125,1057.2869873046875,881.4669799804688
1487.08642578125,877.4739379882812,1487.08642578125,854.5138549804688,1556.91650390625,854.5138549804688,1556.91650390625,877.4739379882812
235.0619354248047,873.4808959960938,216.375,873.4808959960938,216.375,854.5138549804688,235.0619354248047,854.5138549804688
1128.1005859375,857.5086669921875,1089.7431640625,857.5086669921875,1089.7431640625,838.5416259765625,1128.1005859375,838.5416259765625
435.7005615234375,857.5086669921875,314.7272644042969,857.5086669921875,314.7272644042969,834.548583984375,435.7005615234375,834.548583984375
1257.925537109375,849.5225830078125,1215.6341552734375,849.5225830078125,1215.6341552734375,826.5625,1257.925537109375,826.5625
235.0619354248047,849.5225830078125,216.375,849.5225830078125,216.375,830.5555419921875,235.0619354248047,830.5555419921875
1112.3642578125,833.5503540039062,1093.67724609375,833.5503540039062,1093.67724609375,814.5833129882812,1112.3642578125,814.5833129882812
242.93011474609375,825.564208984375,220.30909729003906,825.564208984375,220.30909729003906,806.5972290039062,242.93011474609375,806.5972290039062
427.8323974609375,821.5711669921875,409.14544677734375,821.5711669921875,409.14544677734375,802.6041259765625,427.8323974609375,802.6041259765625
388.4914855957031,821.5711669921875,365.8704528808594,821.5711669921875,365.8704528808594,802.6041259765625,388.4914855957031,802.6041259765625
349.15057373046875,821.5711669921875,326.529541015625,821.5711669921875,326.529541015625,802.6041259765625,349.15057373046875,802.6041259765625
1184.1612548828125,817.578125,1184.1612548828125,794.6180419921875,1289.398193359375,794.6180419921875,1289.398193359375,817.578125
1135.96875,809.5919799804688,1097.611328125,809.5919799804688,1097.611328125,790.625,1135.96875,790.625
1088.7596435546875,809.5919799804688,1070.07275390625,809.5919799804688,1070.07275390625,790.625,1088.7596435546875,790.625
246.8642120361328,801.6058959960938,224.24317932128906,801.6058959960938,224.24317932128906,782.6388549804688,246.8642120361328,782.6388549804688
471.1073913574219,793.6197509765625,409.14544677734375,793.6197509765625,409.14544677734375,774.6527709960938,471.1073913574219,774.6527709960938
1253.991455078125,785.6336669921875,1211.699951171875,785.6336669921875,1211.699951171875,766.6666259765625,1253.991455078125,766.6666259765625
1549.04833984375,781.640625,1479.2181396484375,781.640625,1479.2181396484375,762.673583984375,1549.04833984375,762.673583984375
368.8210144042969,777.6475830078125,346.20001220703125,777.6475830078125,346.20001220703125,758.6805419921875,368.8210144042969,758.6805419921875
290.13922119140625,777.6475830078125,267.5181884765625,777.6475830078125,267.5181884765625,758.6805419921875,290.13922119140625,758.6805419921875
409.14544677734375,765.6683959960938,409.14544677734375,742.7083129882812,471.1073913574219,742.7083129882812,471.1073913574219,765.6683959960938
1164.4908447265625,753.6891479492188,1164.4908447265625,738.7152099609375,1218.5845947265625,738.7152099609375,1218.5845947265625,753.6891479492188
1541.18017578125,737.7169799804688,1475.2840576171875,737.7169799804688,1475.2840576171875,718.75,1541.18017578125,718.75
417.0136413574219,733.7239379882812,417.0136413574219,714.7569580078125,475.0414733886719,714.7569580078125,475.0414733886719,733.7239379882812
1257.925537109375,733.7239379882812,1215.6341552734375,733.7239379882812,1215.6341552734375,710.7638549804688,1257.925537109375,710.7638549804688
1206.7823486328125,733.7239379882812,1148.7545166015625,733.7239379882812,1148.7545166015625,710.7638549804688,1206.7823486328125,710.7638549804688
1139.90283203125,733.7239379882812,1117.2818603515625,733.7239379882812,1117.2818603515625,714.7569580078125,1139.90283203125,714.7569580078125
357.01873779296875,733.7239379882812,295.05682373046875,733.7239379882812,295.05682373046875,714.7569580078125,357.01873779296875,714.7569580078125
478.9755859375,705.7725830078125,417.0136413574219,705.7725830078125,417.0136413574219,686.8055419921875,478.9755859375,686.8055419921875
368.8210144042969,709.765625,346.20001220703125,709.765625,346.20001220703125,690.798583984375,368.8210144042969,690.798583984375
341.2823791503906,709.765625,291.12274169921875,709.765625,291.12274169921875,690.798583984375,341.2823791503906,690.798583984375
1226.452880859375,689.8003540039062,1168.425048828125,689.8003540039062,1168.425048828125,666.8402709960938,1226.452880859375,666.8402709960938
1121.2159423828125,689.8003540039062,1121.2159423828125,666.8402709960938,1159.5732421875,666.8402709960938,1159.5732421875,689.8003540039062
1112.3642578125,689.8003540039062,1097.611328125,689.8003540039062,1097.611328125,670.8333129882812,1112.3642578125,670.8333129882812
1273.6619873046875,685.8073120117188,1235.3045654296875,685.8073120117188,1235.3045654296875,666.8402709960938,1273.6619873046875,666.8402709960938
443.5687561035156,677.8211669921875,420.9477233886719,677.8211669921875,420.9477233886719,658.8541870117188,443.5687561035156,658.8541870117188
368.8210144042969,677.8211669921875,346.20001220703125,677.8211669921875,346.20001220703125,658.8541870117188,368.8210144042969,658.8541870117188
439.6346740722656,645.876708984375,420.9477233886719,645.876708984375,420.9477233886719,622.9166870117188,439.6346740722656,622.9166870117188
400.29376220703125,645.876708984375,381.6068115234375,645.876708984375,381.6068115234375,622.9166870117188,400.29376220703125,622.9166870117188
360.9528503417969,645.876708984375,342.2658996582031,645.876708984375,342.2658996582031,622.9166870117188,360.9528503417969,622.9166870117188
1109.41357421875,637.8905639648438,1109.41357421875,614.9304809570312,1265.7935791015625,614.9304809570312,1265.7935791015625,637.8905639648438
1467.4158935546875,613.9323120117188,1467.4158935546875,590.9722290039062,1537.2459716796875,590.9722290039062,1537.2459716796875,613.9323120117188
439.6346740722656,609.939208984375,417.0136413574219,609.939208984375,417.0136413574219,590.9722290039062,439.6346740722656,590.9722290039062
1261.859619140625,605.9461669921875,1223.5023193359375,605.9461669921875,1223.5023193359375,582.986083984375,1261.859619140625,582.986083984375
1222.518798828125,609.939208984375,1113.3477783203125,609.939208984375,1113.3477783203125,582.986083984375,1222.518798828125,582.986083984375
726.8233032226562,605.9461669921875,660.92724609375,605.9461669921875,660.92724609375,582.986083984375,726.8233032226562,582.986083984375
562.574951171875,609.9391479492188,562.574951171875,586.9791259765625,616.668701171875,586.9791259765625,616.668701171875,609.9391479492188
396.3596496582031,609.939208984375,377.6727294921875,609.939208984375,377.6727294921875,586.9791870117188,396.3596496582031,586.9791870117188
357.01873779296875,609.939208984375,338.3318176269531,609.939208984375,338.3318176269531,586.9791870117188,357.01873779296875,586.9791870117188
789.7687377929688,577.9948120117188,767.147705078125,577.9948120117188,767.147705078125,559.0277709960938,789.7687377929688,559.0277709960938
604.866455078125,570.0086669921875,511.43182373046875,570.0086669921875,511.43182373046875,543.0555419921875,604.866455078125,543.0555419921875
919.59375,566.015625,841.8954467773438,566.015625,841.8954467773438,539.0625,919.59375,539.0625
1101.54541015625,562.0225830078125,1101.54541015625,535.0694580078125,1277.5960693359375,535.0694580078125,1277.5960693359375,562.0225830078125
1021.880126953125,562.0225830078125,963.852294921875,562.0225830078125,963.852294921875,539.0625,1021.880126953125,539.0625
1475.2840576171875,538.064208984375,1475.2840576171875,511.1111145019531,1541.18017578125,511.1111145019531,1541.18017578125,538.064208984375
1152.6884765625,530.078125,1152.6884765625,503.125,1253.9913330078125,503.125,1253.9913330078125,530.078125
1143.8369140625,530.078125,1121.2159423828125,530.078125,1121.2159423828125,507.1180419921875,1143.8369140625,507.1180419921875
597.9818115234375,530.078125,597.9818115234375,503.125,675.6801147460938,503.125,675.6801147460938,530.078125
589.130126953125,530.078125,550.772705078125,530.078125,550.772705078125,507.1180419921875,589.130126953125,507.1180419921875
431.7664794921875,534.0711669921875,409.14544677734375,534.0711669921875,409.14544677734375,507.1180419921875,431.7664794921875,507.1180419921875
301.94146728515625,534.0711669921875,279.3204650878906,534.0711669921875,279.3204650878906,507.1180419921875,301.94146728515625,507.1180419921875
797.636962890625,526.0850830078125,755.345458984375,526.0850830078125,755.345458984375,499.1319274902344,797.636962890625,499.1319274902344
837.9613647460938,490.1475524902344,837.9613647460938,467.1875,919.59375,467.1875,919.59375,490.1475524902344
683.5482788085938,490.1475524902344,641.2568359375,490.1475524902344,641.2568359375,467.1875,683.5482788085938,467.1875
1364.14599609375,486.1545104980469,1239.2386474609375,486.1545104980469,1239.2386474609375,459.2013854980469,1364.14599609375,459.2013854980469
396.3596496582031,458.203125,298.99090576171875,458.203125,298.99090576171875,431.25,396.3596496582031,431.25
1135.96875,450.2170104980469,1046.4681396484375,450.2170104980469,1046.4681396484375,423.2638854980469,1135.96875,423.2638854980469
1434.959716796875,442.23089599609375,1290.3818359375,442.23089599609375,1290.3818359375,419.27081298828125,1434.959716796875,419.27081298828125
649.125,418.2725524902344,649.125,391.3194274902344,738.6255493164062,391.3194274902344,738.6255493164062,418.2725524902344
644.2073974609375,422.265625,582.2454833984375,422.265625,582.2454833984375,391.3194274902344,644.2073974609375,391.3194274902344
1132.03466796875,410.28643798828125,1046.4681396484375,410.28643798828125,1046.4681396484375,387.3263854980469,1132.03466796875,387.3263854980469
893.0386352539062,418.2725524902344,893.0386352539062,391.3194274902344,939.2642211914062,391.3194274902344,939.2642211914062,418.2725524902344
412.0960388183594,418.2725524902344,389.4750061035156,418.2725524902344,389.4750061035156,387.3263854980469,412.0960388183594,387.3263854980469
337.3482971191406,418.2725524902344,318.661376953125,418.2725524902344,318.661376953125,391.3194274902344,337.3482971191406,391.3194274902344
298.00738525390625,418.2725524902344,279.3204650878906,418.2725524902344,279.3204650878906,391.3194274902344,298.00738525390625,391.3194274902344
1404.4703369140625,406.2933654785156,1404.4703369140625,383.3332824707031,1486.102783203125,383.3332824707031,1486.102783203125,406.2933654785156
1395.6187744140625,410.28643798828125,1310.05224609375,410.28643798828125,1310.05224609375,387.3263854980469,1395.6187744140625,387.3263854980469
1297.2664794921875,414.2795104980469,1235.3045654296875,414.2795104980469,1235.3045654296875,387.3263854980469,1297.2664794921875,387.3263854980469
1269.7279052734375,370.35589599609375,1247.1068115234375,370.35589599609375,1247.1068115234375,351.3888854980469,1269.7279052734375,351.3888854980469
1021.880126953125,374.34893798828125,995.3250122070312,374.34893798828125,995.3250122070312,351.3888854980469,1021.880126953125,351.3888854980469
940.2477416992188,374.3489074707031,940.2477416992188,351.38885498046875,990.4074096679688,351.38885498046875,990.4074096679688,374.3489074707031
1316.9368896484375,370.35589599609375,1274.6455078125,370.35589599609375,1274.6455078125,347.3958435058594,1316.9368896484375,347.3958435058594
1057.2869873046875,374.34893798828125,1030.7318115234375,374.34893798828125,1030.7318115234375,351.3888854980469,1057.2869873046875,351.3888854980469
1517.5755615234375,370.35589599609375,1455.6136474609375,370.35589599609375,1455.6136474609375,343.40277099609375,1517.5755615234375,343.40277099609375
1454.630126953125,370.35589599609375,1428.074951171875,370.35589599609375,1428.074951171875,347.3958435058594,1454.630126953125,347.3958435058594
291.12274169921875,346.3975524902344,291.12274169921875,315.4513854980469,388.4914855957031,315.4513854980469,388.4914855957031,346.3975524902344
959.918212890625,338.41143798828125,959.918212890625,311.45831298828125,1041.550537109375,311.45831298828125,1041.550537109375,338.41143798828125
617.6522216796875,338.41143798828125,617.6522216796875,311.45831298828125,699.2846069335938,311.45831298828125,699.2846069335938,338.41143798828125
1120.232421875,302.4739685058594,1011.0613403320312,302.4739685058594,1011.0613403320312,259.5486145019531,1120.232421875,259.5486145019531
982.5391845703125,302.4739685058594,881.2363891601562,302.4739685058594,881.2363891601562,259.5486145019531,982.5391845703125,259.5486145019531
864.5164794921875,302.4739685058594,763.213623046875,302.4739685058594,763.213623046875,263.5416564941406,864.5164794921875,263.5416564941406
750.4278564453125,302.4739685058594,680.5977172851562,302.4739685058594,680.5977172851562,263.5416564941406,750.4278564453125,263.5416564941406
