1855.7725830078125,1628.486328125,1768.923583984375,1628.486328125,1768.923583984375,1601.8544921875,1855.7725830078125,1601.8544921875
2235.11279296875,1628.486328125,2124.305419921875,1628.486328125,2124.305419921875,1590.01806640625,2235.11279296875,1590.01806640625
2111.328125,1620.5953369140625,2084.375,1620.5953369140625,2084.375,1582.127197265625,2111.328125,1582.127197265625
1452.4739990234375,1612.7044677734375,1381.59716796875,1612.7044677734375,1381.59716796875,1582.127197265625,1452.4739990234375,1582.127197265625
1305.7291259765625,1604.8135986328125,1305.7291259765625,1574.236328125,1336.67529296875,1574.236328125,1336.67529296875,1604.8135986328125
1169.9652099609375,1604.8135986328125,1169.9652099609375,1570.290771484375,1240.842041015625,1570.290771484375,1240.842041015625,1604.8135986328125
1058.1595458984375,1600.8680419921875,1058.1595458984375,1574.236328125,1149.0015869140625,1574.236328125,1149.0015869140625,1600.8680419921875
1804.861083984375,1581.140869140625,1804.861083984375,1554.509033203125,1831.814208984375,1554.509033203125,1831.814208984375,1581.140869140625
1768.923583984375,1581.140869140625,1768.923583984375,1550.5635986328125,1791.8836669921875,1550.5635986328125,1791.8836669921875,1581.140869140625
1755.9461669921875,1581.140869140625,1732.986083984375,1581.140869140625,1732.986083984375,1550.5635986328125,1755.9461669921875,1550.5635986328125
1640.1475830078125,1577.1953125,1617.1875,1577.1953125,1617.1875,1546.6180419921875,1640.1475830078125,1546.6180419921875
405.9401550292969,1595.31396484375,209.27914428710938,1584.5186767578125,211.93606567382812,1537.2642822265625,408.5970764160156,1548.0595703125
1612.1961669921875,1573.2498779296875,1541.3194580078125,1573.2498779296875,1541.3194580078125,1542.672607421875,1612.1961669921875,1542.672607421875
1281.770751953125,1561.41357421875,1281.770751953125,1534.78173828125,1388.5849609375,1534.78173828125,1388.5849609375,1561.41357421875
1268.7933349609375,1557.4681396484375,1173.9583740234375,1557.4681396484375,1173.9583740234375,1530.8363037109375,1268.7933349609375,1530.8363037109375
1160.9808349609375,1557.4681396484375,1094.09716796875,1557.4681396484375,1094.09716796875,1530.8363037109375,1160.9808349609375,1530.8363037109375
1081.1197509765625,1553.5225830078125,1010.2430419921875,1553.5225830078125,1010.2430419921875,1526.890869140625,1081.1197509765625,1526.890869140625
1001.2586669921875,1553.5225830078125,926.3888549804688,1553.5225830078125,926.3888549804688,1526.890869140625,1001.2586669921875,1526.890869140625
745.703125,1557.4681396484375,610.9375,1557.4681396484375,610.9375,1526.890869140625,745.703125,1526.890869140625
1919.661376953125,1537.7408447265625,1892.708251953125,1537.7408447265625,1892.708251953125,1515.054443359375,1919.661376953125,1515.054443359375
1883.723876953125,1537.7408447265625,1856.770751953125,1537.7408447265625,1856.770751953125,1515.054443359375,1883.723876953125,1515.054443359375
1843.7933349609375,1537.7408447265625,1780.9027099609375,1537.7408447265625,1780.9027099609375,1511.1090087890625,1843.7933349609375,1511.1090087890625
1721.0069580078125,1533.7952880859375,1721.0069580078125,1511.10888671875,1767.92529296875,1511.10888671875,1767.92529296875,1533.7952880859375
1640.1475830078125,1529.8499755859375,1537.326416015625,1529.8499755859375,1537.326416015625,1499.272705078125,1640.1475830078125,1499.272705078125
1365.625,1521.958984375,1365.625,1491.3817138671875,1492.404541015625,1491.3817138671875,1492.404541015625,1521.958984375
1356.640625,1518.0135498046875,1285.763916015625,1518.0135498046875,1285.763916015625,1491.3817138671875,1356.640625,1491.3817138671875
1272.7864990234375,1514.068115234375,1161.9791259765625,1514.068115234375,1161.9791259765625,1487.436279296875,1272.7864990234375,1487.436279296875
1125.0433349609375,1510.1226806640625,1106.076416015625,1510.1226806640625,1106.076416015625,1491.3817138671875,1125.0433349609375,1491.3817138671875
942.361083984375,1510.1226806640625,942.361083984375,1487.436279296875,1013.2378540039062,1487.436279296875,1013.2378540039062,1510.1226806640625
598.958251953125,1514.0679931640625,598.958251953125,1483.49072265625,761.67529296875,1483.49072265625,761.67529296875,1514.0679931640625
945.3558959960938,1510.1226806640625,902.4305419921875,1510.1226806640625,902.4305419921875,1487.436279296875,945.3558959960938,1487.436279296875
893.4461669921875,1510.1226806640625,850.5208129882812,1510.1226806640625,850.5208129882812,1487.436279296875,893.4461669921875,1487.436279296875
2151.258544921875,1506.17724609375,2040.451416015625,1506.17724609375,2040.451416015625,1479.54541015625,2151.258544921875,1479.54541015625
1596.170654296875,1487.872802734375,1444.7901611328125,1482.3328857421875,1445.9114990234375,1452.4176025390625,1597.2919921875,1457.95751953125
1436.501708984375,1478.5589599609375,1425.5208740234375,1478.5589599609375,1425.5208740234375,1455.8726806640625,1436.501708984375,1455.8726806640625
1208.8975830078125,1474.613525390625,1138.0208740234375,1474.613525390625,1138.0208740234375,1447.981689453125,1208.8975830078125,1447.981689453125
753.689208984375,1474.613525390625,710.7638549804688,1474.613525390625,710.7638549804688,1447.981689453125,753.689208984375,1447.981689453125
697.7864379882812,1474.613525390625,602.9513549804688,1474.613525390625,602.9513549804688,1447.981689453125,697.7864379882812,1447.981689453125
1871.7447509765625,1462.7772216796875,1832.8125,1462.7772216796875,1832.8125,1432.199951171875,1871.7447509765625,1432.199951171875
1725.0,1458.831787109375,1725.0,1428.2545166015625,1767.92529296875,1428.2545166015625,1767.92529296875,1458.831787109375
1660.11279296875,1454.88623046875,1509.375,1454.88623046875,1509.375,1424.3089599609375,1660.11279296875,1424.3089599609375
673.828125,1439.1044921875,606.9444580078125,1439.1044921875,606.9444580078125,1412.47265625,673.828125,1412.47265625
849.5225830078125,1439.1044921875,822.5694580078125,1439.1044921875,822.5694580078125,1412.47265625,849.5225830078125,1412.47265625
753.689208984375,1435.1590576171875,682.8125,1435.1590576171875,682.8125,1412.47265625,753.689208984375,1412.47265625
1824.826416015625,1411.4862060546875,1824.826416015625,1392.7452392578125,1871.7447509765625,1392.7452392578125,1871.7447509765625,1411.4862060546875
1823.828125,1411.486328125,1701.0416259765625,1411.486328125,1701.0416259765625,1388.7999267578125,1823.828125,1388.7999267578125
1700.0433349609375,1407.5408935546875,1657.1180419921875,1407.5408935546875,1657.1180419921875,1388.7999267578125,1700.0433349609375,1388.7999267578125
1648.1336669921875,1403.5953369140625,1645.138916015625,1403.5953369140625,1645.138916015625,1392.745361328125,1648.1336669921875,1392.745361328125
1500.390625,1411.486328125,1457.4652099609375,1411.486328125,1457.4652099609375,1388.7999267578125,1500.390625,1388.7999267578125
1640.1475830078125,1403.5953369140625,1601.2152099609375,1403.5953369140625,1601.2152099609375,1384.8544921875,1640.1475830078125,1384.8544921875
1509.3748779296875,1411.4862060546875,1509.3748779296875,1380.908935546875,1596.2237548828125,1380.908935546875,1596.2237548828125,1411.4862060546875
1101.0850830078125,1407.5408935546875,1074.1319580078125,1407.5408935546875,1074.1319580078125,1380.9090576171875,1101.0850830078125,1380.9090576171875
1069.140625,1407.5408935546875,1022.2222290039062,1407.5408935546875,1022.2222290039062,1380.9090576171875,1069.140625,1380.9090576171875
1353.6458740234375,1407.5408935546875,1353.6458740234375,1376.9635009765625,1376.6058349609375,1376.9635009765625,1376.6058349609375,1407.5408935546875
1268.7933349609375,1403.5953369140625,1245.8333740234375,1403.5953369140625,1245.8333740234375,1376.9635009765625,1268.7933349609375,1376.9635009765625
1102.0833740234375,1403.5953369140625,1102.0833740234375,1376.9635009765625,1125.0433349609375,1376.9635009765625,1125.0433349609375,1403.5953369140625
898.4375,1403.5953369140625,898.4375,1373.01806640625,985.2864379882812,1373.01806640625,985.2864379882812,1403.5953369140625
853.515625,1395.7044677734375,830.5555419921875,1395.7044677734375,830.5555419921875,1373.01806640625,853.515625,1373.01806640625
725.7378540039062,1395.7044677734375,698.7847290039062,1395.7044677734375,698.7847290039062,1369.0726318359375,725.7378540039062,1369.0726318359375
661.8489379882812,1399.64990234375,634.8958129882812,1399.64990234375,634.8958129882812,1369.0726318359375,661.8489379882812,1369.0726318359375
1868.75,1387.8135986328125,1868.75,1369.0726318359375,1903.689208984375,1369.0726318359375,1903.689208984375,1387.8135986328125
1721.0069580078125,1383.8681640625,1721.0069580078125,1361.1817626953125,1815.842041015625,1361.1817626953125,1815.842041015625,1383.8681640625
1708.029541015625,1379.922607421875,1581.25,1379.922607421875,1581.25,1357.236328125,1708.029541015625,1357.236328125
1572.265625,1375.9771728515625,1537.326416015625,1375.9771728515625,1537.326416015625,1357.236328125,1572.265625,1357.236328125
1935.6336669921875,1364.140869140625,1876.736083984375,1364.140869140625,1876.736083984375,1341.4544677734375,1935.6336669921875,1341.4544677734375
1867.751708984375,1360.1954345703125,1721.0069580078125,1360.1954345703125,1721.0069580078125,1337.509033203125,1867.751708984375,1337.509033203125
594.9652099609375,1360.1953125,594.9652099609375,1333.5634765625,757.6821899414062,1333.5634765625,757.6821899414062,1360.1953125
1712.0225830078125,1356.2498779296875,1697.048583984375,1356.2498779296875,1697.048583984375,1337.509033203125,1712.0225830078125,1337.509033203125
1688.064208984375,1356.2498779296875,1537.326416015625,1356.2498779296875,1537.326416015625,1333.5635986328125,1688.064208984375,1333.5635986328125
1524.348876953125,1352.304443359375,1513.3680419921875,1352.304443359375,1513.3680419921875,1329.6181640625,1524.348876953125,1329.6181640625
1636.154541015625,1328.6317138671875,1561.28466796875,1328.6317138671875,1561.28466796875,1305.9454345703125,1636.154541015625,1305.9454345703125
1552.30029296875,1328.6317138671875,1537.326416015625,1328.6317138671875,1537.326416015625,1309.890869140625,1552.30029296875,1309.890869140625
777.6475830078125,1328.6317138671875,578.9930419921875,1328.6317138671875,578.9930419921875,1301.9998779296875,777.6475830078125,1301.9998779296875
1919.661376953125,1312.8499755859375,1860.763916015625,1312.8499755859375,1860.763916015625,1290.16357421875,1919.661376953125,1290.16357421875
1851.779541015625,1308.9044189453125,1756.9444580078125,1308.9044189453125,1756.9444580078125,1286.2181396484375,1851.779541015625,1286.2181396484375
1747.9600830078125,1304.958984375,1709.0277099609375,1304.958984375,1709.0277099609375,1286.2181396484375,1747.9600830078125,1286.2181396484375
1704.036376953125,1304.958984375,1629.1666259765625,1304.958984375,1629.1666259765625,1282.272705078125,1704.036376953125,1282.272705078125
1620.1822509765625,1301.0135498046875,1561.28466796875,1301.0135498046875,1561.28466796875,1282.272705078125,1620.1822509765625,1282.272705078125
1552.30029296875,1301.0135498046875,1537.326416015625,1301.0135498046875,1537.326416015625,1282.272705078125,1552.30029296875,1282.272705078125
1524.348876953125,1297.068115234375,1513.3680419921875,1297.068115234375,1513.3680419921875,1282.272705078125,1524.348876953125,1282.272705078125
726.7360229492188,1297.0679931640625,726.7360229492188,1270.4361572265625,773.6544189453125,1270.4361572265625,773.6544189453125,1297.0679931640625
717.751708984375,1297.068115234375,694.7916870117188,1297.068115234375,694.7916870117188,1274.3817138671875,717.751708984375,1274.3817138671875
689.8003540039062,1297.068115234375,638.8888549804688,1297.068115234375,638.8888549804688,1274.3817138671875,689.8003540039062,1274.3817138671875
582.9860229492188,1297.0679931640625,582.9860229492188,1270.4361572265625,629.9044189453125,1270.4361572265625,629.9044189453125,1297.0679931640625
1964.583251953125,1289.17724609375,1964.583251953125,1266.4908447265625,1987.5433349609375,1266.4908447265625,1987.5433349609375,1289.17724609375
1696.05029296875,1277.3408203125,1593.2291259765625,1277.3408203125,1593.2291259765625,1258.5999755859375,1696.05029296875,1258.5999755859375
1592.2308349609375,1273.3953857421875,1533.333251953125,1273.3953857421875,1533.333251953125,1254.6544189453125,1592.2308349609375,1254.6544189453125
530.078125,1269.449951171875,515.1041870117188,1269.449951171875,515.1041870117188,1246.7635498046875,530.078125,1246.7635498046875
2239.10595703125,1261.55908203125,2212.15283203125,1261.55908203125,2212.15283203125,1234.92724609375,2239.10595703125,1234.92724609375
1907.6822509765625,1261.55908203125,1808.8541259765625,1261.55908203125,1808.8541259765625,1234.92724609375,1907.6822509765625,1234.92724609375
737.7169799804688,1265.5045166015625,714.7569580078125,1265.5045166015625,714.7569580078125,1238.8726806640625,737.7169799804688,1238.8726806640625
677.8211669921875,1265.5045166015625,654.861083984375,1265.5045166015625,654.861083984375,1238.8726806640625,677.8211669921875,1238.8726806640625
2203.16845703125,1257.613525390625,2172.22216796875,1257.613525390625,2172.22216796875,1230.9818115234375,2203.16845703125,1230.9818115234375
1799.8697509765625,1257.613525390625,1705.03466796875,1257.613525390625,1705.03466796875,1230.9818115234375,1799.8697509765625,1230.9818115234375
1696.05029296875,1253.6680908203125,1561.28466796875,1253.6680908203125,1561.28466796875,1230.9818115234375,1696.05029296875,1230.9818115234375
1552.30029296875,1249.72265625,1533.333251953125,1249.72265625,1533.333251953125,1230.9818115234375,1552.30029296875,1230.9818115234375
1524.348876953125,1245.7772216796875,1513.3680419921875,1245.7772216796875,1513.3680419921875,1230.9818115234375,1524.348876953125,1230.9818115234375
502.1267395019531,1237.8863525390625,443.2291564941406,1237.8863525390625,443.2291564941406,1215.199951171875,502.1267395019531,1215.199951171875
375.34722900390625,1237.8863525390625,375.34722900390625,1211.2545166015625,430.2517395019531,1211.2545166015625,430.2517395019531,1237.8863525390625
231.5972137451172,1237.88623046875,231.5972137451172,1211.25439453125,286.5017395019531,1211.25439453125,286.5017395019531,1237.88623046875
785.6336669921875,1233.9407958984375,606.9444580078125,1233.9407958984375,606.9444580078125,1207.30908203125,785.6336669921875,1207.30908203125
338.4114685058594,1237.8863525390625,303.47222900390625,1237.8863525390625,303.47222900390625,1211.2545166015625,338.4114685058594,1211.2545166015625
570.0086669921875,1233.9407958984375,551.0416870117188,1233.9407958984375,551.0416870117188,1207.30908203125,570.0086669921875,1207.30908203125
1835.8072509765625,1214.213623046875,1808.8541259765625,1214.213623046875,1808.8541259765625,1191.5272216796875,1835.8072509765625,1191.5272216796875
2295.008544921875,1210.26806640625,2268.055419921875,1210.26806640625,2268.055419921875,1187.581787109375,2295.008544921875,1187.581787109375
2200.17333984375,1206.322509765625,2200.17333984375,1187.5816650390625,2255.077880859375,1187.5816650390625,2255.077880859375,1206.322509765625
2187.196044921875,1206.3226318359375,2144.270751953125,1206.3226318359375,2144.270751953125,1187.581787109375,2187.196044921875,1187.581787109375
2115.321044921875,1206.3226318359375,2040.451416015625,1206.3226318359375,2040.451416015625,1183.6363525390625,2115.321044921875,1183.6363525390625
1700.0433349609375,1210.26806640625,1665.1041259765625,1210.26806640625,1665.1041259765625,1187.581787109375,1700.0433349609375,1187.581787109375
1624.17529296875,1206.3226318359375,1525.34716796875,1206.3226318359375,1525.34716796875,1183.6363525390625,1624.17529296875,1183.6363525390625
462.1961669921875,1206.3226318359375,399.3055419921875,1206.3226318359375,399.3055419921875,1183.6363525390625,462.1961669921875,1183.6363525390625
258.55035400390625,1202.377197265625,155.7291717529297,1202.377197265625,155.7291717529297,1179.6907958984375,258.55035400390625,1179.6907958984375
741.7100830078125,1202.377197265625,646.875,1202.377197265625,646.875,1179.6907958984375,741.7100830078125,1179.6907958984375
2295.008544921875,1178.7044677734375,2268.055419921875,1178.7044677734375,2268.055419921875,1156.01806640625,2295.008544921875,1156.01806640625
2255.078125,1178.7044677734375,2196.180419921875,1178.7044677734375,2196.180419921875,1159.963623046875,2255.078125,1159.963623046875
2183.203125,1178.7044677734375,2144.270751953125,1178.7044677734375,2144.270751953125,1156.01806640625,2183.203125,1156.01806640625
1835.8072509765625,1182.64990234375,1812.84716796875,1182.64990234375,1812.84716796875,1156.01806640625,1835.8072509765625,1156.01806640625
2115.321044921875,1174.759033203125,2044.4444580078125,1174.759033203125,2044.4444580078125,1152.0726318359375,2115.321044921875,1152.0726318359375
1721.0069580078125,1182.6497802734375,1721.0069580078125,1152.072509765625,1807.8558349609375,1152.072509765625,1807.8558349609375,1182.6497802734375
1696.05029296875,1178.7044677734375,1669.09716796875,1178.7044677734375,1669.09716796875,1152.0726318359375,1696.05029296875,1152.0726318359375
1624.17529296875,1174.759033203125,1525.34716796875,1174.759033203125,1525.34716796875,1152.0726318359375,1624.17529296875,1152.0726318359375
502.1267395019531,1174.759033203125,407.2916564941406,1174.759033203125,407.2916564941406,1152.0726318359375,502.1267395019531,1152.0726318359375
291.4930114746094,1174.7589111328125,291.4930114746094,1152.072509765625,398.3072509765625,1152.072509765625,398.3072509765625,1174.7589111328125
638.8887939453125,1170.8134765625,638.8887939453125,1148.1270751953125,753.6891479492188,1148.1270751953125,753.6891479492188,1170.8134765625
262.54339599609375,1174.759033203125,239.5833282470703,1174.759033203125,239.5833282470703,1152.0726318359375,262.54339599609375,1152.0726318359375
218.61978149414062,1174.759033203125,195.6597137451172,1174.759033203125,195.6597137451172,1152.0726318359375,218.61978149414062,1152.0726318359375
174.69618225097656,1174.759033203125,155.7291717529297,1174.759033203125,155.7291717529297,1152.0726318359375,174.69618225097656,1152.0726318359375
570.0086669921875,1162.922607421875,551.0416870117188,1162.922607421875,551.0416870117188,1136.2908935546875,570.0086669921875,1136.2908935546875
2191.189208984375,1151.0863037109375,2044.4444580078125,1151.0863037109375,2044.4444580078125,1124.4544677734375,2191.189208984375,1124.4544677734375
2027.473876953125,1143.1954345703125,2012.5,1143.1954345703125,2012.5,1124.4544677734375,2027.473876953125,1124.4544677734375
1831.814208984375,1147.140869140625,1808.8541259765625,1147.140869140625,1808.8541259765625,1124.4544677734375,1831.814208984375,1124.4544677734375
1665.1041259765625,1147.140869140625,1665.1041259765625,1120.509033203125,1696.05029296875,1120.509033203125,1696.05029296875,1147.140869140625
1620.1822509765625,1143.1954345703125,1525.34716796875,1143.1954345703125,1525.34716796875,1120.509033203125,1620.1822509765625,1120.509033203125
466.1892395019531,1143.1954345703125,407.2916564941406,1143.1954345703125,407.2916564941406,1120.509033203125,466.1892395019531,1120.509033203125
398.3072814941406,1143.1954345703125,331.4236145019531,1143.1954345703125,331.4236145019531,1120.509033203125,398.3072814941406,1120.509033203125
135.76388549804688,1143.1954345703125,135.76388549804688,1120.509033203125,278.515625,1120.509033203125,278.515625,1143.1954345703125
638.8887939453125,1139.2498779296875,638.8887939453125,1112.6180419921875,753.6891479492188,1112.6180419921875,753.6891479492188,1139.2498779296875
2143.2724609375,1119.522705078125,2040.451416015625,1119.522705078125,2040.451416015625,1092.890869140625,2143.2724609375,1092.890869140625
1696.05029296875,1115.5772705078125,1665.1041259765625,1115.5772705078125,1665.1041259765625,1088.9454345703125,1696.05029296875,1088.9454345703125
235.59027099609375,1115.5771484375,235.59027099609375,1088.9453125,318.4461669921875,1088.9453125,318.4461669921875,1115.5771484375
1648.1336669921875,1111.6317138671875,1497.395751953125,1111.6317138671875,1497.395751953125,1085.0,1648.1336669921875,1085.0
785.6336669921875,1107.686279296875,694.7916870117188,1107.686279296875,694.7916870117188,1081.054443359375,785.6336669921875,1081.054443359375
649.8698120117188,1107.686279296875,606.9444580078125,1107.686279296875,606.9444580078125,1085.0,649.8698120117188,1085.0
681.814208984375,1107.686279296875,662.8472290039062,1107.686279296875,662.8472290039062,1081.054443359375,681.814208984375,1081.054443359375
139.75692749023438,1095.849853515625,139.75692749023438,1073.1634521484375,202.64755249023438,1073.1634521484375,202.64755249023438,1095.849853515625
2091.36279296875,1087.958984375,2040.451416015625,1087.958984375,2040.451416015625,1069.2181396484375,2091.36279296875,1069.2181396484375
570.0086669921875,1087.958984375,551.0416870117188,1087.958984375,551.0416870117188,1061.3272705078125,570.0086669921875,1061.3272705078125
322.4392395019531,1084.0135498046875,235.59027099609375,1084.0135498046875,235.59027099609375,1057.3817138671875,322.4392395019531,1057.3817138671875
1692.0572509765625,1084.0135498046875,1665.1041259765625,1084.0135498046875,1665.1041259765625,1057.3817138671875,1692.0572509765625,1057.3817138671875
1620.1822509765625,1080.068115234375,1521.3541259765625,1080.068115234375,1521.3541259765625,1053.436279296875,1620.1822509765625,1053.436279296875
809.5919799804688,1072.17724609375,742.7083129882812,1072.17724609375,742.7083129882812,1053.436279296875,809.5919799804688,1053.436279296875
682.8124389648438,1072.1771240234375,682.8124389648438,1053.4361572265625,737.7169189453125,1053.4361572265625,737.7169189453125,1072.1771240234375
677.8211669921875,1072.17724609375,634.8958129882812,1072.17724609375,634.8958129882812,1053.436279296875,677.8211669921875,1053.436279296875
629.9044799804688,1076.1226806640625,578.9930419921875,1076.1226806640625,578.9930419921875,1053.436279296875,629.9044799804688,1053.436279296875
2192.1875,1060.3408203125,2192.1875,1041.5999755859375,2223.133544921875,1041.5999755859375,2223.133544921875,1060.3408203125
175.69444274902344,1068.2318115234375,175.69444274902344,1041.5999755859375,198.65451049804688,1041.5999755859375,198.65451049804688,1068.2318115234375
162.71701049804688,1068.2318115234375,139.75694274902344,1068.2318115234375,139.75694274902344,1041.5999755859375,162.71701049804688,1041.5999755859375
2175.217041015625,1064.2862548828125,2152.2568359375,1064.2862548828125,2152.2568359375,1041.5999755859375,2175.217041015625,1041.5999755859375
2139.279541015625,1060.3408203125,2044.4444580078125,1060.3408203125,2044.4444580078125,1041.5999755859375,2139.279541015625,1041.5999755859375
2027.473876953125,1060.3408203125,2008.5069580078125,1060.3408203125,2008.5069580078125,1041.5999755859375,2027.473876953125,1041.5999755859375
1855.7725830078125,1052.449951171875,1721.0069580078125,1052.449951171875,1721.0069580078125,1025.818115234375,1855.7725830078125,1025.818115234375
322.4392395019531,1052.449951171875,235.59027099609375,1052.449951171875,235.59027099609375,1025.818115234375,322.4392395019531,1025.818115234375
1692.0572509765625,1048.5045166015625,1665.1041259765625,1048.5045166015625,1665.1041259765625,1021.8726806640625,1692.0572509765625,1021.8726806640625
1648.1336669921875,1048.5045166015625,1517.361083984375,1048.5045166015625,1517.361083984375,1021.8726806640625,1648.1336669921875,1021.8726806640625
1516.36279296875,1044.55908203125,1493.4027099609375,1044.55908203125,1493.4027099609375,1021.8726806640625,1516.36279296875,1021.8726806640625
761.6753540039062,1044.55908203125,626.9097290039062,1044.55908203125,626.9097290039062,1017.92724609375,761.6753540039062,1017.92724609375
2223.133544921875,1032.72265625,2152.2568359375,1032.72265625,2152.2568359375,1010.0363159179688,2223.133544921875,1010.0363159179688
2135.286376953125,1028.7772216796875,2040.451416015625,1028.7772216796875,2040.451416015625,1006.0908813476562,2135.286376953125,1006.0908813476562
1931.640625,1020.8862915039062,1721.0069580078125,1020.8862915039062,1721.0069580078125,994.2545166015625,1931.640625,994.2545166015625
318.4461669921875,1020.8862915039062,235.59027099609375,1020.8862915039062,235.59027099609375,994.2545166015625,318.4461669921875,994.2545166015625
1692.0572509765625,1016.9408569335938,1661.111083984375,1016.9408569335938,1661.111083984375,990.3090209960938,1692.0572509765625,990.3090209960938
1620.1822509765625,1012.9954223632812,1521.3541259765625,1012.9954223632812,1521.3541259765625,990.3090209960938,1620.1822509765625,990.3090209960938
749.6961669921875,1012.9954223632812,638.8888549804688,1012.9954223632812,638.8888549804688,990.3090209960938,749.6961669921875,990.3090209960938
570.0086669921875,1016.9408569335938,551.0416870117188,1016.9408569335938,551.0416870117188,990.3090209960938,570.0086669921875,990.3090209960938
462.1961669921875,1012.9954223632812,399.3055419921875,1012.9954223632812,399.3055419921875,986.3635864257812,462.1961669921875,986.3635864257812
178.68923950195312,1009.0499267578125,155.7291717529297,1009.0499267578125,155.7291717529297,990.3090209960938,178.68923950195312,990.3090209960938
2152.2568359375,1005.1044921875,2152.2568359375,978.47265625,2247.092041015625,978.47265625,2247.092041015625,1005.1044921875
2139.279541015625,1001.1590576171875,2040.451416015625,1001.1590576171875,2040.451416015625,978.47265625,2139.279541015625,978.47265625
2027.473876953125,1001.1590576171875,2008.5069580078125,1001.1590576171875,2008.5069580078125,978.47265625,2027.473876953125,978.47265625
1831.814208984375,989.3226928710938,1748.958251953125,989.3226928710938,1748.958251953125,962.6908569335938,1831.814208984375,962.6908569335938
1743.967041015625,989.3226928710938,1721.0069580078125,989.3226928710938,1721.0069580078125,962.6908569335938,1743.967041015625,962.6908569335938
745.703125,981.4317626953125,642.8819580078125,981.4317626953125,642.8819580078125,958.7454223632812,745.703125,958.7454223632812
235.9126739501953,990.47412109375,234.067626953125,961.3053588867188,318.2791442871094,956.1049194335938,320.12420654296875,985.273681640625
178.68923950195312,981.4317626953125,155.7291717529297,981.4317626953125,155.7291717529297,962.6908569335938,178.68923950195312,962.6908569335938
1692.0572509765625,981.4317626953125,1661.111083984375,981.4317626953125,1661.111083984375,958.7454223632812,1692.0572509765625,958.7454223632812
1620.1822509765625,981.4317626953125,1517.361083984375,981.4317626953125,1517.361083984375,958.7454223632812,1620.1822509765625,958.7454223632812
502.1267395019531,977.486328125,399.3055419921875,977.486328125,399.3055419921875,958.7454223632812,502.1267395019531,958.7454223632812
2143.2724609375,957.759033203125,2040.451416015625,957.759033203125,2040.451416015625,927.1817626953125,2143.2724609375,927.1817626953125
1811.848876953125,953.8135986328125,1605.208251953125,953.8135986328125,1605.208251953125,927.1817626953125,1811.848876953125,927.1817626953125
582.9860229492188,949.8681030273438,582.9860229492188,927.1817626953125,809.5919189453125,927.1817626953125,809.5919189453125,949.8681030273438
538.064208984375,941.9772338867188,507.1180419921875,941.9772338867188,507.1180419921875,931.127197265625,538.064208984375,931.127197265625
318.4461669921875,953.8135986328125,231.5972137451172,953.8135986328125,231.5972137451172,927.1817626953125,318.4461669921875,927.1817626953125
178.68923950195312,953.8135986328125,155.7291717529297,953.8135986328125,155.7291717529297,931.127197265625,178.68923950195312,931.127197265625
498.1336669921875,945.9226684570312,395.3125,945.9226684570312,395.3125,927.1817626953125,498.1336669921875,927.1817626953125
2212.15283203125,918.3045043945312,2212.15283203125,907.4544677734375,2235.11279296875,907.4544677734375,2235.11279296875,918.3045043945312
749.6961669921875,918.3045043945312,638.8888549804688,918.3045043945312,638.8888549804688,895.6181030273438,749.6961669921875,895.6181030273438
399.3055419921875,918.3045043945312,399.3055419921875,895.6181030273438,482.16143798828125,895.6181030273438,482.16143798828125,918.3045043945312
231.5972137451172,918.3045043945312,231.5972137451172,895.6181030273438,314.453125,895.6181030273438,314.453125,918.3045043945312
178.68923950195312,926.1954345703125,155.7291717529297,926.1954345703125,155.7291717529297,899.5635986328125,178.68923950195312,899.5635986328125
2139.279541015625,922.2499389648438,2040.451416015625,922.2499389648438,2040.451416015625,895.6181030273438,2139.279541015625,895.6181030273438
1493.4027099609375,918.3045043945312,1493.4027099609375,891.6726684570312,1644.140625,891.6726684570312,1644.140625,918.3045043945312
211.63194274902344,886.7408447265625,211.63194274902344,860.1090698242188,350.390625,860.1090698242188,350.390625,886.7408447265625
2143.2724609375,886.7408447265625,2036.458251953125,886.7408447265625,2036.458251953125,856.16357421875,2143.2724609375,856.16357421875
1493.4027099609375,886.7408447265625,1493.4027099609375,860.1090698242188,1644.140625,860.1090698242188,1644.140625,886.7408447265625
793.6197509765625,886.7408447265625,682.8125,886.7408447265625,682.8125,864.0545043945312,793.6197509765625,864.0545043945312
669.8350830078125,890.6863403320312,650.8680419921875,890.6863403320312,650.8680419921875,864.0545043945312,669.8350830078125,864.0545043945312
637.890625,890.6863403320312,590.9722290039062,890.6863403320312,590.9722290039062,864.0545043945312,637.890625,864.0545043945312
474.17535400390625,890.6863403320312,443.2291564941406,890.6863403320312,443.2291564941406,860.1090698242188,474.17535400390625,860.1090698242188
210.63368225097656,890.6863403320312,147.74305725097656,890.6863403320312,147.74305725097656,860.1090698242188,210.63368225097656,860.1090698242188
1979.5572509765625,870.9590454101562,1960.5902099609375,870.9590454101562,1960.5902099609375,852.2181396484375,1979.5572509765625,852.2181396484375
526.0850830078125,874.9044799804688,511.1111145019531,874.9044799804688,511.1111145019531,852.2181396484375,526.0850830078125,852.2181396484375
2295.008544921875,859.1226806640625,2208.15966796875,859.1226806640625,2208.15966796875,836.4363403320312,2295.008544921875,836.4363403320312
1097.092041015625,859.1226806640625,1030.2083740234375,859.1226806640625,1030.2083740234375,836.4363403320312,1097.092041015625,836.4363403320312
1417.53466796875,859.1226806640625,1417.53466796875,832.4908447265625,1484.4183349609375,832.4908447265625,1484.4183349609375,859.1226806640625
953.3419799804688,859.1226806640625,910.4166259765625,859.1226806640625,910.4166259765625,836.4363403320312,953.3419799804688,836.4363403320312
634.895751953125,855.17724609375,634.895751953125,832.4908447265625,749.6961059570312,832.4908447265625,749.6961059570312,855.17724609375
502.1267395019531,855.17724609375,431.25,855.17724609375,431.25,832.4908447265625,502.1267395019531,832.4908447265625
1672.092041015625,855.17724609375,1537.326416015625,855.17724609375,1537.326416015625,828.54541015625,1672.092041015625,828.54541015625
306.4670104980469,855.17724609375,283.5069274902344,855.17724609375,283.5069274902344,832.4908447265625,306.4670104980469,832.4908447265625
266.5364685058594,855.17724609375,243.57638549804688,855.17724609375,243.57638549804688,832.4908447265625,266.5364685058594,832.4908447265625
2139.279541015625,851.2317504882812,2040.451416015625,851.2317504882812,2040.451416015625,824.5999755859375,2139.279541015625,824.5999755859375
174.69618225097656,831.5045166015625,151.73611450195312,831.5045166015625,151.73611450195312,808.818115234375,174.69618225097656,808.818115234375
623.0438842773438,827.7645263671875,622.2654418945312,802.3815307617188,761.5919799804688,798.2098388671875,762.3704223632812,823.5928344726562
566.015625,827.5590209960938,547.048583984375,827.5590209960938,547.048583984375,800.92724609375,566.015625,800.92724609375
302.4739685058594,823.6135864257812,239.5833282470703,823.6135864257812,239.5833282470703,800.92724609375,302.4739685058594,800.92724609375
2251.0849609375,819.6681518554688,2164.236083984375,819.6681518554688,2164.236083984375,796.9817504882812,2251.0849609375,796.9817504882812
1497.395751953125,811.7772216796875,1497.395751953125,781.199951171875,1747.9600830078125,781.199951171875,1747.9600830078125,811.7772216796875
1795.876708984375,811.7772216796875,1760.9375,811.7772216796875,1760.9375,781.199951171875,1795.876708984375,781.199951171875
1093.0989990234375,799.9408569335938,1014.236083984375,799.9408569335938,1014.236083984375,773.3090209960938,1093.0989990234375,773.3090209960938
890.4513549804688,799.9408569335938,890.4513549804688,773.3090209960938,957.3350830078125,773.3090209960938,957.3350830078125,799.9408569335938
634.895751953125,795.9954223632812,634.895751953125,769.3635864257812,749.6961059570312,769.3635864257812,749.6961059570312,795.9954223632812
302.4739685058594,795.9954223632812,239.5833282470703,795.9954223632812,239.5833282470703,769.3635864257812,302.4739685058594,769.3635864257812
174.69618225097656,799.9408569335938,151.73611450195312,799.9408569335938,151.73611450195312,773.3090209960938,174.69618225097656,773.3090209960938
2172.22216796875,792.0499267578125,2172.22216796875,761.47265625,2239.10595703125,761.47265625,2239.10595703125,792.0499267578125
2159.244873046875,795.9954223632812,2056.423583984375,795.9954223632812,2056.423583984375,761.47265625,2159.244873046875,761.47265625
1101.0850830078125,768.3772583007812,1006.25,768.3772583007812,1006.25,741.7454223632812,1101.0850830078125,741.7454223632812
953.3419799804688,768.3772583007812,874.4791259765625,768.3772583007812,874.4791259765625,741.7454223632812,953.3419799804688,741.7454223632812
733.7239379882812,764.4317626953125,706.7708129882812,764.4317626953125,706.7708129882812,741.7454223632812,733.7239379882812,741.7454223632812
705.7725830078125,764.4317626953125,678.8194580078125,764.4317626953125,678.8194580078125,741.7454223632812,705.7725830078125,741.7454223632812
669.8350830078125,764.4317626953125,646.875,764.4317626953125,646.875,741.7454223632812,669.8350830078125,741.7454223632812
302.4739685058594,764.4317626953125,279.5138854980469,764.4317626953125,279.5138854980469,741.7454223632812,302.4739685058594,741.7454223632812
262.54339599609375,760.486328125,239.5833282470703,760.486328125,239.5833282470703,741.7454223632812,262.54339599609375,741.7454223632812
1840.798583984375,760.486328125,1840.798583984375,729.9090576171875,1939.626708984375,729.9090576171875,1939.626708984375,760.486328125
174.69618225097656,764.4317626953125,147.74305725097656,764.4317626953125,147.74305725097656,737.7999877929688,174.69618225097656,737.7999877929688
1696.05029296875,756.5408935546875,1673.0902099609375,756.5408935546875,1673.0902099609375,733.8544921875,1696.05029296875,733.8544921875
1640.1475830078125,756.5408935546875,1613.1944580078125,756.5408935546875,1613.1944580078125,733.8544921875,1640.1475830078125,733.8544921875
562.0225830078125,756.5408935546875,543.0555419921875,756.5408935546875,543.0555419921875,729.9090576171875,562.0225830078125,729.9090576171875
1093.0989990234375,736.8135986328125,1026.2152099609375,736.8135986328125,1026.2152099609375,710.1817626953125,1093.0989990234375,710.1817626953125
953.3419799804688,736.8135986328125,906.423583984375,736.8135986328125,906.423583984375,710.1817626953125,953.3419799804688,710.1817626953125
215.625,732.8681030273438,215.625,710.1817016601562,322.4392395019531,710.1817016601562,322.4392395019531,732.8681030273438
757.6822509765625,732.8681640625,618.923583984375,732.8681640625,618.923583984375,706.236328125,757.6822509765625,706.236328125
1560.286376953125,728.9226684570312,1513.3680419921875,728.9226684570312,1513.3680419921875,702.2908935546875,1560.286376953125,702.2908935546875
170.703125,728.9226684570312,147.74305725097656,728.9226684570312,147.74305725097656,706.236328125,170.703125,706.236328125
1696.05029296875,724.9772338867188,1673.0902099609375,724.9772338867188,1673.0902099609375,698.3453979492188,1696.05029296875,698.3453979492188
1640.1475830078125,724.9772338867188,1613.1944580078125,724.9772338867188,1613.1944580078125,698.3453979492188,1640.1475830078125,698.3453979492188
1584.2447509765625,697.3590698242188,1489.40966796875,697.3590698242188,1489.40966796875,674.6726684570312,1584.2447509765625,674.6726684570312
733.7239379882812,697.3590698242188,710.7638549804688,697.3590698242188,710.7638549804688,678.6181640625,733.7239379882812,678.6181640625
669.8350830078125,697.3590698242188,642.8819580078125,697.3590698242188,642.8819580078125,674.6726684570312,669.8350830078125,674.6726684570312
294.48785400390625,701.3045043945312,275.5208435058594,701.3045043945312,275.5208435058594,678.6181640625,294.48785400390625,678.6181640625
258.55035400390625,701.3045043945312,235.59027099609375,701.3045043945312,235.59027099609375,678.6181640625,258.55035400390625,678.6181640625
697.7864379882812,701.3045043945312,678.8194580078125,701.3045043945312,678.8194580078125,674.6726684570312,697.7864379882812,674.6726684570312
494.140625,693.41357421875,423.2638854980469,693.41357421875,423.2638854980469,670.7272338867188,494.140625,670.7272338867188
1712.0225830078125,693.41357421875,1589.236083984375,693.41357421875,1589.236083984375,666.7817993164062,1712.0225830078125,666.7817993164062
562.0225830078125,681.5772094726562,539.0625,681.5772094726562,539.0625,658.890869140625,562.0225830078125,658.890869140625
298.48089599609375,669.7408447265625,151.73611450195312,669.7408447265625,151.73611450195312,643.1090698242188,298.48089599609375,643.1090698242188
1089.1058349609375,665.79541015625,1010.2430419921875,665.79541015625,1010.2430419921875,643.1090698242188,1089.1058349609375,643.1090698242188
949.3489379882812,665.79541015625,886.4583129882812,665.79541015625,886.4583129882812,643.1090698242188,949.3489379882812,643.1090698242188
785.6336669921875,665.79541015625,714.7569580078125,665.79541015625,714.7569580078125,643.1090698242188,785.6336669921875,643.1090698242188
494.140625,661.8499755859375,423.2638854980469,661.8499755859375,423.2638854980469,639.16357421875,494.140625,639.16357421875
1480.42529296875,661.8499755859375,1413.5416259765625,661.8499755859375,1413.5416259765625,635.2181396484375,1480.42529296875,635.2181396484375
1696.05029296875,653.9590454101562,1673.0902099609375,653.9590454101562,1673.0902099609375,635.2181396484375,1696.05029296875,635.2181396484375
1636.154541015625,657.9044799804688,1613.1944580078125,657.9044799804688,1613.1944580078125,635.2181396484375,1636.154541015625,635.2181396484375
665.8419799804688,657.9044799804688,590.9722290039062,657.9044799804688,590.9722290039062,627.3272094726562,665.8419799804688,627.3272094726562
1840.798583984375,653.9590454101562,1840.798583984375,623.3817749023438,1943.6197509765625,623.3817749023438,1943.6197509765625,653.9590454101562
781.640625,634.2318115234375,714.7569580078125,634.2318115234375,714.7569580078125,611.54541015625,781.640625,611.54541015625
159.7222137451172,638.17724609375,159.7222137451172,611.54541015625,286.5017395019531,611.54541015625,286.5017395019531,638.17724609375
1010.2430419921875,630.2863159179688,1010.2430419921875,607.5999755859375,1089.1058349609375,607.5999755859375,1089.1058349609375,630.2863159179688
886.4583129882812,634.2317504882812,886.4583129882812,607.5999145507812,949.3489379882812,607.5999145507812,949.3489379882812,634.2317504882812
419.27081298828125,630.2863159179688,419.27081298828125,607.5999755859375,494.140625,607.5999755859375,494.140625,630.2863159179688
1636.154541015625,626.3408813476562,1589.236083984375,626.3408813476562,1589.236083984375,603.654541015625,1636.154541015625,603.654541015625
1676.0850830078125,626.3408813476562,1637.1527099609375,626.3408813476562,1637.1527099609375,603.654541015625,1676.0850830078125,603.654541015625
661.8489379882812,602.6681518554688,590.9722290039062,602.6681518554688,590.9722290039062,579.9818115234375,661.8489379882812,579.9818115234375
558.0294799804688,610.55908203125,535.0694580078125,610.55908203125,535.0694580078125,583.92724609375,558.0294799804688,583.92724609375
159.72218322753906,606.613525390625,159.72218322753906,579.9817504882812,282.5086364746094,579.9817504882812,282.5086364746094,606.613525390625
1840.798583984375,606.6135864257812,1840.798583984375,572.0908813476562,1939.626708984375,572.0908813476562,1939.626708984375,606.6135864257812
1089.1058349609375,602.6681518554688,1022.2222290039062,602.6681518554688,1022.2222290039062,576.0363159179688,1089.1058349609375,576.0363159179688
949.3489379882812,602.6681518554688,902.4305419921875,602.6681518554688,902.4305419921875,576.0363159179688,949.3489379882812,576.0363159179688
781.640625,602.6681518554688,714.7569580078125,602.6681518554688,714.7569580078125,579.9818115234375,781.640625,579.9818115234375
1552.30029296875,598.7227172851562,1517.361083984375,598.7227172851562,1517.361083984375,572.0908813476562,1552.30029296875,572.0908813476562
403.2986145019531,598.7227172851562,403.2986145019531,572.0908813476562,490.1475524902344,572.0908813476562,490.1475524902344,598.7227172851562
1549.3055419921875,598.7227172851562,1549.3055419921875,568.1454467773438,1628.1683349609375,568.1454467773438,1628.1683349609375,598.7227172851562
1480.42529296875,594.7772216796875,1417.53466796875,594.7772216796875,1417.53466796875,572.0908813476562,1480.42529296875,572.0908813476562
270.5295104980469,575.0499877929688,163.71527099609375,575.0499877929688,163.71527099609375,548.4181518554688,270.5295104980469,548.4181518554688
1089.1058349609375,571.1044921875,1022.2222290039062,571.1044921875,1022.2222290039062,544.4727172851562,1089.1058349609375,544.4727172851562
902.4305419921875,567.1589965820312,902.4305419921875,544.47265625,949.3489379882812,544.47265625,949.3489379882812,567.1589965820312
781.640625,571.1044921875,710.7638549804688,571.1044921875,710.7638549804688,544.4727172851562,781.640625,544.4727172851562
657.8558959960938,575.0499877929688,590.9722290039062,575.0499877929688,590.9722290039062,548.4181518554688,657.8558959960938,548.4181518554688
403.2986145019531,567.1589965820312,403.2986145019531,544.47265625,486.1545104980469,544.47265625,486.1545104980469,567.1589965820312
1533.3331298828125,563.2135620117188,1533.3331298828125,532.6362915039062,1668.0987548828125,532.6362915039062,1668.0987548828125,563.2135620117188
1085.11279296875,535.5953979492188,1010.2430419921875,535.5953979492188,1010.2430419921875,512.9090576171875,1085.11279296875,512.9090576171875
945.3558959960938,535.5953979492188,870.486083984375,535.5953979492188,870.486083984375,512.9090576171875,945.3558959960938,512.9090576171875
669.8350830078125,539.5408935546875,646.875,539.5408935546875,646.875,512.9090576171875,669.8350830078125,512.9090576171875
709.765625,535.5953979492188,690.798583984375,535.5953979492188,690.798583984375,512.9090576171875,709.765625,512.9090576171875
406.29339599609375,539.5408935546875,379.34027099609375,539.5408935546875,379.34027099609375,508.963623046875,406.29339599609375,508.963623046875
366.36285400390625,543.486328125,339.40972900390625,543.486328125,339.40972900390625,508.963623046875,366.36285400390625,508.963623046875
290.4947814941406,543.486328125,259.5486145019531,543.486328125,259.5486145019531,512.9090576171875,290.4947814941406,512.9090576171875
250.56423950195312,539.5408935546875,223.61111450195312,539.5408935546875,223.61111450195312,512.9090576171875,250.56423950195312,512.9090576171875
214.62673950195312,543.486328125,183.68055725097656,543.486328125,183.68055725097656,512.9090576171875,214.62673950195312,512.9090576171875
326.4322814941406,543.486328125,299.4791564941406,543.486328125,299.4791564941406,508.963623046875,326.4322814941406,508.963623046875
1536.328125,527.7045288085938,1493.4027099609375,527.7045288085938,1493.4027099609375,501.07269287109375,1536.328125,501.07269287109375
1716.015625,527.7045288085938,1581.25,527.7045288085938,1581.25,497.12725830078125,1716.015625,497.12725830078125
1568.2725830078125,527.7045288085938,1541.3194580078125,527.7045288085938,1541.3194580078125,501.07269287109375,1568.2725830078125,501.07269287109375
1939.626708984375,519.8135986328125,1844.7916259765625,519.8135986328125,1844.7916259765625,493.1817932128906,1939.626708984375,493.1817932128906
945.3558959960938,504.03179931640625,870.486083984375,504.03179931640625,870.486083984375,481.3454284667969,945.3558959960938,481.3454284667969
709.765625,507.97723388671875,646.875,507.97723388671875,646.875,481.3454284667969,709.765625,481.3454284667969
1093.0989990234375,504.03179931640625,1002.2569580078125,504.03179931640625,1002.2569580078125,481.3454284667969,1093.0989990234375,481.3454284667969
410.28643798828125,504.03179931640625,367.3611145019531,504.03179931640625,367.3611145019531,477.39996337890625,410.28643798828125,477.39996337890625
171.70138549804688,504.03179931640625,171.70138549804688,477.39996337890625,258.55035400390625,477.39996337890625,258.55035400390625,504.03179931640625
1497.7352294921875,496.8919372558594,1495.8653564453125,471.0262145996094,1576.243408203125,465.3533630371094,1578.11328125,491.2190856933594
1085.11279296875,472.4681701660156,1006.25,472.4681701660156,1006.25,445.8363342285156,1085.11279296875,445.8363342285156
713.7586669921875,476.4136047363281,642.8819580078125,476.4136047363281,642.8819580078125,449.78179931640625,713.7586669921875,449.78179931640625
474.17535400390625,472.4681701660156,311.4583435058594,472.4681701660156,311.4583435058594,445.8363342285156,474.17535400390625,445.8363342285156
171.70135498046875,468.522705078125,171.70135498046875,445.8363342285156,254.5572509765625,445.8363342285156,254.5572509765625,468.522705078125
1879.7308349609375,472.4681701660156,1844.7916259765625,472.4681701660156,1844.7916259765625,441.8908996582031,1879.7308349609375,441.8908996582031
1939.626708984375,468.522705078125,1888.7152099609375,468.522705078125,1888.7152099609375,441.8908996582031,1939.626708984375,441.8908996582031
1505.3818359375,468.522705078125,1505.3818359375,433.9999694824219,1640.1474609375,433.9999694824219,1640.1474609375,468.522705078125
2020.486083984375,464.5772399902344,2020.486083984375,426.10906982421875,2067.404541015625,426.10906982421875,2067.404541015625,464.5772399902344
2180.2080078125,464.5772399902344,2180.2080078125,418.2181701660156,2259.07080078125,418.2181701660156,2259.07080078125,464.5772399902344
2163.23779296875,464.5772399902344,2088.367919921875,464.5772399902344,2088.367919921875,422.1636047363281,2163.23779296875,422.1636047363281
1979.5572509765625,452.7408752441406,1960.5902099609375,452.7408752441406,1960.5902099609375,426.10906982421875,1979.5572509765625,426.10906982421875
1073.1336669921875,436.9590759277344,946.3541259765625,436.9590759277344,946.3541259765625,410.3272399902344,1073.1336669921875,410.3272399902344
802.6041259765625,440.9045104980469,802.6041259765625,410.3272399902344,929.3836669921875,410.3272399902344,929.3836669921875,440.9045104980469
295.4861145019531,440.9045104980469,295.4861145019531,410.3272399902344,418.2725524902344,410.3272399902344,418.2725524902344,440.9045104980469
282.5086669921875,436.9590759277344,163.71527099609375,436.9590759277344,163.71527099609375,410.3272399902344,282.5086669921875,410.3272399902344
1312.717041015625,429.0681457519531,1233.8541259765625,429.0681457519531,1233.8541259765625,402.43634033203125,1312.717041015625,402.43634033203125
1094.0970458984375,429.0681457519531,1094.0970458984375,402.43634033203125,1200.911376953125,402.43634033203125,1200.911376953125,429.0681457519531
1405.5555419921875,425.1227111816406,1405.5555419921875,402.43634033203125,1432.5086669921875,402.43634033203125,1432.5086669921875,425.1227111816406
1392.578125,421.17724609375,1369.6180419921875,421.17724609375,1369.6180419921875,402.43634033203125,1392.578125,402.43634033203125
1493.4027099609375,421.17724609375,1493.4027099609375,390.5999755859375,1708.029541015625,390.5999755859375,1708.029541015625,421.17724609375
250.56423950195312,401.4499816894531,227.60415649414062,401.4499816894531,227.60415649414062,374.81817626953125,250.56423950195312,374.81817626953125
190.66839599609375,401.4499816894531,167.7083282470703,401.4499816894531,167.7083282470703,378.76361083984375,190.66839599609375,378.76361083984375
1333.6805419921875,397.5045166015625,1333.6805419921875,370.8727111816406,1468.4461669921875,370.8727111816406,1468.4461669921875,397.5045166015625
1192.92529296875,401.4499816894531,1098.0902099609375,401.4499816894531,1098.0902099609375,370.8727111816406,1192.92529296875,370.8727111816406
1029.2100830078125,401.4499816894531,918.4027709960938,401.4499816894531,918.4027709960938,370.8727111816406,1029.2100830078125,370.8727111816406
897.439208984375,401.4499816894531,846.5277709960938,401.4499816894531,846.5277709960938,370.8727111816406,897.439208984375,370.8727111816406
693.7933959960938,405.39544677734375,666.8402709960938,405.39544677734375,666.8402709960938,370.8727111816406,693.7933959960938,370.8727111816406
645.876708984375,405.39544677734375,614.9305419921875,405.39544677734375,614.9305419921875,370.8727111816406,645.876708984375,370.8727111816406
1513.3680419921875,393.55908203125,1513.3680419921875,362.9818115234375,1628.1683349609375,362.9818115234375,1628.1683349609375,393.55908203125
1308.7239990234375,393.55908203125,1281.7708740234375,393.55908203125,1281.7708740234375,370.8727111816406,1308.7239990234375,370.8727111816406
1264.80029296875,397.5045166015625,1237.84716796875,397.5045166015625,1237.84716796875,370.8727111816406,1264.80029296875,370.8727111816406
1884.72216796875,393.5590515136719,1884.72216796875,362.9817810058594,1939.626708984375,362.9817810058594,1939.626708984375,393.5590515136719
1879.7308349609375,393.55908203125,1824.826416015625,393.55908203125,1824.826416015625,362.9818115234375,1879.7308349609375,362.9818115234375
1633.15966796875,389.61358642578125,1633.15966796875,359.03631591796875,1688.064208984375,359.03631591796875,1688.064208984375,389.61358642578125
2260.0693359375,385.66815185546875,2260.0693359375,347.1999816894531,2295.008544921875,347.1999816894531,2295.008544921875,385.66815185546875
2064.409423828125,393.5590515136719,2064.409423828125,343.2544860839844,2239.105712890625,343.2544860839844,2239.105712890625,393.5590515136719
167.7082977294922,365.94085693359375,167.7082977294922,343.2544860839844,250.564208984375,343.2544860839844,250.564208984375,365.94085693359375
934.375,365.9408874511719,934.375,331.41815185546875,965.3211669921875,331.41815185546875,965.3211669921875,365.9408874511719
1069.140625,361.99542236328125,1042.1875,361.99542236328125,1042.1875,331.41815185546875,1069.140625,331.41815185546875
1360.6336669921875,358.04998779296875,1333.6805419921875,358.04998779296875,1333.6805419921875,323.5272521972656,1360.6336669921875,323.5272521972656
1304.7308349609375,354.1045227050781,1273.78466796875,354.1045227050781,1273.78466796875,327.47271728515625,1304.7308349609375,327.47271728515625
1412.5433349609375,354.1045227050781,1385.5902099609375,354.1045227050781,1385.5902099609375,323.5272521972656,1412.5433349609375,323.5272521972656
1609.201416015625,350.1590576171875,1609.201416015625,311.6908874511719,1807.8558349609375,311.6908874511719,1807.8558349609375,350.1590576171875
159.7222137451172,330.4317932128906,159.7222137451172,303.79998779296875,254.55728149414062,303.79998779296875,254.55728149414062,330.4317932128906
725.7378540039062,322.5408935546875,714.7569580078125,322.5408935546875,714.7569580078125,295.9090881347656,725.7378540039062,295.9090881347656
622.9166259765625,326.486328125,622.9166259765625,299.8544921875,673.8280639648438,299.8544921875,673.8280639648438,326.486328125
351.3888854980469,322.5408935546875,351.3888854980469,299.8545227050781,478.16839599609375,299.8545227050781,478.16839599609375,322.5408935546875
2048.437255859375,322.5408630371094,2048.437255859375,295.9090576171875,2175.216796875,295.9090576171875,2175.216796875,322.5408630371094
722.7429809570312,330.4317626953125,722.7429809570312,295.9090576171875,773.6544189453125,295.9090576171875,773.6544189453125,330.4317626953125
2275.04345703125,322.5408935546875,2248.09033203125,322.5408935546875,2248.09033203125,291.963623046875,2275.04345703125,291.963623046875
2184.201171875,322.5408630371094,2184.201171875,291.9635925292969,2239.105712890625,291.9635925292969,2239.105712890625,322.5408630371094
1098.0902099609375,322.5408935546875,1098.0902099609375,291.963623046875,1176.953125,291.963623046875,1176.953125,322.5408935546875
1413.54150390625,314.64996337890625,1413.54150390625,284.07269287109375,1468.446044921875,284.07269287109375,1468.446044921875,314.64996337890625
1709.2198486328125,307.3676452636719,1707.7960205078125,273.6022033691406,1911.37939453125,265.220703125,1912.80322265625,298.98614501953125
2167.23095703125,290.9772644042969,2064.40966796875,290.9772644042969,2064.40966796875,264.3454284667969,2167.23095703125,264.3454284667969
2258.10302734375,296.474853515625,2178.009033203125,290.8220520019531,2180.32470703125,258.7877502441406,2260.4189453125,264.4405517578125
625.9114379882812,287.03179931640625,614.9305419921875,287.03179931640625,614.9305419921875,260.3999938964844,625.9114379882812,260.3999938964844
354.3836669921875,290.9772644042969,327.4305419921875,290.9772644042969,327.4305419921875,260.3999938964844,354.3836669921875,260.3999938964844
238.58506774902344,294.9226989746094,211.63194274902344,294.9226989746094,211.63194274902344,260.3999938964844,238.58506774902344,260.3999938964844
202.64756774902344,294.9226989746094,171.70138549804688,294.9226989746094,171.70138549804688,260.3999938964844,202.64756774902344,260.3999938964844
814.5833129882812,290.97723388671875,814.5833129882812,256.4544982910156,977.3003540039062,256.4544982910156,977.3003540039062,290.97723388671875
622.9166870117188,290.9772644042969,622.9166870117188,256.45452880859375,705.7725830078125,256.45452880859375,705.7725830078125,290.9772644042969
394.3142395019531,290.9772644042969,367.3611145019531,290.9772644042969,367.3611145019531,260.3999938964844,394.3142395019531,260.3999938964844
1045.1822509765625,287.03179931640625,986.2847290039062,287.03179931640625,986.2847290039062,252.5090789794922,1045.1822509765625,252.5090789794922
1236.8489990234375,283.0863342285156,1209.8958740234375,283.0863342285156,1209.8958740234375,248.56362915039062,1236.8489990234375,248.56362915039062
1184.939208984375,283.0863342285156,1153.9930419921875,283.0863342285156,1153.9930419921875,252.5090789794922,1184.939208984375,252.5090789794922
1405.555419921875,275.1954345703125,1405.555419921875,244.6181640625,1528.3419189453125,244.6181640625,1528.3419189453125,275.1954345703125
1617.1875,267.3045349121094,1617.1875,232.78179931640625,1811.848876953125,232.78179931640625,1811.848876953125,267.3045349121094
1931.640625,259.41363525390625,1824.826416015625,259.41363525390625,1824.826416015625,228.8363494873047,1931.640625,228.8363494873047
2024.8050537109375,257.96728515625,2022.935302734375,221.0216827392578,2154.925048828125,214.50088500976562,2156.794921875,251.44647216796875
1166.138916015625,242.98245239257812,1164.4287109375,209.18536376953125,1280.685546875,203.4418182373047,1282.395751953125,237.23892211914062
1557.2916259765625,227.84999084472656,1557.2916259765625,193.32725524902344,1604.2100830078125,193.32725524902344,1604.2100830078125,227.84999084472656
1747.9600830078125,223.90452575683594,1649.1319580078125,223.90452575683594,1649.1319580078125,189.38180541992188,1747.9600830078125,189.38180541992188
1903.689208984375,219.95907592773438,1808.8541259765625,219.95907592773438,1808.8541259765625,181.49090576171875,1903.689208984375,181.49090576171875
2151.258544921875,208.12271118164062,2024.4791259765625,208.12271118164062,2024.4791259765625,173.59999084472656,2151.258544921875,173.59999084472656
705.7725830078125,204.17726135253906,590.9722290039062,204.17726135253906,590.9722290039062,169.654541015625,705.7725830078125,169.654541015625
866.4930419921875,200.23179626464844,866.4930419921875,165.7090606689453,985.2864379882812,165.7090606689453,985.2864379882812,200.23179626464844
1273.7845458984375,192.34088134765625,1273.7845458984375,153.87271118164062,1396.571044921875,153.87271118164062,1396.571044921875,192.34088134765625
1653.1767578125,178.65084838867188,1652.192626953125,138.7869873046875,1903.654296875,132.72686767578125,1904.6383056640625,172.59072875976562
2103.342041015625,156.83180236816406,2072.395751953125,156.83180236816406,2072.395751953125,126.2545394897461,2103.342041015625,126.2545394897461
2063.411376953125,160.7772674560547,2028.47216796875,160.7772674560547,2028.47216796875,126.2545394897461,2063.411376953125,126.2545394897461
148.0420684814453,166.28549194335938,146.62893676757812,121.60370635986328,454.012451171875,112.11249542236328,455.4255676269531,156.7942657470703
118.79340362548828,164.72271728515625,99.82638549804688,164.72271728515625,99.82638549804688,126.2545394897461,118.79340362548828,126.2545394897461
563.0208129882812,141.04998779296875,563.0208129882812,106.52726745605469,701.7794799804688,106.52726745605469,701.7794799804688,141.04998779296875
766.6666259765625,141.04998779296875,766.6666259765625,90.74545288085938,857.5086669921875,90.74545288085938,857.5086669921875,141.04998779296875
1029.2100830078125,137.1045379638672,1014.236083984375,137.1045379638672,1014.236083984375,98.63636016845703,1029.2100830078125,98.63636016845703
962.3263549804688,137.1045379638672,962.3263549804688,94.69090270996094,997.265625,94.69090270996094,997.265625,137.1045379638672
1066.1458740234375,144.99545288085938,1066.1458740234375,86.79999542236328,1149.001708984375,86.79999542236328,1149.001708984375,144.99545288085938
1297.742919921875,129.21360778808594,1297.742919921875,78.90907287597656,1428.5155029296875,78.90907287597656,1428.5155029296875,129.21360778808594
1201.9095458984375,133.15907287597656,1201.9095458984375,82.85452270507812,1296.74462890625,82.85452270507812,1296.74462890625,133.15907287597656
1445.486083984375,125.26817321777344,1445.486083984375,71.01818084716797,1564.279541015625,71.01818084716797,1564.279541015625,125.26817321777344
1724.001708984375,121.32272338867188,1597.22216796875,121.32272338867188,1597.22216796875,67.07272338867188,1724.001708984375,67.07272338867188
2184.201171875,93.70452880859375,2184.201171875,43.399993896484375,2231.11962890625,43.39999771118164,2231.11962890625,93.70452880859375
2120.312255859375,97.64997863769531,2120.312255859375,43.399993896484375,2175.216796875,43.39999771118164,2175.216796875,97.64997863769531
2248.090087890625,89.75907135009766,2248.090087890625,35.50908660888672,2295.00830078125,35.509090423583984,2295.00830078125,89.75907135009766
