1221.989990234375,2127.30029296875,1221.989990234375,2108.333251953125,1236.8680419921875,2108.333251953125,1236.8680419921875,2127.30029296875
1451.113037109375,2131.29345703125,1380.68994140625,2131.29345703125,1380.68994140625,2104.34033203125,1451.113037109375,2104.34033203125
1367.7955322265625,2131.29345703125,1329.1124267578125,2131.29345703125,1329.1124267578125,2100.34716796875,1367.7955322265625,2100.34716796875
177.54562377929688,2111.328125,134.89498901367188,2111.328125,134.89498901367188,2084.375,177.54562377929688,2084.375
379.88812255859375,2103.342041015625,293.5950012207031,2103.342041015625,293.5950012207031,2080.3818359375,379.88812255859375,2080.3818359375
284.6681213378906,2107.3349609375,269.78997802734375,2107.3349609375,269.78997802734375,2080.3818359375,284.6681213378906,2080.3818359375
260.8631286621094,2107.3349609375,194.40750122070312,2107.3349609375,194.40750122070312,2084.375,260.8631286621094,2084.375
530.6531372070312,2103.342041015625,480.0674743652344,2103.342041015625,480.0674743652344,2076.388916015625,530.6531372070312,2076.388916015625
384.8475036621094,2103.342041015625,384.8475036621094,2076.388916015625,471.140625,2076.388916015625,471.140625,2103.342041015625
717.1256103515625,2099.348876953125,666.5399780273438,2099.348876953125,666.5399780273438,2072.395751953125,717.1256103515625,2072.395751953125
622.8974609375,2099.348876953125,622.8974609375,2072.395751953125,657.6130981445312,2072.395751953125,657.6130981445312,2099.348876953125
617.9381103515625,2099.348876953125,583.2224731445312,2099.348876953125,583.2224731445312,2076.388916015625,617.9381103515625,2076.388916015625
574.2955932617188,2099.348876953125,539.5799560546875,2099.348876953125,539.5799560546875,2076.388916015625,574.2955932617188,2076.388916015625
820.2805786132812,2095.35595703125,745.8899536132812,2095.35595703125,745.8899536132812,2072.395751953125,820.2805786132812,2072.395751953125
740.9306030273438,2095.35595703125,722.0849609375,2095.35595703125,722.0849609375,2072.395751953125,740.9306030273438,2072.395751953125
245.9849853515625,2063.411376953125,245.9849853515625,2040.451416015625,296.57061767578125,2040.451416015625,296.57061767578125,2063.411376953125
186.47247314453125,2063.411376953125,186.47247314453125,2044.4444580078125,237.05810546875,2044.4444580078125,237.05810546875,2063.411376953125
246.44656372070312,2044.0985107421875,244.27622985839844,2022.25537109375,291.9058837890625,2017.461669921875,294.07623291015625,2039.3048095703125
190.43997192382812,2039.453125,190.43997192382812,2024.4791259765625,237.05810546875,2024.4791259765625,237.05810546875,2039.453125
181.51312255859375,2043.4461669921875,166.63499450683594,2043.4461669921875,166.63499450683594,2024.4791259765625,181.51312255859375,2024.4791259765625
498.9131164550781,2039.453125,436.42498779296875,2039.453125,436.42498779296875,2016.4930419921875,498.9131164550781,2016.4930419921875
416.5874938964844,2039.453125,416.5874938964844,2016.4930419921875,431.4656066894531,2016.4930419921875,431.4656066894531,2039.453125
415.5956115722656,2039.453125,380.8799743652344,2039.453125,380.8799743652344,2016.4930419921875,415.5956115722656,2016.4930419921875
325.3349609375,2039.453125,325.3349609375,2016.4930419921875,371.9530944824219,2016.4930419921875,371.9530944824219,2039.453125
316.4081115722656,2043.4461669921875,301.5299987792969,2043.4461669921875,301.5299987792969,2024.4791259765625,316.4081115722656,2024.4791259765625
693.3206176757812,2035.4600830078125,547.5150146484375,2035.4600830078125,547.5150146484375,2012.5,693.3206176757812,2012.5
538.588134765625,2039.453125,503.87249755859375,2039.453125,503.87249755859375,2012.5,538.588134765625,2012.5
935.3380737304688,2031.467041015625,860.9474487304688,2031.467041015625,860.9474487304688,2008.5069580078125,935.3380737304688,2008.5069580078125
812.3455810546875,2031.467041015625,726.052490234375,2031.467041015625,726.052490234375,2008.5069580078125,812.3455810546875,2008.5069580078125
717.1256103515625,2035.4600830078125,702.2474975585938,2035.4600830078125,702.2474975585938,2012.5,717.1256103515625,2012.5
852.0206298828125,2031.467041015625,821.2724609375,2031.467041015625,821.2724609375,2008.5069580078125,852.0206298828125,2008.5069580078125
237.05812072753906,2023.4808349609375,166.63499450683594,2023.4808349609375,166.63499450683594,2004.513916015625,237.05812072753906,2004.513916015625
304.505615234375,2003.515625,273.75750732421875,2003.515625,273.75750732421875,1980.5555419921875,304.505615234375,1980.5555419921875
264.83062744140625,1999.5225830078125,249.95249938964844,1999.5225830078125,249.95249938964844,1984.548583984375,264.83062744140625,1984.548583984375
201.35061645507812,1999.5225830078125,166.63499450683594,1999.5225830078125,166.63499450683594,1984.548583984375,201.35061645507812,1984.548583984375
468.16497802734375,1999.5225830078125,468.16497802734375,1976.5625,522.7181396484375,1976.5625,522.7181396484375,1999.5225830078125
459.23809814453125,1999.5225830078125,361.04248046875,1999.5225830078125,361.04248046875,1976.5625,459.23809814453125,1976.5625
352.1156005859375,1999.5225830078125,317.3999938964844,1999.5225830078125,317.3999938964844,1980.5555419921875,352.1156005859375,1980.5555419921875
567.3524169921875,1995.529541015625,567.3524169921875,1972.5694580078125,621.905517578125,1972.5694580078125,621.905517578125,1995.529541015625
562.3931274414062,1995.529541015625,527.677490234375,1995.529541015625,527.677490234375,1976.5625,562.3931274414062,1976.5625
785.5650024414062,1995.529541015625,785.5650024414062,1968.576416015625,820.2805786132812,1968.576416015625,820.2805786132812,1995.529541015625
776.6381225585938,1991.536376953125,761.7599487304688,1991.536376953125,761.7599487304688,1972.5694580078125,776.6381225585938,1972.5694580078125
697.2880859375,1995.529541015625,626.864990234375,1995.529541015625,626.864990234375,1972.5694580078125,697.2880859375,1972.5694580078125
904.5899658203125,1987.5433349609375,904.5899658203125,1968.576416015625,959.1431274414062,1968.576416015625,959.1431274414062,1987.5433349609375
276.7331237792969,1983.55029296875,226.14749145507812,1983.55029296875,226.14749145507812,1960.5902099609375,276.7331237792969,1960.5902099609375
217.22061157226562,1983.55029296875,170.6024932861328,1983.55029296875,170.6024932861328,1960.5902099609375,217.22061157226562,1960.5902099609375
518.7506103515625,1971.5711669921875,468.16497802734375,1971.5711669921875,468.16497802734375,1956.59716796875,518.7506103515625,1956.59716796875
459.23809814453125,1975.564208984375,424.5224914550781,1975.564208984375,424.5224914550781,1956.59716796875,459.23809814453125,1956.59716796875
357.074951171875,1975.564208984375,357.074951171875,1956.59716796875,419.5630798339844,1956.59716796875,419.5630798339844,1975.564208984375
337.23748779296875,1975.564208984375,337.23748779296875,1956.59716796875,352.1156005859375,1956.59716796875,352.1156005859375,1975.564208984375
661.5806274414062,1975.564208984375,614.9624633789062,1975.564208984375,614.9624633789062,1952.6041259765625,661.5806274414062,1952.6041259765625
527.6774291992188,1971.5711669921875,527.6774291992188,1952.6041259765625,610.0030517578125,1952.6041259765625,610.0030517578125,1971.5711669921875
860.9474487304688,1967.578125,860.9474487304688,1944.6180419921875,911.5330810546875,1944.6180419921875,911.5330810546875,1967.578125
852.0206298828125,1967.578125,821.2724609375,1967.578125,821.2724609375,1948.611083984375,852.0206298828125,1948.611083984375
744.8981323242188,1971.5711669921875,714.1499633789062,1971.5711669921875,714.1499633789062,1948.611083984375,744.8981323242188,1948.611083984375
951.2080688476562,1963.5850830078125,920.4599609375,1963.5850830078125,920.4599609375,1944.6180419921875,951.2080688476562,1944.6180419921875
276.7331237792969,1955.598876953125,226.14749145507812,1955.598876953125,226.14749145507812,1936.6319580078125,276.7331237792969,1936.6319580078125
170.60247802734375,1959.592041015625,170.60247802734375,1936.6319580078125,217.22059631347656,1936.6319580078125,217.22059631347656,1959.592041015625
157.70811462402344,1959.592041015625,146.79750061035156,1959.592041015625,146.79750061035156,1940.625,157.70811462402344,1940.625
447.3356018066406,1955.598876953125,384.8475036621094,1955.598876953125,384.8475036621094,1936.6319580078125,447.3356018066406,1936.6319580078125
694.3125,1951.6058349609375,694.3125,1928.645751953125,752.8331298828125,1928.645751953125,752.8331298828125,1951.6058349609375
681.4180908203125,1951.6058349609375,650.6699829101562,1951.6058349609375,650.6699829101562,1932.638916015625,681.4180908203125,1932.638916015625
641.7431030273438,1947.61279296875,591.157470703125,1947.61279296875,591.157470703125,1932.638916015625,641.7431030273438,1932.638916015625
590.1655883789062,1951.6058349609375,539.5799560546875,1951.6058349609375,539.5799560546875,1932.638916015625,590.1655883789062,1932.638916015625
530.6531372070312,1951.6058349609375,499.9049987792969,1951.6058349609375,499.9049987792969,1932.638916015625,530.6531372070312,1932.638916015625
490.9781188964844,1951.6058349609375,456.2624816894531,1951.6058349609375,456.2624816894531,1932.638916015625,490.9781188964844,1932.638916015625
971.0455932617188,1943.6197509765625,896.6549682617188,1943.6197509765625,896.6549682617188,1924.6527099609375,971.0455932617188,1924.6527099609375
170.6024932861328,1927.6475830078125,170.6024932861328,1904.6875,256.8956298828125,1904.6875,256.8956298828125,1927.6475830078125
427.49810791015625,1907.6822509765625,357.0749816894531,1907.6822509765625,357.0749816894531,1884.72216796875,427.49810791015625,1884.72216796875
205.318115234375,1907.6822509765625,166.63499450683594,1907.6822509765625,166.63499450683594,1888.7152099609375,205.318115234375,1888.7152099609375
546.5231323242188,1903.689208984375,503.87249755859375,1903.689208984375,503.87249755859375,1884.72216796875,546.5231323242188,1884.72216796875
502.880615234375,1903.689208984375,432.4574890136719,1903.689208984375,432.4574890136719,1884.72216796875,502.880615234375,1884.72216796875
780.6055908203125,1899.6961669921875,730.0199584960938,1899.6961669921875,730.0199584960938,1876.736083984375,780.6055908203125,1876.736083984375
721.0930786132812,1899.6961669921875,670.5075073242188,1899.6961669921875,670.5075073242188,1876.736083984375,721.0930786132812,1876.736083984375
611.1815795898438,1901.5740966796875,609.1290283203125,1880.9168701171875,661.4725952148438,1875.6488037109375,663.525146484375,1896.305908203125
1055.382080078125,1896.13818359375,1054.0892333984375,1875.318359375,1125.4114990234375,1870.83203125,1126.704345703125,1891.65185546875
840.1181030273438,1895.703125,821.2724609375,1895.703125,821.2724609375,1876.736083984375,840.1181030273438,1876.736083984375
1316.2181396484375,1891.7100830078125,1289.4375,1891.7100830078125,1289.4375,1872.7430419921875,1316.2181396484375,1872.7430419921875
1142.6400146484375,1891.7100830078125,1142.6400146484375,1868.75,1288.445556640625,1868.75,1288.445556640625,1891.7100830078125
888.719970703125,1895.703125,888.719970703125,1868.75,935.3380737304688,1868.75,935.3380737304688,1895.703125
161.6756134033203,1887.717041015625,146.79750061035156,1887.717041015625,146.79750061035156,1872.7430419921875,161.6756134033203,1872.7430419921875
427.49810791015625,1887.717041015625,297.5625,1887.717041015625,297.5625,1864.7569580078125,427.49810791015625,1864.7569580078125
642.7349853515625,1875.73779296875,642.7349853515625,1856.770751953125,729.028076171875,1856.770751953125,729.028076171875,1875.73779296875
527.6774291992188,1883.723876953125,527.6774291992188,1860.763916015625,613.9705200195312,1860.763916015625,613.9705200195312,1883.723876953125
1075.1925048828125,1871.7447509765625,1075.1925048828125,1852.7777099609375,1145.6156005859375,1852.7777099609375,1145.6156005859375,1871.7447509765625
1066.265625,1871.7447509765625,1055.35498046875,1871.7447509765625,1055.35498046875,1856.770751953125,1066.265625,1856.770751953125
804.4105834960938,1875.73779296875,737.9549560546875,1875.73779296875,737.9549560546875,1856.770751953125,804.4105834960938,1856.770751953125
1340.0230712890625,1867.751708984375,1305.3074951171875,1867.751708984375,1305.3074951171875,1852.7777099609375,1340.0230712890625,1852.7777099609375
1296.380615234375,1867.751708984375,1265.6324462890625,1867.751708984375,1265.6324462890625,1852.7777099609375,1296.380615234375,1852.7777099609375
1166.4449462890625,1871.7447509765625,1166.4449462890625,1852.7777099609375,1256.70556640625,1852.7777099609375,1256.70556640625,1871.7447509765625
927.403076171875,1871.7447509765625,872.8499755859375,1871.7447509765625,872.8499755859375,1852.7777099609375,927.403076171875,1852.7777099609375
1078.1680908203125,1851.779541015625,1027.58251953125,1851.779541015625,1027.58251953125,1832.8125,1078.1680908203125,1832.8125
1018.6555786132812,1851.779541015625,1003.7774658203125,1851.779541015625,1003.7774658203125,1836.8055419921875,1018.6555786132812,1836.8055419921875
178.53746032714844,1855.7725830078125,178.53746032714844,1832.8125,292.60308837890625,1832.8125,292.60308837890625,1855.7725830078125
1391.6005859375,1847.786376953125,1301.3399658203125,1847.786376953125,1301.3399658203125,1828.8194580078125,1391.6005859375,1828.8194580078125
1213.0631103515625,1851.779541015625,1182.31494140625,1851.779541015625,1182.31494140625,1832.8125,1213.0631103515625,1832.8125
1181.3231201171875,1855.7725830078125,1087.094970703125,1855.7725830078125,1087.094970703125,1832.8125,1181.3231201171875,1832.8125
408.6524963378906,1851.779541015625,408.6524963378906,1828.8194580078125,447.3356018066406,1828.8194580078125,447.3356018066406,1851.779541015625
399.7256164550781,1851.779541015625,349.1399841308594,1851.779541015625,349.1399841308594,1832.8125,399.7256164550781,1832.8125
297.5625,1851.779541015625,297.5625,1832.8125,340.2131042480469,1832.8125,340.2131042480469,1851.779541015625
221.18812561035156,1839.80029296875,174.5699920654297,1839.80029296875,174.5699920654297,1816.8402099609375,221.18812561035156,1816.8402099609375
1141.6480712890625,1827.8211669921875,1087.094970703125,1827.8211669921875,1087.094970703125,1808.8541259765625,1141.6480712890625,1808.8541259765625
1309.3031005859375,1824.4779052734375,1308.38232421875,1803.1640625,1415.1304931640625,1798.4930419921875,1416.0511474609375,1819.8067626953125
1300.34814453125,1823.828125,1261.6649169921875,1823.828125,1261.6649169921875,1804.861083984375,1300.34814453125,1804.861083984375
1146.607421875,1823.828125,1146.607421875,1804.861083984375,1161.485595703125,1804.861083984375,1161.485595703125,1823.828125
252.92811584472656,1819.8350830078125,174.5699920654297,1819.8350830078125,174.5699920654297,1796.875,252.92811584472656,1796.875
328.31060791015625,1815.842041015625,261.85498046875,1815.842041015625,261.85498046875,1796.875,328.31060791015625,1796.875
554.4581298828125,1807.8558349609375,484.03497314453125,1807.8558349609375,484.03497314453125,1788.888916015625,554.4581298828125,1788.888916015625
479.07562255859375,1811.848876953125,444.3599853515625,1811.848876953125,444.3599853515625,1792.8819580078125,479.07562255859375,1792.8819580078125
1169.4205322265625,1807.8558349609375,1083.12744140625,1807.8558349609375,1083.12744140625,1784.895751953125,1169.4205322265625,1784.895751953125
1073.656005859375,1809.8931884765625,1006.4036254882812,1803.7401123046875,1008.4198608398438,1781.4183349609375,1075.6722412109375,1787.5714111328125
594.1331176757812,1807.8558349609375,563.385009765625,1807.8558349609375,563.385009765625,1788.888916015625,594.1331176757812,1788.888916015625
1304.3155517578125,1799.8697509765625,1269.5999755859375,1799.8697509765625,1269.5999755859375,1784.895751953125,1304.3155517578125,1784.895751953125
1178.347412109375,1803.86279296875,1178.347412109375,1780.9027099609375,1264.640625,1780.9027099609375,1264.640625,1803.86279296875
859.9556274414062,1799.8697509765625,825.239990234375,1799.8697509765625,825.239990234375,1780.9027099609375,859.9556274414062,1780.9027099609375
736.9630737304688,1803.86279296875,702.2474975585938,1803.86279296875,702.2474975585938,1784.895751953125,736.9630737304688,1784.895751953125
617.9381103515625,1807.8558349609375,603.0599975585938,1807.8558349609375,603.0599975585938,1784.895751953125,617.9381103515625,1784.895751953125
935.3380737304688,1803.86279296875,864.9149780273438,1803.86279296875,864.9149780273438,1780.9027099609375,935.3380737304688,1780.9027099609375
230.114990234375,1791.8836669921875,230.114990234375,1772.9166259765625,264.83062744140625,1772.9166259765625,264.83062744140625,1791.8836669921875
170.60247802734375,1795.876708984375,170.60247802734375,1776.90966796875,221.1881103515625,1776.90966796875,221.1881103515625,1795.876708984375
284.6681213378906,1791.8836669921875,269.78997802734375,1791.8836669921875,269.78997802734375,1772.9166259765625,284.6681213378906,1772.9166259765625
1174.3798828125,1783.8975830078125,1174.3798828125,1764.9305419921875,1220.9979248046875,1764.9305419921875,1220.9979248046875,1783.8975830078125
1078.1680908203125,1787.890625,1043.4525146484375,1787.890625,1043.4525146484375,1768.923583984375,1078.1680908203125,1768.923583984375
550.4906005859375,1787.890625,396.75,1787.890625,396.75,1768.923583984375,550.4906005859375,1768.923583984375
1309.2747802734375,1783.8975830078125,1309.2747802734375,1764.9305419921875,1395.5679931640625,1764.9305419921875,1395.5679931640625,1783.8975830078125
1300.34814453125,1779.904541015625,1265.6324462890625,1779.904541015625,1265.6324462890625,1764.9305419921875,1300.34814453125,1764.9305419921875
1237.8599853515625,1783.8975830078125,1237.8599853515625,1764.9305419921875,1260.673095703125,1764.9305419921875,1260.673095703125,1783.8975830078125
693.3206176757812,1783.8975830078125,630.8324584960938,1783.8975830078125,630.8324584960938,1764.9305419921875,693.3206176757812,1764.9305419921875
867.890625,1775.911376953125,837.1424560546875,1775.911376953125,837.1424560546875,1756.9444580078125,867.890625,1756.9444580078125
710.1824340820312,1779.904541015625,710.1824340820312,1760.9375,832.1830444335938,1760.9375,832.1830444335938,1779.904541015625
205.318115234375,1771.9183349609375,198.375,1771.9183349609375,198.375,1760.9375,205.318115234375,1760.9375
939.3056030273438,1775.911376953125,876.8175048828125,1775.911376953125,876.8175048828125,1756.9444580078125,939.3056030273438,1756.9444580078125
252.92811584472656,1767.92529296875,249.95249938964844,1767.92529296875,249.95249938964844,1756.9444580078125,252.92811584472656,1756.9444580078125
241.02561950683594,1775.911376953125,210.27749633789062,1775.911376953125,210.27749633789062,1756.9444580078125,241.02561950683594,1756.9444580078125
193.41561889648438,1771.9183349609375,170.6024932861328,1771.9183349609375,170.6024932861328,1756.9444580078125,193.41561889648438,1756.9444580078125
427.49810791015625,1767.92529296875,400.7174987792969,1767.92529296875,400.7174987792969,1748.958251953125,427.49810791015625,1748.958251953125
384.8475036621094,1767.92529296875,384.8475036621094,1748.958251953125,399.7256164550781,1748.958251953125,399.7256164550781,1767.92529296875
383.8556213378906,1767.92529296875,345.1724853515625,1767.92529296875,345.1724853515625,1752.951416015625,383.8556213378906,1752.951416015625
301.5299987792969,1767.92529296875,301.5299987792969,1752.951416015625,336.24560546875,1752.951416015625,336.24560546875,1767.92529296875
1178.347412109375,1767.92529296875,1178.347412109375,1744.9652099609375,1248.7706298828125,1744.9652099609375,1248.7706298828125,1767.92529296875
1153.550537109375,1779.904541015625,1087.094970703125,1779.904541015625,1087.094970703125,1748.958251953125,1153.550537109375,1748.958251953125
998.818115234375,1767.92529296875,991.875,1767.92529296875,991.875,1752.951416015625,998.818115234375,1752.951416015625
522.7181396484375,1767.92529296875,436.42498779296875,1767.92529296875,436.42498779296875,1748.958251953125,522.7181396484375,1748.958251953125
1388.625,1759.939208984375,1388.625,1740.97216796875,1423.340576171875,1740.97216796875,1423.340576171875,1759.939208984375
1337.04736328125,1759.939208984375,1337.04736328125,1744.9652099609375,1383.6654052734375,1744.9652099609375,1383.6654052734375,1759.939208984375
1324.153076171875,1759.939208984375,1293.4049072265625,1759.939208984375,1293.4049072265625,1744.9652099609375,1324.153076171875,1744.9652099609375
1284.47802734375,1759.939208984375,1269.5999755859375,1759.939208984375,1269.5999755859375,1744.9652099609375,1284.47802734375,1744.9652099609375
1181.3231201171875,1763.9322509765625,1170.4124755859375,1763.9322509765625,1170.4124755859375,1744.9652099609375,1181.3231201171875,1744.9652099609375
717.1256103515625,1759.939208984375,682.4099731445312,1759.939208984375,682.4099731445312,1740.97216796875,717.1256103515625,1740.97216796875
677.4506225585938,1763.9322509765625,571.3200073242188,1763.9322509765625,571.3200073242188,1744.9652099609375,677.4506225585938,1744.9652099609375
562.3931274414062,1767.92529296875,531.6449584960938,1767.92529296875,531.6449584960938,1744.9652099609375,562.3931274414062,1744.9652099609375
165.64312744140625,1751.953125,150.76499938964844,1751.953125,150.76499938964844,1740.97216796875,165.64312744140625,1740.97216796875
348.1481018066406,1755.9461669921875,265.8224792480469,1755.9461669921875,265.8224792480469,1732.986083984375,348.1481018066406,1732.986083984375
218.21249389648438,1751.953125,218.21249389648438,1732.986083984375,264.83062744140625,1732.986083984375,264.83062744140625,1751.953125
209.28561401367188,1751.953125,174.5699920654297,1751.953125,174.5699920654297,1736.9791259765625,209.28561401367188,1736.9791259765625
387.8231201171875,1747.9600830078125,353.10748291015625,1747.9600830078125,353.10748291015625,1732.986083984375,387.8231201171875,1732.986083984375
1142.6400146484375,1743.967041015625,1142.6400146484375,1721.0069580078125,1217.0306396484375,1721.0069580078125,1217.0306396484375,1743.967041015625
1137.6805419921875,1739.973876953125,1118.8349609375,1739.973876953125,1118.8349609375,1725.0,1137.6805419921875,1725.0
1043.452392578125,1743.967041015625,1043.452392578125,1725.0,1113.87548828125,1725.0,1113.87548828125,1743.967041015625
1003.7774658203125,1743.967041015625,1003.7774658203125,1725.0,1034.525634765625,1725.0,1034.525634765625,1743.967041015625
209.28561401367188,1731.98779296875,174.5699920654297,1731.98779296875,174.5699920654297,1717.013916015625,209.28561401367188,1717.013916015625
218.21249389648438,1731.98779296875,218.21249389648438,1709.0277099609375,300.5381164550781,1709.0277099609375,300.5381164550781,1731.98779296875
1059.322509765625,1724.001708984375,1059.322509765625,1705.03466796875,1117.8431396484375,1705.03466796875,1117.8431396484375,1724.001708984375
357.0749816894531,1727.9947509765625,357.0749816894531,1705.03466796875,439.4006042480469,1705.03466796875,439.4006042480469,1727.9947509765625
309.4649963378906,1727.9947509765625,309.4649963378906,1705.03466796875,352.1156005859375,1705.03466796875,352.1156005859375,1727.9947509765625
1308.2830810546875,1720.0086669921875,1269.5999755859375,1720.0086669921875,1269.5999755859375,1705.03466796875,1308.2830810546875,1705.03466796875
1173.3880615234375,1720.0086669921875,1130.7374267578125,1720.0086669921875,1130.7374267578125,1705.03466796875,1173.3880615234375,1705.03466796875
558.4255981445312,1724.001708984375,523.7099609375,1724.001708984375,523.7099609375,1701.0416259765625,558.4255981445312,1701.0416259765625
1348.949951171875,1720.0086669921875,1348.949951171875,1701.0416259765625,1411.4381103515625,1701.0416259765625,1411.4381103515625,1720.0086669921875
732.99560546875,1720.0086669921875,698.2799682617188,1720.0086669921875,698.2799682617188,1697.048583984375,732.99560546875,1697.048583984375
587.1900024414062,1720.0086669921875,587.1900024414062,1697.048583984375,689.3530883789062,1697.048583984375,689.3530883789062,1720.0086669921875
582.2305908203125,1724.001708984375,563.385009765625,1724.001708984375,563.385009765625,1701.0416259765625,582.2305908203125,1701.0416259765625
911.5330810546875,1716.015625,872.8499755859375,1716.015625,872.8499755859375,1693.0555419921875,911.5330810546875,1693.0555419921875
848.0531005859375,1716.015625,821.2724609375,1716.015625,821.2724609375,1697.048583984375,848.0531005859375,1697.048583984375
812.3455810546875,1720.0086669921875,781.5974731445312,1720.0086669921875,781.5974731445312,1697.048583984375,812.3455810546875,1697.048583984375
772.6705932617188,1720.0086669921875,737.9549560546875,1720.0086669921875,737.9549560546875,1697.048583984375,772.6705932617188,1697.048583984375
939.3056030273438,1716.015625,920.4599609375,1716.015625,920.4599609375,1693.0555419921875,939.3056030273438,1693.0555419921875
312.44061279296875,1712.0225830078125,249.95249938964844,1712.0225830078125,249.95249938964844,1693.0555419921875,312.44061279296875,1693.0555419921875
174.5699920654297,1712.0225830078125,174.5699920654297,1689.0625,241.02561950683594,1689.0625,241.02561950683594,1712.0225830078125
1070.233154296875,1704.036376953125,999.8099975585938,1704.036376953125,999.8099975585938,1689.0625,1070.233154296875,1689.0625
408.6524963378906,1704.036376953125,408.6524963378906,1689.0625,435.43310546875,1689.0625,435.43310546875,1704.036376953125
337.23748779296875,1708.029541015625,337.23748779296875,1685.0694580078125,391.7906188964844,1685.0694580078125,391.7906188964844,1708.029541015625
1253.7298583984375,1700.0433349609375,1253.7298583984375,1685.0694580078125,1308.282958984375,1685.0694580078125,1308.282958984375,1700.0433349609375
1134.704833984375,1704.036376953125,1134.704833984375,1685.0694580078125,1189.2579345703125,1685.0694580078125,1189.2579345703125,1704.036376953125
507.8399963378906,1708.029541015625,507.8399963378906,1685.0694580078125,522.7181396484375,1685.0694580078125,522.7181396484375,1708.029541015625
318.0186767578125,1694.291015625,315.88763427734375,1672.84326171875,383.5511779785156,1666.0333251953125,385.6822204589844,1687.4810791015625
1201.16064453125,1688.064208984375,1150.574951171875,1688.064208984375,1150.574951171875,1665.1041259765625,1201.16064453125,1665.1041259765625
1106.9324951171875,1688.064208984375,1106.9324951171875,1669.09716796875,1145.6156005859375,1669.09716796875,1145.6156005859375,1688.064208984375
1022.6231079101562,1684.0711669921875,999.8099975585938,1684.0711669921875,999.8099975585938,1669.09716796875,1022.6231079101562,1669.09716796875
392.7825012207031,1688.064208984375,392.7825012207031,1669.09716796875,439.4006042480469,1669.09716796875,439.4006042480469,1688.064208984375
1309.2747802734375,1680.078125,1309.2747802734375,1661.111083984375,1363.8280029296875,1661.111083984375,1363.8280029296875,1680.078125
1249.7623291015625,1680.078125,1249.7623291015625,1661.111083984375,1304.3154296875,1661.111083984375,1304.3154296875,1680.078125
752.8331298828125,1684.0711669921875,686.3775024414062,1684.0711669921875,686.3775024414062,1661.111083984375,752.8331298828125,1661.111083984375
590.1655883789062,1684.0711669921875,547.5150146484375,1684.0711669921875,547.5150146484375,1665.1041259765625,590.1655883789062,1665.1041259765625
522.7181396484375,1688.064208984375,444.3599853515625,1688.064208984375,444.3599853515625,1665.1041259765625,522.7181396484375,1665.1041259765625
927.403076171875,1680.078125,825.239990234375,1680.078125,825.239990234375,1657.1180419921875,927.403076171875,1657.1180419921875
816.3131103515625,1680.078125,801.4349975585938,1680.078125,801.4349975585938,1661.111083984375,816.3131103515625,1661.111083984375
792.5081176757812,1684.0711669921875,761.7599487304688,1684.0711669921875,761.7599487304688,1661.111083984375,792.5081176757812,1661.111083984375
174.5699920654297,1668.098876953125,174.5699920654297,1653.125,241.02561950683594,1653.125,241.02561950683594,1668.098876953125
1174.3798828125,1664.1058349609375,1174.3798828125,1645.138916015625,1232.9005126953125,1645.138916015625,1232.9005126953125,1664.1058349609375
1153.31494140625,1671.93359375,1018.964111328125,1667.836181640625,1019.650146484375,1645.0482177734375,1154.0009765625,1649.1456298828125
998.818115234375,1668.098876953125,987.907470703125,1668.098876953125,987.907470703125,1649.1319580078125,998.818115234375,1649.1319580078125
1387.633056640625,1664.1058349609375,1289.4375,1664.1058349609375,1289.4375,1645.138916015625,1387.633056640625,1645.138916015625
1272.5755615234375,1668.098876953125,1237.8599853515625,1668.098876953125,1237.8599853515625,1645.138916015625,1272.5755615234375,1645.138916015625
364.01812744140625,1648.1336669921875,353.10748291015625,1648.1336669921875,353.10748291015625,1629.1666259765625,364.01812744140625,1629.1666259765625
348.1481018066406,1648.1336669921875,313.4324951171875,1648.1336669921875,313.4324951171875,1629.1666259765625,348.1481018066406,1629.1666259765625
304.505615234375,1648.1336669921875,253.9199981689453,1648.1336669921875,253.9199981689453,1633.15966796875,304.505615234375,1633.15966796875
174.5699920654297,1648.1336669921875,174.5699920654297,1629.1666259765625,241.02561950683594,1629.1666259765625,241.02561950683594,1648.1336669921875
554.4581298828125,1644.140625,476.0999755859375,1644.140625,476.0999755859375,1625.173583984375,554.4581298828125,1625.173583984375
1075.1925048828125,1640.1475830078125,1075.1925048828125,1621.1805419921875,1145.6156005859375,1621.1805419921875,1145.6156005859375,1640.1475830078125
625.8731079101562,1644.140625,551.4824829101562,1644.140625,551.4824829101562,1625.173583984375,625.8731079101562,1625.173583984375
1169.4205322265625,1640.1475830078125,1154.54248046875,1640.1475830078125,1154.54248046875,1621.1805419921875,1169.4205322265625,1621.1805419921875
999.8099975585938,1640.1475830078125,999.8099975585938,1621.1805419921875,1070.233154296875,1621.1805419921875,1070.233154296875,1640.1475830078125
788.5405883789062,1640.1475830078125,753.824951171875,1640.1475830078125,753.824951171875,1621.1805419921875,788.5405883789062,1621.1805419921875
837.1424560546875,1636.154541015625,837.1424560546875,1617.1875,883.7606201171875,1617.1875,883.7606201171875,1636.154541015625
828.215576171875,1636.154541015625,793.5,1636.154541015625,793.5,1617.1875,828.215576171875,1617.1875
284.6681213378906,1628.1683349609375,249.95249938964844,1628.1683349609375,249.95249938964844,1613.1944580078125,284.6681213378906,1613.1944580078125
205.318115234375,1632.161376953125,170.6024932861328,1632.161376953125,170.6024932861328,1613.1944580078125,205.318115234375,1613.1944580078125
157.70811462402344,1628.1683349609375,150.76499938964844,1628.1683349609375,150.76499938964844,1617.1875,157.70811462402344,1617.1875
475.1081237792969,1624.17529296875,444.3599853515625,1624.17529296875,444.3599853515625,1609.201416015625,475.1081237792969,1609.201416015625
435.43310546875,1628.1683349609375,384.8475036621094,1628.1683349609375,384.8475036621094,1609.201416015625,435.43310546875,1609.201416015625
293.594970703125,1628.1683349609375,293.594970703125,1609.201416015625,375.92059326171875,1609.201416015625,375.92059326171875,1628.1683349609375
1102.9649658203125,1620.1822509765625,1102.9649658203125,1601.2152099609375,1173.3880615234375,1601.2152099609375,1173.3880615234375,1620.1822509765625
1035.5174560546875,1624.17529296875,1035.5174560546875,1601.2152099609375,1086.1031494140625,1601.2152099609375,1086.1031494140625,1624.17529296875
1026.590576171875,1624.17529296875,1007.7449951171875,1624.17529296875,1007.7449951171875,1605.208251953125,1026.590576171875,1605.208251953125
661.5806274414062,1620.1822509765625,595.125,1620.1822509765625,595.125,1601.2152099609375,661.5806274414062,1601.2152099609375
586.1981201171875,1624.17529296875,484.03497314453125,1624.17529296875,484.03497314453125,1605.208251953125,586.1981201171875,1605.208251953125
1403.5030517578125,1616.189208984375,1368.7874755859375,1616.189208984375,1368.7874755859375,1597.22216796875,1403.5030517578125,1597.22216796875
1317.2098388671875,1620.1822509765625,1317.2098388671875,1597.22216796875,1363.8280029296875,1597.22216796875,1363.8280029296875,1620.1822509765625
1221.9898681640625,1620.1822509765625,1221.9898681640625,1601.2152099609375,1308.282958984375,1601.2152099609375,1308.282958984375,1620.1822509765625
1217.0306396484375,1620.1822509765625,1182.31494140625,1620.1822509765625,1182.31494140625,1601.2152099609375,1217.0306396484375,1601.2152099609375
998.818115234375,1624.17529296875,983.93994140625,1624.17529296875,983.93994140625,1605.208251953125,998.818115234375,1605.208251953125
848.0531005859375,1616.189208984375,797.4674682617188,1616.189208984375,797.4674682617188,1597.22216796875,848.0531005859375,1597.22216796875
740.9306030273438,1620.1822509765625,674.4749755859375,1620.1822509765625,674.4749755859375,1601.2152099609375,740.9306030273438,1601.2152099609375
923.4356079101562,1616.189208984375,888.719970703125,1616.189208984375,888.719970703125,1597.22216796875,923.4356079101562,1597.22216796875
879.7930908203125,1616.189208984375,849.0449829101562,1616.189208984375,849.0449829101562,1597.22216796875,879.7930908203125,1597.22216796875
538.588134765625,1596.223876953125,499.9049987792969,1596.223876953125,499.9049987792969,1569.270751953125,538.588134765625,1569.270751953125
490.9781188964844,1596.223876953125,432.4574890136719,1596.223876953125,432.4574890136719,1573.263916015625,490.9781188964844,1573.263916015625
1197.193115234375,1580.251708984375,1158.510009765625,1580.251708984375,1158.510009765625,1557.2916259765625,1197.193115234375,1557.2916259765625
1149.5831298828125,1580.251708984375,1071.2249755859375,1580.251708984375,1071.2249755859375,1557.2916259765625,1149.5831298828125,1557.2916259765625
748.8656005859375,1548.3072509765625,726.052490234375,1548.3072509765625,726.052490234375,1525.34716796875,748.8656005859375,1525.34716796875
721.0930786132812,1548.3072509765625,702.2474975585938,1548.3072509765625,702.2474975585938,1525.34716796875,721.0930786132812,1525.34716796875
689.3530883789062,1548.3072509765625,646.7024536132812,1548.3072509765625,646.7024536132812,1525.34716796875,689.3530883789062,1525.34716796875
863.923095703125,1544.314208984375,841.1099853515625,1544.314208984375,841.1099853515625,1517.361083984375,863.923095703125,1517.361083984375
797.4674682617188,1548.3072509765625,797.4674682617188,1521.3541259765625,824.2481079101562,1521.3541259765625,824.2481079101562,1548.3072509765625
780.6055908203125,1544.314208984375,761.7599487304688,1544.314208984375,761.7599487304688,1521.3541259765625,780.6055908203125,1521.3541259765625
288.6356201171875,1520.3558349609375,170.6024932861328,1520.3558349609375,170.6024932861328,1493.4027099609375,288.6356201171875,1493.4027099609375
439.4006042480469,1516.36279296875,380.8799743652344,1516.36279296875,380.8799743652344,1489.40966796875,439.4006042480469,1489.40966796875
732.99560546875,1508.376708984375,674.4749755859375,1508.376708984375,674.4749755859375,1485.4166259765625,732.99560546875,1485.4166259765625
665.548095703125,1508.376708984375,630.8324584960938,1508.376708984375,630.8324584960938,1485.4166259765625,665.548095703125,1485.4166259765625
539.5798950195312,1512.36962890625,539.5798950195312,1485.41650390625,621.905517578125,1485.41650390625,621.905517578125,1512.36962890625
448.3274841308594,1512.36962890625,448.3274841308594,1489.4095458984375,530.6531372070312,1489.4095458984375,530.6531372070312,1512.36962890625
741.9224853515625,1508.376708984375,741.9224853515625,1481.423583984375,772.6705932617188,1481.423583984375,772.6705932617188,1508.376708984375
1182.31494140625,1496.3975830078125,1182.31494140625,1473.4375,1201.16064453125,1473.4375,1201.16064453125,1496.3975830078125
170.60247802734375,1480.4251708984375,170.60247802734375,1453.4720458984375,312.4405517578125,1453.4720458984375,312.4405517578125,1480.4251708984375
448.3274841308594,1472.4390869140625,448.3274841308594,1453.4720458984375,502.880615234375,1453.4720458984375,502.880615234375,1472.4390869140625
416.5874938964844,1476.4322509765625,416.5874938964844,1453.47216796875,443.36810302734375,1453.47216796875,443.36810302734375,1476.4322509765625
415.5956115722656,1476.4322509765625,376.9124755859375,1476.4322509765625,376.9124755859375,1453.47216796875,415.5956115722656,1453.47216796875
689.3530883789062,1472.439208984375,666.5399780273438,1472.439208984375,666.5399780273438,1449.4791259765625,689.3530883789062,1449.4791259765625
649.6781005859375,1472.439208984375,626.864990234375,1472.439208984375,626.864990234375,1449.4791259765625,649.6781005859375,1449.4791259765625
733.9874267578125,1468.446044921875,733.9874267578125,1441.492919921875,855.988037109375,1441.492919921875,855.988037109375,1468.446044921875
1130.7373046875,1460.4599609375,1130.7373046875,1437.4998779296875,1213.06298828125,1437.4998779296875,1213.06298828125,1460.4599609375
292.6031188964844,1444.48779296875,174.5699920654297,1444.48779296875,174.5699920654297,1417.53466796875,292.6031188964844,1417.53466796875
499.9049987792969,1436.5015869140625,499.9049987792969,1413.54150390625,582.2305908203125,1413.54150390625,582.2305908203125,1436.5015869140625
479.07562255859375,1440.4947509765625,420.55499267578125,1440.4947509765625,420.55499267578125,1413.5416259765625,479.07562255859375,1413.5416259765625
792.5081176757812,1432.5086669921875,733.9874877929688,1432.5086669921875,733.9874877929688,1409.548583984375,792.5081176757812,1409.548583984375
407.6606140136719,1440.4947509765625,388.81500244140625,1440.4947509765625,388.81500244140625,1413.5416259765625,407.6606140136719,1413.5416259765625
1117.8431396484375,1428.515625,1114.867431640625,1428.515625,1114.867431640625,1409.548583984375,1117.8431396484375,1409.548583984375
1220.998046875,1420.529541015625,1210.0875244140625,1420.529541015625,1210.0875244140625,1409.548583984375,1220.998046875,1409.548583984375
1141.6480712890625,1428.515625,1134.7049560546875,1428.515625,1134.7049560546875,1401.5625,1141.6480712890625,1401.5625
316.4081115722656,1404.5572509765625,257.8874816894531,1404.5572509765625,257.8874816894531,1381.59716796875,316.4081115722656,1381.59716796875
248.9606170654297,1408.55029296875,186.4724884033203,1408.55029296875,186.4724884033203,1381.59716796875,248.9606170654297,1381.59716796875
483.0431213378906,1400.564208984375,464.1974792480469,1400.564208984375,464.1974792480469,1377.6041259765625,483.0431213378906,1377.6041259765625
1047.419921875,1388.5850830078125,1047.419921875,1365.625,1125.778076171875,1365.625,1125.778076171875,1388.5850830078125
1343.9906005859375,1384.592041015625,1325.14501953125,1384.592041015625,1325.14501953125,1361.6319580078125,1343.9906005859375,1361.6319580078125
1316.2181396484375,1384.592041015625,1305.3074951171875,1384.592041015625,1305.3074951171875,1361.6319580078125,1316.2181396484375,1361.6319580078125
1284.47802734375,1384.592041015625,1273.5675048828125,1384.592041015625,1273.5675048828125,1361.6319580078125,1284.47802734375,1361.6319580078125
1240.8355712890625,1384.592041015625,1225.95751953125,1384.592041015625,1225.95751953125,1361.6319580078125,1240.8355712890625,1361.6319580078125
1170.4124755859375,1384.592041015625,1170.4124755859375,1361.6319580078125,1181.3231201171875,1361.6319580078125,1181.3231201171875,1384.592041015625
383.8556213378906,1364.626708984375,361.04248046875,1364.626708984375,361.04248046875,1341.6666259765625,383.8556213378906,1341.6666259765625
226.14749145507812,1368.61962890625,226.14749145507812,1341.66650390625,272.765625,1341.66650390625,272.765625,1368.61962890625
510.81561279296875,1360.6336669921875,488.0024719238281,1360.6336669921875,488.0024719238281,1341.6666259765625,510.81561279296875,1341.6666259765625
479.07562255859375,1364.626708984375,404.68499755859375,1364.626708984375,404.68499755859375,1341.6666259765625,479.07562255859375,1341.6666259765625
768.703125,1356.640625,749.8574829101562,1356.640625,749.8574829101562,1337.673583984375,768.703125,1337.673583984375
645.7106323242188,1356.640625,622.8974609375,1356.640625,622.8974609375,1337.673583984375,645.7106323242188,1337.673583984375
613.9705810546875,1360.6336669921875,539.5799560546875,1360.6336669921875,539.5799560546875,1337.673583984375,613.9705810546875,1337.673583984375
891.6956176757812,1356.640625,872.8499755859375,1356.640625,872.8499755859375,1333.6805419921875,891.6956176757812,1333.6805419921875
674.4749145507812,1356.6405029296875,674.4749145507812,1333.680419921875,736.9630126953125,1333.680419921875,736.9630126953125,1356.6405029296875
975.0131225585938,1352.6475830078125,904.5899658203125,1352.6475830078125,904.5899658203125,1329.6875,975.0131225585938,1329.6875
859.9556274414062,1356.640625,845.0774536132812,1356.640625,845.0774536132812,1333.6805419921875,859.9556274414062,1333.6805419921875
328.31060791015625,1332.6822509765625,186.4724884033203,1332.6822509765625,186.4724884033203,1309.72216796875,328.31060791015625,1309.72216796875
479.07562255859375,1328.689208984375,404.68499755859375,1328.689208984375,404.68499755859375,1305.7291259765625,479.07562255859375,1305.7291259765625
613.9705810546875,1324.6961669921875,535.6124877929688,1324.6961669921875,535.6124877929688,1301.736083984375,613.9705810546875,1301.736083984375
736.9630737304688,1324.6961669921875,722.0849609375,1324.6961669921875,722.0849609375,1301.736083984375,736.9630737304688,1301.736083984375
978.9805908203125,1320.703125,964.1024780273438,1320.703125,964.1024780273438,1297.7430419921875,978.9805908203125,1297.7430419921875
859.9556274414062,1324.6961669921875,845.0774536132812,1324.6961669921875,845.0774536132812,1297.7430419921875,859.9556274414062,1297.7430419921875
150.76498413085938,1304.730712890625,150.76498413085938,1277.777587890625,332.2780456542969,1277.777587890625,332.2780456542969,1304.730712890625
736.9630737304688,1292.751708984375,722.0849609375,1292.751708984375,722.0849609375,1269.7916259765625,736.9630737304688,1269.7916259765625
978.9805908203125,1288.7586669921875,960.1349487304688,1288.7586669921875,960.1349487304688,1265.798583984375,978.9805908203125,1265.798583984375
859.9556274414062,1292.751708984375,845.0774536132812,1292.751708984375,845.0774536132812,1265.798583984375,859.9556274414062,1265.798583984375
332.2781066894531,1272.7864990234375,289.62750244140625,1272.7864990234375,289.62750244140625,1245.8333740234375,332.2781066894531,1245.8333740234375
276.7331237792969,1272.7864990234375,210.27749633789062,1272.7864990234375,210.27749633789062,1245.8333740234375,276.7331237792969,1245.8333740234375
154.73248291015625,1272.786376953125,154.73248291015625,1245.833251953125,201.35060119628906,1245.833251953125,201.35060119628906,1272.786376953125
978.9805908203125,1256.814208984375,960.1349487304688,1256.814208984375,960.1349487304688,1233.8541259765625,978.9805908203125,1233.8541259765625
859.9556274414062,1260.8072509765625,841.1099853515625,1260.8072509765625,841.1099853515625,1233.8541259765625,859.9556274414062,1233.8541259765625
736.9630737304688,1260.8072509765625,722.0849609375,1260.8072509765625,722.0849609375,1233.8541259765625,736.9630737304688,1233.8541259765625
142.8300018310547,1232.8558349609375,142.8300018310547,1209.8958740234375,348.1481018066406,1209.8958740234375,348.1481018066406,1232.8558349609375
475.1081237792969,1232.8558349609375,460.22998046875,1232.8558349609375,460.22998046875,1205.9027099609375,475.1081237792969,1205.9027099609375
610.0031127929688,1224.8697509765625,595.125,1224.8697509765625,595.125,1205.9027099609375,610.0031127929688,1205.9027099609375
265.8224792480469,1200.9114990234375,265.8224792480469,1177.951416015625,292.6031188964844,1177.951416015625,292.6031188964844,1200.9114990234375
252.92811584472656,1200.9114990234375,226.14749145507812,1200.9114990234375,226.14749145507812,1177.951416015625,252.92811584472656,1177.951416015625
975.0131225585938,1188.9322509765625,960.1349487304688,1188.9322509765625,960.1349487304688,1165.97216796875,975.0131225585938,1165.97216796875
153.74061584472656,1176.953125,134.89498901367188,1176.953125,134.89498901367188,1153.9930419921875,153.74061584472656,1153.9930419921875
213.25311279296875,1168.967041015625,170.6024932861328,1168.967041015625,170.6024932861328,1146.0069580078125,213.25311279296875,1146.0069580078125
732.99560546875,1160.9808349609375,718.1174926757812,1160.9808349609375,718.1174926757812,1138.0208740234375,732.99560546875,1138.0208740234375
971.0455932617188,1156.98779296875,956.16748046875,1156.98779296875,956.16748046875,1134.0277099609375,971.0455932617188,1134.0277099609375
859.9556274414062,1160.9808349609375,841.1099853515625,1160.9808349609375,841.1099853515625,1134.0277099609375,859.9556274414062,1134.0277099609375
170.6024627685547,1137.0224609375,170.6024627685547,1114.0623779296875,292.60308837890625,1114.0623779296875,292.60308837890625,1137.0224609375
153.74061584472656,1133.029541015625,130.927490234375,1133.029541015625,130.927490234375,1110.0694580078125,153.74061584472656,1110.0694580078125
971.0455932617188,1125.0433349609375,896.6549682617188,1125.0433349609375,896.6549682617188,1102.0833740234375,971.0455932617188,1102.0833740234375
855.9880981445312,1129.0364990234375,841.1099853515625,1129.0364990234375,841.1099853515625,1102.0833740234375,855.9880981445312,1102.0833740234375
714.1499633789062,1129.0364990234375,714.1499633789062,1102.0833740234375,732.99560546875,1102.0833740234375,732.99560546875,1129.0364990234375
292.6031188964844,1101.0850830078125,226.14749145507812,1101.0850830078125,226.14749145507812,1078.125,292.6031188964844,1078.125
201.35061645507812,1101.0850830078125,162.66749572753906,1101.0850830078125,162.66749572753906,1082.1180419921875,201.35061645507812,1082.1180419921875
855.9880981445312,1093.0989990234375,837.1424560546875,1093.0989990234375,837.1424560546875,1070.138916015625,855.9880981445312,1070.138916015625
732.99560546875,1097.092041015625,714.1499633789062,1097.092041015625,714.1499633789062,1070.138916015625,732.99560546875,1070.138916015625
149.7731170654297,1093.0989990234375,126.95999908447266,1093.0989990234375,126.95999908447266,1070.138916015625,149.7731170654297,1070.138916015625
975.0131225585938,1089.1058349609375,956.16748046875,1089.1058349609375,956.16748046875,1066.1458740234375,975.0131225585938,1066.1458740234375
284.6681213378906,1069.140625,226.14749145507812,1069.140625,226.14749145507812,1042.1875,284.6681213378906,1042.1875
193.41561889648438,1069.140625,162.66749572753906,1069.140625,162.66749572753906,1046.1805419921875,193.41561889648438,1046.1805419921875
855.9880981445312,1061.154541015625,837.1424560546875,1061.154541015625,837.1424560546875,1038.1944580078125,855.9880981445312,1038.1944580078125
729.028076171875,1061.154541015625,714.1499633789062,1061.154541015625,714.1499633789062,1038.1944580078125,729.028076171875,1038.1944580078125
975.0131225585938,1057.1614990234375,956.16748046875,1057.1614990234375,956.16748046875,1034.201416015625,975.0131225585938,1034.201416015625
145.8056182861328,1053.1683349609375,122.99249267578125,1053.1683349609375,122.99249267578125,1026.2152099609375,145.8056182861328,1026.2152099609375
284.6681213378906,1033.203125,222.17999267578125,1033.203125,222.17999267578125,1010.2430419921875,284.6681213378906,1010.2430419921875
158.6999969482422,1033.203125,158.6999969482422,1010.2430419921875,185.48062133789062,1010.2430419921875,185.48062133789062,1033.203125
729.028076171875,1029.2100830078125,714.1499633789062,1029.2100830078125,714.1499633789062,1006.25,729.028076171875,1006.25
975.0131225585938,1025.217041015625,952.199951171875,1025.217041015625,952.199951171875,1002.2569580078125,975.0131225585938,1002.2569580078125
852.0206298828125,1029.2100830078125,837.1424560546875,1029.2100830078125,837.1424560546875,1002.2569580078125,852.0206298828125,1002.2569580078125
320.3756103515625,1005.251708984375,158.6999969482422,1005.251708984375,158.6999969482422,978.298583984375,320.3756103515625,978.298583984375
729.028076171875,993.2725830078125,710.1824951171875,993.2725830078125,710.1824951171875,970.3125,729.028076171875,970.3125
971.0455932617188,989.2794799804688,952.199951171875,989.2794799804688,952.199951171875,966.3194580078125,971.0455932617188,966.3194580078125
852.0206298828125,993.2725830078125,833.1749877929688,993.2725830078125,833.1749877929688,966.3194580078125,852.0206298828125,966.3194580078125
296.57061767578125,965.3211669921875,234.08248901367188,965.3211669921875,234.08248901367188,942.361083984375,296.57061767578125,942.361083984375
217.22061157226562,969.314208984375,174.5699920654297,969.314208984375,174.5699920654297,942.361083984375,217.22061157226562,942.361083984375
1082.1356201171875,957.3350830078125,987.907470703125,957.3350830078125,987.907470703125,934.375,1082.1356201171875,934.375
852.0206298828125,961.328125,833.1749877929688,961.328125,833.1749877929688,938.3680419921875,852.0206298828125,938.3680419921875
725.0606079101562,961.328125,710.1824951171875,961.328125,710.1824951171875,938.3680419921875,725.0606079101562,938.3680419921875
1217.0306396484375,957.3350830078125,1091.0625,957.3350830078125,1091.0625,930.3819580078125,1217.0306396484375,930.3819580078125
971.0455932617188,957.3350830078125,952.199951171875,957.3350830078125,952.199951171875,934.375,971.0455932617188,934.375
316.4081115722656,933.376708984375,154.7324981689453,933.376708984375,154.7324981689453,910.4166259765625,316.4081115722656,910.4166259765625
725.0606079101562,929.3836669921875,706.2149658203125,929.3836669921875,706.2149658203125,906.423583984375,725.0606079101562,906.423583984375
971.0455932617188,925.390625,952.199951171875,925.390625,952.199951171875,902.4305419921875,971.0455932617188,902.4305419921875
852.0206298828125,929.3836669921875,833.1749877929688,929.3836669921875,833.1749877929688,902.4305419921875,852.0206298828125,902.4305419921875
1031.5499267578125,921.3975830078125,1031.5499267578125,894.4444580078125,1157.51806640625,894.4444580078125,1157.51806640625,921.3975830078125
221.18812561035156,897.439208984375,174.5699920654297,897.439208984375,174.5699920654297,874.4791259765625,221.18812561035156,874.4791259765625
300.5381164550781,897.439208984375,238.04998779296875,897.439208984375,238.04998779296875,874.4791259765625,300.5381164550781,874.4791259765625
725.0606079101562,893.4461669921875,706.2149658203125,893.4461669921875,706.2149658203125,870.486083984375,725.0606079101562,870.486083984375
1035.517333984375,889.453125,1035.517333984375,862.5,1157.5179443359375,862.5,1157.5179443359375,889.453125
967.078125,889.453125,952.199951171875,889.453125,952.199951171875,866.4930419921875,967.078125,866.4930419921875
848.0531005859375,893.4461669921875,833.1749877929688,893.4461669921875,833.1749877929688,866.4930419921875,848.0531005859375,866.4930419921875
296.57061767578125,865.4947509765625,174.5699920654297,865.4947509765625,174.5699920654297,842.5347290039062,296.57061767578125,842.5347290039062
721.0930786132812,857.5086669921875,706.2149658203125,857.5086669921875,706.2149658203125,838.5416259765625,721.0930786132812,838.5416259765625
1059.3223876953125,853.515625,1059.3223876953125,830.5555419921875,1173.387939453125,830.5555419921875,1173.387939453125,853.515625
829.2074584960938,857.5086669921875,829.2074584960938,834.548583984375,848.0531005859375,834.548583984375,848.0531005859375,857.5086669921875
967.078125,853.515625,952.199951171875,853.515625,952.199951171875,830.5555419921875,967.078125,830.5555419921875
1300.34814453125,849.5225830078125,1289.4375,849.5225830078125,1289.4375,826.5625,1300.34814453125,826.5625
284.6681213378906,833.5503540039062,182.50498962402344,833.5503540039062,182.50498962402344,810.5902709960938,284.6681213378906,810.5902709960938
129.9356231689453,837.5433959960938,111.08999633789062,837.5433959960938,111.08999633789062,814.5833129882812,129.9356231689453,814.5833129882812
967.078125,825.564208984375,952.199951171875,825.564208984375,952.199951171875,806.5972290039062,967.078125,806.5972290039062
848.0531005859375,829.5572509765625,829.2074584960938,829.5572509765625,829.2074584960938,806.5972290039062,848.0531005859375,806.5972290039062
721.0930786132812,829.5572509765625,706.2149658203125,829.5572509765625,706.2149658203125,806.5972290039062,721.0930786132812,806.5972290039062
1190.25,821.5711669921875,1190.25,794.6180419921875,1220.998046875,794.6180419921875,1220.998046875,821.5711669921875
1145.6156005859375,821.5711669921875,979.9724731445312,821.5711669921875,979.9724731445312,798.611083984375,1145.6156005859375,798.611083984375
292.6031188964844,805.5989379882812,273.75750732421875,805.5989379882812,273.75750732421875,782.6388549804688,292.6031188964844,782.6388549804688
248.9606170654297,801.6058959960938,222.17999267578125,801.6058959960938,222.17999267578125,782.6388549804688,248.9606170654297,782.6388549804688
193.41561889648438,805.5989379882812,174.5699920654297,805.5989379882812,174.5699920654297,782.6388549804688,193.41561889648438,782.6388549804688
967.078125,793.6197509765625,948.2324829101562,793.6197509765625,948.2324829101562,774.6527709960938,967.078125,774.6527709960938
848.0531005859375,797.6128540039062,829.2074584960938,797.6128540039062,829.2074584960938,774.6527709960938,848.0531005859375,774.6527709960938
721.0930786132812,797.6128540039062,702.2474975585938,797.6128540039062,702.2474975585938,774.6527709960938,721.0930786132812,774.6527709960938
1403.5030517578125,781.640625,1360.8524169921875,781.640625,1360.8524169921875,758.6805419921875,1403.5030517578125,758.6805419921875
1351.925537109375,785.6336669921875,1317.2099609375,785.6336669921875,1317.2099609375,758.6805419921875,1351.925537109375,758.6805419921875
1169.4205322265625,785.6336669921875,1126.77001953125,785.6336669921875,1126.77001953125,762.673583984375,1169.4205322265625,762.673583984375
296.57061767578125,773.6544799804688,170.6024932861328,773.6544799804688,170.6024932861328,746.7013549804688,296.57061767578125,746.7013549804688
129.9356231689453,773.6544799804688,111.08999633789062,773.6544799804688,111.08999633789062,750.6944580078125,129.9356231689453,750.6944580078125
848.0531005859375,765.6683959960938,829.2074584960938,765.6683959960938,829.2074584960938,742.7083129882812,848.0531005859375,742.7083129882812
721.0930786132812,765.6683959960938,706.2149658203125,765.6683959960938,706.2149658203125,742.7083129882812,721.0930786132812,742.7083129882812
967.078125,761.6753540039062,948.2324829101562,761.6753540039062,948.2324829101562,738.7152709960938,967.078125,738.7152709960938
979.9724731445312,753.689208984375,979.9724731445312,734.7222290039062,998.818115234375,734.7222290039062,998.818115234375,753.689208984375
1169.4205322265625,753.689208984375,1126.77001953125,753.689208984375,1126.77001953125,730.7291870117188,1169.4205322265625,730.7291870117188
1050.3956298828125,757.6822509765625,1011.7124633789062,757.6822509765625,1011.7124633789062,710.7638549804688,1050.3956298828125,710.7638549804688
998.818115234375,737.7169799804688,979.9724731445312,737.7169799804688,979.9724731445312,710.7638549804688,998.818115234375,710.7638549804688
292.6031188964844,733.7239379882812,273.75750732421875,733.7239379882812,273.75750732421875,714.7569580078125,292.6031188964844,714.7569580078125
244.9931182861328,737.7169799804688,222.17999267578125,737.7169799804688,222.17999267578125,710.7638549804688,244.9931182861328,710.7638549804688
201.35061645507812,737.7169799804688,170.6024932861328,737.7169799804688,170.6024932861328,714.7569580078125,201.35061645507812,714.7569580078125
844.0855712890625,729.7308959960938,829.2074584960938,729.7308959960938,829.2074584960938,706.7708129882812,844.0855712890625,706.7708129882812
717.1256103515625,725.7378540039062,706.2149658203125,725.7378540039062,706.2149658203125,706.7708129882812,717.1256103515625,706.7708129882812
1095.030029296875,725.7378540039062,1095.030029296875,698.7847290039062,1197.193115234375,698.7847290039062,1197.193115234375,725.7378540039062
963.110595703125,729.7308959960938,948.2324829101562,729.7308959960938,948.2324829101562,702.7777709960938,963.110595703125,702.7777709960938
129.9356231689453,717.751708984375,111.08999633789062,717.751708984375,111.08999633789062,690.798583984375,129.9356231689453,690.798583984375
257.8874816894531,705.7725830078125,257.8874816894531,682.8125,316.4081115722656,682.8125,316.4081115722656,705.7725830078125
650.6699829101562,697.7864379882812,650.6699829101562,674.8263549804688,717.1256103515625,674.8263549804688,717.1256103515625,697.7864379882812
963.110595703125,697.7864379882812,948.2324829101562,697.7864379882812,948.2324829101562,674.8263549804688,963.110595703125,674.8263549804688
844.0855712890625,697.7864379882812,829.2074584960938,697.7864379882812,829.2074584960938,674.8263549804688,844.0855712890625,674.8263549804688
1169.4205322265625,689.8003540039062,1122.802490234375,689.8003540039062,1122.802490234375,666.8402709960938,1169.4205322265625,666.8402709960938
1351.925537109375,689.8003540039062,1313.242431640625,689.8003540039062,1313.242431640625,666.8402709960938,1351.925537109375,666.8402709960938
229.1231231689453,689.8003540039062,166.63499450683594,689.8003540039062,166.63499450683594,666.8402709960938,229.1231231689453,666.8402709960938
963.110595703125,665.8419799804688,948.2324829101562,665.8419799804688,948.2324829101562,642.8819580078125,963.110595703125,642.8819580078125
844.0855712890625,665.8419799804688,825.239990234375,665.8419799804688,825.239990234375,642.8819580078125,844.0855712890625,642.8819580078125
717.1256103515625,665.8419799804688,702.2474975585938,665.8419799804688,702.2474975585938,642.8819580078125,717.1256103515625,642.8819580078125
1121.810546875,653.8628540039062,1047.419921875,653.8628540039062,1047.419921875,634.8958129882812,1121.810546875,634.8958129882812
129.9356231689453,653.8628540039062,111.08999633789062,653.8628540039062,111.08999633789062,630.9027709960938,129.9356231689453,630.9027709960938
1399.53564453125,641.8836669921875,1313.242431640625,641.8836669921875,1313.242431640625,614.9305419921875,1399.53564453125,614.9305419921875
316.4081115722656,637.890625,253.9199981689453,637.890625,253.9199981689453,614.9305419921875,316.4081115722656,614.9305419921875
166.63499450683594,629.9044799804688,166.63499450683594,610.9375,229.1231231689453,610.9375,229.1231231689453,629.9044799804688
1161.485595703125,633.8975830078125,1043.4525146484375,633.8975830078125,1043.4525146484375,606.9444580078125,1161.485595703125,606.9444580078125
1034.525634765625,633.8975830078125,1011.7124633789062,633.8975830078125,1011.7124633789062,610.9375,1034.525634765625,610.9375
844.0855712890625,633.8975830078125,825.239990234375,633.8975830078125,825.239990234375,610.9375,844.0855712890625,610.9375
717.1256103515625,633.8975830078125,698.2799682617188,633.8975830078125,698.2799682617188,610.9375,717.1256103515625,610.9375
963.110595703125,633.8975830078125,944.2649536132812,633.8975830078125,944.2649536132812,606.9444580078125,963.110595703125,606.9444580078125
166.63499450683594,609.939208984375,166.63499450683594,586.9791870117188,229.1231231689453,586.9791870117188,229.1231231689453,609.939208984375
316.4081115722656,605.9461669921875,257.8874816894531,605.9461669921875,257.8874816894531,582.986083984375,316.4081115722656,582.986083984375
717.1256103515625,601.953125,698.2799682617188,601.953125,698.2799682617188,578.9930419921875,717.1256103515625,578.9930419921875
963.110595703125,597.9600830078125,944.2649536132812,597.9600830078125,944.2649536132812,575.0,963.110595703125,575.0
844.0855712890625,601.953125,825.239990234375,601.953125,825.239990234375,575.0,844.0855712890625,575.0
1129.74560546875,581.9878540039062,1067.2574462890625,581.9878540039062,1067.2574462890625,555.0347290039062,1129.74560546875,555.0347290039062
1058.33056640625,581.9878540039062,1015.6799926757812,581.9878540039062,1015.6799926757812,555.0347290039062,1058.33056640625,555.0347290039062
1138.67236328125,577.9947509765625,1138.67236328125,551.0416259765625,1185.29052734375,551.0416259765625,1185.29052734375,577.9947509765625
1006.7531127929688,581.9878540039062,979.9724731445312,581.9878540039062,979.9724731445312,555.0347290039062,1006.7531127929688,555.0347290039062
296.57061767578125,570.0086669921875,273.75750732421875,570.0086669921875,273.75750732421875,551.0416870117188,296.57061767578125,551.0416870117188
193.41561889648438,570.0086669921875,170.6024932861328,570.0086669921875,170.6024932861328,551.0416870117188,193.41561889648438,551.0416870117188
1399.53564453125,570.0086669921875,1380.68994140625,570.0086669921875,1380.68994140625,543.0555419921875,1399.53564453125,543.0555419921875
963.110595703125,562.0225830078125,944.2649536132812,562.0225830078125,944.2649536132812,543.0555419921875,963.110595703125,543.0555419921875
844.0855712890625,566.015625,825.239990234375,566.015625,825.239990234375,543.0555419921875,844.0855712890625,543.0555419921875
717.1256103515625,566.015625,698.2799682617188,566.015625,698.2799682617188,543.0555419921875,717.1256103515625,543.0555419921875
292.6031188964844,538.064208984375,269.78997802734375,538.064208984375,269.78997802734375,515.1041870117188,292.6031188964844,515.1041870117188
241.02561950683594,542.0573120117188,218.21249389648438,542.0573120117188,218.21249389648438,515.1041870117188,241.02561950683594,515.1041870117188
189.4481201171875,542.0573120117188,166.63499450683594,542.0573120117188,166.63499450683594,515.1041870117188,189.4481201171875,515.1041870117188
959.1431274414062,530.078125,884.7525024414062,530.078125,884.7525024414062,507.1180419921875,959.1431274414062,507.1180419921875
717.1256103515625,534.0711669921875,698.2799682617188,534.0711669921875,698.2799682617188,511.1111145019531,717.1256103515625,511.1111145019531
840.1181030273438,534.0711669921875,825.239990234375,534.0711669921875,825.239990234375,507.1180419921875,840.1181030273438,507.1180419921875
991.875,518.0989379882812,991.875,495.1388854980469,1157.51806640625,495.1388854980469,1157.51806640625,518.0989379882812
288.6356201171875,506.1197814941406,269.78997802734375,506.1197814941406,269.78997802734375,483.15972900390625,288.6356201171875,483.15972900390625
241.02561950683594,506.1197814941406,218.21249389648438,506.1197814941406,218.21249389648438,479.1666564941406,241.02561950683594,479.1666564941406
189.4481201171875,506.1197814941406,162.66749572753906,506.1197814941406,162.66749572753906,479.1666564941406,189.4481201171875,479.1666564941406
1106.932373046875,498.1336669921875,1106.932373046875,471.1805419921875,1157.5179443359375,471.1805419921875,1157.5179443359375,498.1336669921875
840.1181030273438,498.1336669921875,825.239990234375,498.1336669921875,825.239990234375,475.1736145019531,840.1181030273438,475.1736145019531
959.1431274414062,498.1336669921875,944.2649536132812,498.1336669921875,944.2649536132812,471.1805419921875,959.1431274414062,471.1805419921875
570.328125,466.1892395019531,464.1974792480469,466.1892395019531,464.1974792480469,439.2361145019531,570.328125,439.2361145019531
329.3024597167969,462.1961669921875,329.3024597167969,439.2361145019531,435.4330749511719,439.2361145019531,435.4330749511719,462.1961669921875
919.4680786132812,450.2170104980469,880.7849731445312,450.2170104980469,880.7849731445312,431.25,919.4680786132812,431.25
753.8248901367188,454.2100524902344,753.8248901367188,431.25,812.3455200195312,431.25,812.3455200195312,454.2100524902344
614.9624633789062,458.203125,614.9624633789062,427.2569274902344,697.2880859375,427.2569274902344,697.2880859375,458.203125
1149.5831298828125,450.2170104980469,991.875,450.2170104980469,991.875,423.2638854980469,1149.5831298828125,423.2638854980469
1304.3155517578125,434.2447814941406,1289.4375,434.2447814941406,1289.4375,411.28472900390625,1304.3155517578125,411.28472900390625
951.2080688476562,426.2586669921875,849.0449829101562,426.2586669921875,849.0449829101562,407.2916564941406,951.2080688476562,407.2916564941406
800.443115234375,430.2517395019531,761.7599487304688,430.2517395019531,761.7599487304688,407.2916564941406,800.443115234375,407.2916564941406
673.4830932617188,430.2517395019531,634.7999877929688,430.2517395019531,634.7999877929688,407.2916564941406,673.4830932617188,407.2916564941406
420.55499267578125,430.2517395019531,420.55499267578125,403.2986145019531,526.6856079101562,403.2986145019531,526.6856079101562,430.2517395019531
407.6606140136719,430.2517395019531,365.0099792480469,430.2517395019531,365.0099792480469,407.2916564941406,407.6606140136719,407.2916564941406
256.8956298828125,434.2447814941406,234.08248901367188,434.2447814941406,234.08248901367188,407.2916564941406,256.8956298828125,407.2916564941406
1137.6805419921875,426.2586669921875,1095.030029296875,426.2586669921875,1095.030029296875,399.3055419921875,1137.6805419921875,399.3055419921875
841.1099853515625,390.3211669921875,841.1099853515625,367.3611145019531,883.7606201171875,367.3611145019531,883.7606201171875,390.3211669921875
836.1505737304688,390.3211669921875,821.2724609375,390.3211669921875,821.2724609375,371.3541564941406,836.1505737304688,371.3541564941406
534.62060546875,394.3142395019531,491.969970703125,394.3142395019531,491.969970703125,371.3541564941406,534.62060546875,371.3541564941406
1122.8023681640625,390.3211364746094,1122.8023681640625,363.3680114746094,1252.7379150390625,363.3680114746094,1252.7379150390625,390.3211364746094
982.9481201171875,362.3697814941406,944.2649536132812,362.3697814941406,944.2649536132812,339.40972900390625,982.9481201171875,339.40972900390625
546.5231323242188,362.3697814941406,480.0674743652344,362.3697814941406,480.0674743652344,339.40972900390625,546.5231323242188,339.40972900390625
804.4105834960938,362.3697814941406,769.6950073242188,362.3697814941406,769.6950073242188,339.40972900390625,804.4105834960938,339.40972900390625
213.25311279296875,362.3697814941406,170.6024932861328,362.3697814941406,170.6024932861328,339.40972900390625,213.25311279296875,339.40972900390625
920.4599609375,326.4322509765625,920.4599609375,303.4721984863281,1002.7855834960938,303.4721984863281,1002.7855834960938,326.4322509765625
793.5,330.42535400390625,793.5,303.47222900390625,812.3455810546875,303.47222900390625,812.3455810546875,330.42535400390625
432.4574890136719,330.4253234863281,432.4574890136719,303.4721984863281,590.1655883789062,303.4721984863281,590.1655883789062,330.4253234863281
150.7649688720703,330.4253234863281,150.7649688720703,303.4721984863281,233.09059143066406,303.4721984863281,233.09059143066406,330.4253234863281
1241.827392578125,322.439208984375,1241.827392578125,299.4791259765625,1347.9580078125,299.4791259765625,1347.9580078125,322.439208984375
1240.8355712890625,326.4322814941406,1083.12744140625,326.4322814941406,1083.12744140625,299.4791564941406,1240.8355712890625,299.4791564941406
780.6055908203125,326.4322814941406,761.7599487304688,326.4322814941406,761.7599487304688,303.47222900390625,780.6055908203125,303.47222900390625
979.9724731445312,290.4947814941406,979.9724731445312,271.52777099609375,1006.7531127929688,271.52777099609375,1006.7531127929688,290.4947814941406
932.3624877929688,294.4878234863281,932.3624877929688,271.5277404785156,978.9805908203125,271.5277404785156,978.9805908203125,294.4878234863281
911.5330810546875,294.48785400390625,868.8824462890625,294.48785400390625,868.8824462890625,271.52777099609375,911.5330810546875,271.52777099609375
852.0206298828125,294.48785400390625,825.239990234375,294.48785400390625,825.239990234375,271.52777099609375,852.0206298828125,271.52777099609375
816.3131103515625,294.48785400390625,793.5,294.48785400390625,793.5,271.52777099609375,816.3131103515625,271.52777099609375
784.5731201171875,294.48785400390625,741.9224853515625,294.48785400390625,741.9224853515625,271.52777099609375,784.5731201171875,271.52777099609375
1363.828125,286.5017395019531,1297.3724365234375,286.5017395019531,1297.3724365234375,263.5416564941406,1363.828125,263.5416564941406
1206.119873046875,290.4947509765625,1206.119873046875,263.5416259765625,1252.7379150390625,263.5416259765625,1252.7379150390625,290.4947509765625
1090.070556640625,290.4947814941406,1051.387451171875,290.4947814941406,1051.387451171875,267.53472900390625,1090.070556640625,267.53472900390625
1038.4930419921875,294.48785400390625,1015.6799926757812,294.48785400390625,1015.6799926757812,267.53472900390625,1038.4930419921875,267.53472900390625
959.1431274414062,258.55035400390625,872.8499755859375,258.55035400390625,872.8499755859375,235.59027099609375,959.1431274414062,235.59027099609375
252.92811584472656,262.54339599609375,122.99249267578125,262.54339599609375,122.99249267578125,235.59027099609375,252.92811584472656,235.59027099609375
468.16497802734375,258.55035400390625,468.16497802734375,231.5972137451172,550.4906005859375,231.5972137451172,550.4906005859375,258.55035400390625
741.9224853515625,206.640625,741.9224853515625,175.69444274902344,812.3455810546875,175.69444274902344,812.3455810546875,206.640625
693.3206176757812,206.640625,666.5399780273438,206.640625,666.5399780273438,171.70138549804688,693.3206176757812,171.70138549804688
1232.900634765625,210.63368225097656,1122.802490234375,210.63368225097656,1122.802490234375,167.7083282470703,1232.900634765625,167.7083282470703
947.2406005859375,210.63368225097656,845.0774536132812,210.63368225097656,845.0774536132812,167.7083282470703,947.2406005859375,167.7083282470703
444.3599853515625,210.6336669921875,444.3599853515625,167.70831298828125,562.3931274414062,167.70831298828125,562.3931274414062,210.6336669921875
333.26995849609375,210.6336669921875,333.26995849609375,167.70831298828125,419.5630798339844,167.70831298828125,419.5630798339844,210.6336669921875
316.4081115722656,214.62673950195312,301.5299987792969,214.62673950195312,301.5299987792969,175.69444274902344,316.4081115722656,175.69444274902344
1082.1356201171875,214.62673950195312,972.0374755859375,214.62673950195312,972.0374755859375,163.71527099609375,1082.1356201171875,163.71527099609375
328.31060791015625,154.73089599609375,230.114990234375,154.73089599609375,230.114990234375,127.77777862548828,328.31060791015625,127.77777862548828
91.25248718261719,154.73089599609375,91.25248718261719,127.77777862548828,213.25308227539062,127.77777862548828,213.25308227539062,154.73089599609375
863.923095703125,154.73089599609375,769.6950073242188,154.73089599609375,769.6950073242188,127.77777862548828,863.923095703125,127.77777862548828
756.8005981445312,150.7378387451172,706.2149658203125,150.7378387451172,706.2149658203125,127.77777862548828,756.8005981445312,127.77777862548828
591.1574096679688,154.73089599609375,591.1574096679688,123.78472137451172,693.320556640625,123.78472137451172,693.320556640625,154.73089599609375
578.2631225585938,154.73089599609375,523.7099609375,154.73089599609375,523.7099609375,123.78472137451172,578.2631225585938,123.78472137451172
510.81561279296875,154.73089599609375,472.1324768066406,154.73089599609375,472.1324768066406,123.78472137451172,510.81561279296875,123.78472137451172
459.23809814453125,154.73089599609375,416.5874938964844,154.73089599609375,416.5874938964844,127.77777862548828,459.23809814453125,127.77777862548828
